{
	"country": "Nigeria",
	"name": "Aba",
	"gps": {
		"latitude": 5.1004,
		"longitude": 7.35
	},
	"slug": "aba",
	"adminName": "Abia",
	"photoUrl": "https://live.staticflickr.com/1704/24683050235_be29dd1068_m.jpg"
}