{
	"country": "Pakistan",
	"name": "Abbottabad",
	"gps": {
		"latitude": 34.1495,
		"longitude": 73.1995
	},
	"slug": "abbottabad",
	"adminName": "Khyber Pakhtunkhwa",
	"photoUrl": "https://live.staticflickr.com/1623/25219029734_44a495bd53_m.jpg"
}