{
	"country": "Mexico",
	"name": "Acapulco de Juárez",
	"gps": {
		"latitude": 16.85,
		"longitude": -99.916
	},
	"slug": "acapulco-de-juarez",
	"adminName": "Guerrero",
	"photoUrl": "https://live.staticflickr.com/5297/5482585903_45b2a11753_m.jpg"
}