{
	"country": "Australia",
	"name": "Adelaide",
	"gps": {
		"latitude": -34.935,
		"longitude": 138.6
	},
	"slug": "adelaide",
	"adminName": "South Australia",
	"photoUrl": "https://live.staticflickr.com/5054/5512718831_f301daaf6d_m.jpg"
}