{
	"country": "Morocco",
	"name": "Agadir",
	"gps": {
		"latitude": 30.44,
		"longitude": -9.62
	},
	"slug": "agadir",
	"adminName": "Souss-Massa",
	"photoUrl": "https://live.staticflickr.com/7302/28311131595_0022ed3a05_m.jpg"
}