{
	"country": "Jordan",
	"name": "Amman",
	"gps": {
		"latitude": 31.95,
		"longitude": 35.9333
	},
	"slug": "amman",
	"adminName": "Al ‘Āşimah",
	"photoUrl": "https://live.staticflickr.com/2873/9072459618_0ec895acc5_m.jpg"
}