{
	"country": "Turkey",
	"name": "Ankara",
	"gps": {
		"latitude": 39.9272,
		"longitude": 32.8644
	},
	"slug": "ankara",
	"adminName": "Ankara",
	"photoUrl": "https://live.staticflickr.com/3878/14949894347_0fd24b63ce_m.jpg",
	"api": {
		"results": [
			{
				"attribution": [
					{
						"url": "https://sim.csb.gov.tr/Services/AirQuality",
						"name": "Turkey National Air Quality Monitoring Network (Ulusal Hava Kalitesi İzleme Ağı)",
						"logo": "Turkey-TC-cevre-ve-sehircilik-bakanligi.png"
					},
					{
						"url": "https://waqi.info/",
						"name": "World Air Quality Index Project"
					}
				],
				"averagingPeriod": {
					"unit": "day",
					"value": 1
				},
				"city": "Sıhhıye, Turkey",
				"coordinates": {
					"latitude": 39.92706513272927,
					"longitude": 32.86001400920846
				},
				"country": "TR",
				"date": {
					"local": "2025-03-08T22:00:00.000+00:00",
					"utc": "2025-03-08T19:00:00.000Z"
				},
				"location": "aqicn|13910",
				"isMobile": false,
				"parameter": "co",
				"sourceName": "aqicn",
				"entity": "other",
				"value": 0.5,
				"unit": "ppb"
			},
			{
				"attribution": [
					{
						"url": "https://sim.csb.gov.tr/Services/AirQuality",
						"name": "Turkey National Air Quality Monitoring Network (Ulusal Hava Kalitesi İzleme Ağı)",
						"logo": "Turkey-TC-cevre-ve-sehircilik-bakanligi.png"
					},
					{
						"url": "https://waqi.info/",
						"name": "World Air Quality Index Project"
					}
				],
				"averagingPeriod": {
					"unit": "day",
					"value": 1
				},
				"city": "Sıhhıye, Turkey",
				"coordinates": {
					"latitude": 39.92706513272927,
					"longitude": 32.86001400920846
				},
				"country": "TR",
				"date": {
					"local": "2025-03-08T22:00:00.000+00:00",
					"utc": "2025-03-08T19:00:00.000Z"
				},
				"location": "aqicn|13910",
				"isMobile": false,
				"parameter": "no2",
				"sourceName": "aqicn",
				"entity": "other",
				"value": 64.6,
				"unit": "ppb"
			},
			{
				"attribution": [
					{
						"url": "https://sim.csb.gov.tr/Services/AirQuality",
						"name": "Turkey National Air Quality Monitoring Network (Ulusal Hava Kalitesi İzleme Ağı)",
						"logo": "Turkey-TC-cevre-ve-sehircilik-bakanligi.png"
					},
					{
						"url": "https://waqi.info/",
						"name": "World Air Quality Index Project"
					}
				],
				"averagingPeriod": {
					"unit": "day",
					"value": 1
				},
				"city": "Sıhhıye, Turkey",
				"coordinates": {
					"latitude": 39.92706513272927,
					"longitude": 32.86001400920846
				},
				"country": "TR",
				"date": {
					"local": "2025-03-08T22:00:00.000+00:00",
					"utc": "2025-03-08T19:00:00.000Z"
				},
				"location": "aqicn|13910",
				"isMobile": false,
				"parameter": "o3",
				"sourceName": "aqicn",
				"entity": "other",
				"value": 7.9,
				"unit": "ppb"
			},
			{
				"attribution": [
					{
						"url": "https://sim.csb.gov.tr/Services/AirQuality",
						"name": "Turkey National Air Quality Monitoring Network (Ulusal Hava Kalitesi İzleme Ağı)",
						"logo": "Turkey-TC-cevre-ve-sehircilik-bakanligi.png"
					},
					{
						"url": "https://waqi.info/",
						"name": "World Air Quality Index Project"
					}
				],
				"averagingPeriod": {
					"unit": "day",
					"value": 1
				},
				"city": "Sıhhıye, Turkey",
				"coordinates": {
					"latitude": 39.92706513272927,
					"longitude": 32.86001400920846
				},
				"country": "TR",
				"date": {
					"local": "2025-03-08T22:00:00.000+00:00",
					"utc": "2025-03-08T19:00:00.000Z"
				},
				"location": "aqicn|13910",
				"isMobile": false,
				"parameter": "pm10",
				"sourceName": "aqicn",
				"entity": "other",
				"value": 23.8,
				"unit": "µg/m³"
			},
			{
				"attribution": [
					{
						"url": "https://sim.csb.gov.tr/Services/AirQuality",
						"name": "Turkey National Air Quality Monitoring Network (Ulusal Hava Kalitesi İzleme Ağı)",
						"logo": "Turkey-TC-cevre-ve-sehircilik-bakanligi.png"
					},
					{
						"url": "https://waqi.info/",
						"name": "World Air Quality Index Project"
					}
				],
				"averagingPeriod": {
					"unit": "day",
					"value": 1
				},
				"city": "Sıhhıye, Turkey",
				"coordinates": {
					"latitude": 39.92706513272927,
					"longitude": 32.86001400920846
				},
				"country": "TR",
				"date": {
					"local": "2025-03-08T22:00:00.000+00:00",
					"utc": "2025-03-08T19:00:00.000Z"
				},
				"location": "aqicn|13910",
				"isMobile": false,
				"parameter": "pm25",
				"sourceName": "aqicn",
				"entity": "other",
				"value": 10.1,
				"unit": "µg/m³"
			},
			{
				"attribution": [
					{
						"url": "https://sim.csb.gov.tr/Services/AirQuality",
						"name": "Turkey National Air Quality Monitoring Network (Ulusal Hava Kalitesi İzleme Ağı)",
						"logo": "Turkey-TC-cevre-ve-sehircilik-bakanligi.png"
					},
					{
						"url": "https://waqi.info/",
						"name": "World Air Quality Index Project"
					}
				],
				"averagingPeriod": {
					"unit": "day",
					"value": 1
				},
				"city": "Sıhhıye, Turkey",
				"coordinates": {
					"latitude": 39.92706513272927,
					"longitude": 32.86001400920846
				},
				"country": "TR",
				"date": {
					"local": "2025-03-08T22:00:00.000+00:00",
					"utc": "2025-03-08T19:00:00.000Z"
				},
				"location": "aqicn|13910",
				"isMobile": false,
				"parameter": "so2",
				"sourceName": "aqicn",
				"entity": "other",
				"value": 0.8,
				"unit": "ppb"
			}
		],
		"pm25": {
			"attribution": [
				{
					"url": "https://sim.csb.gov.tr/Services/AirQuality",
					"name": "Turkey National Air Quality Monitoring Network (Ulusal Hava Kalitesi İzleme Ağı)",
					"logo": "Turkey-TC-cevre-ve-sehircilik-bakanligi.png"
				},
				{
					"url": "https://waqi.info/",
					"name": "World Air Quality Index Project"
				}
			],
			"averagingPeriod": {
				"unit": "day",
				"value": 1
			},
			"city": "Sıhhıye, Turkey",
			"coordinates": {
				"latitude": 39.92706513272927,
				"longitude": 32.86001400920846
			},
			"country": "TR",
			"date": {
				"local": "2025-03-08T22:00:00.000+00:00",
				"utc": "2025-03-08T19:00:00.000Z"
			},
			"location": "aqicn|13910",
			"isMobile": false,
			"parameter": "pm25",
			"sourceName": "aqicn",
			"entity": "other",
			"value": 10.1,
			"unit": "µg/m³"
		},
		"shootismoke": {
			"dailyCigarettes": 0.45909090909090905,
			"distanceToStation": 0,
			"isAccurate": true
		}
	}
}