{
	"country": "China",
	"name": "Anqing",
	"gps": {
		"latitude": 30.5,
		"longitude": 117.05
	},
	"slug": "anqing",
	"adminName": "Anhui",
	"photoUrl": "https://live.staticflickr.com/1857/44327501591_1fbd0540ff_m.jpg",
	"api": {
		"results": [
			{
				"attribution": [
					{
						"url": "https://sthjt.ah.gov.cn/",
						"name": "Anhui Environmental Protection Agency (安徽省生态环境厅)"
					},
					{
						"url": "https://waqi.info/",
						"name": "World Air Quality Index Project"
					}
				],
				"averagingPeriod": {
					"unit": "day",
					"value": 1
				},
				"city": "Academy of Environmental Sciences, Anqing (安庆环科院)",
				"coordinates": {
					"latitude": 30.5103,
					"longitude": 117.0549
				},
				"country": "CN",
				"date": {
					"local": "2025-03-09T09:00:00.000+00:00",
					"utc": "2025-03-09T01:00:00.000Z"
				},
				"location": "aqicn|7112",
				"isMobile": false,
				"parameter": "co",
				"sourceName": "aqicn",
				"entity": "other",
				"value": 0.5,
				"unit": "ppb"
			},
			{
				"attribution": [
					{
						"url": "https://sthjt.ah.gov.cn/",
						"name": "Anhui Environmental Protection Agency (安徽省生态环境厅)"
					},
					{
						"url": "https://waqi.info/",
						"name": "World Air Quality Index Project"
					}
				],
				"averagingPeriod": {
					"unit": "day",
					"value": 1
				},
				"city": "Academy of Environmental Sciences, Anqing (安庆环科院)",
				"coordinates": {
					"latitude": 30.5103,
					"longitude": 117.0549
				},
				"country": "CN",
				"date": {
					"local": "2025-03-09T09:00:00.000+00:00",
					"utc": "2025-03-09T01:00:00.000Z"
				},
				"location": "aqicn|7112",
				"isMobile": false,
				"parameter": "no2",
				"sourceName": "aqicn",
				"entity": "other",
				"value": 10.2,
				"unit": "ppb"
			},
			{
				"attribution": [
					{
						"url": "https://sthjt.ah.gov.cn/",
						"name": "Anhui Environmental Protection Agency (安徽省生态环境厅)"
					},
					{
						"url": "https://waqi.info/",
						"name": "World Air Quality Index Project"
					}
				],
				"averagingPeriod": {
					"unit": "day",
					"value": 1
				},
				"city": "Academy of Environmental Sciences, Anqing (安庆环科院)",
				"coordinates": {
					"latitude": 30.5103,
					"longitude": 117.0549
				},
				"country": "CN",
				"date": {
					"local": "2025-03-09T09:00:00.000+00:00",
					"utc": "2025-03-09T01:00:00.000Z"
				},
				"location": "aqicn|7112",
				"isMobile": false,
				"parameter": "pm10",
				"sourceName": "aqicn",
				"entity": "other",
				"value": 75.2,
				"unit": "µg/m³"
			},
			{
				"attribution": [
					{
						"url": "https://sthjt.ah.gov.cn/",
						"name": "Anhui Environmental Protection Agency (安徽省生态环境厅)"
					},
					{
						"url": "https://waqi.info/",
						"name": "World Air Quality Index Project"
					}
				],
				"averagingPeriod": {
					"unit": "day",
					"value": 1
				},
				"city": "Academy of Environmental Sciences, Anqing (安庆环科院)",
				"coordinates": {
					"latitude": 30.5103,
					"longitude": 117.0549
				},
				"country": "CN",
				"date": {
					"local": "2025-03-09T09:00:00.000+00:00",
					"utc": "2025-03-09T01:00:00.000Z"
				},
				"location": "aqicn|7112",
				"isMobile": false,
				"parameter": "pm25",
				"sourceName": "aqicn",
				"entity": "other",
				"value": 54.2,
				"unit": "µg/m³"
			},
			{
				"attribution": [
					{
						"url": "https://sthjt.ah.gov.cn/",
						"name": "Anhui Environmental Protection Agency (安徽省生态环境厅)"
					},
					{
						"url": "https://waqi.info/",
						"name": "World Air Quality Index Project"
					}
				],
				"averagingPeriod": {
					"unit": "day",
					"value": 1
				},
				"city": "Academy of Environmental Sciences, Anqing (安庆环科院)",
				"coordinates": {
					"latitude": 30.5103,
					"longitude": 117.0549
				},
				"country": "CN",
				"date": {
					"local": "2025-03-09T09:00:00.000+00:00",
					"utc": "2025-03-09T01:00:00.000Z"
				},
				"location": "aqicn|7112",
				"isMobile": false,
				"parameter": "so2",
				"sourceName": "aqicn",
				"entity": "other",
				"value": 3.9,
				"unit": "ppb"
			}
		],
		"pm25": {
			"attribution": [
				{
					"url": "https://sthjt.ah.gov.cn/",
					"name": "Anhui Environmental Protection Agency (安徽省生态环境厅)"
				},
				{
					"url": "https://waqi.info/",
					"name": "World Air Quality Index Project"
				}
			],
			"averagingPeriod": {
				"unit": "day",
				"value": 1
			},
			"city": "Academy of Environmental Sciences, Anqing (安庆环科院)",
			"coordinates": {
				"latitude": 30.5103,
				"longitude": 117.0549
			},
			"country": "CN",
			"date": {
				"local": "2025-03-09T09:00:00.000+00:00",
				"utc": "2025-03-09T01:00:00.000Z"
			},
			"location": "aqicn|7112",
			"isMobile": false,
			"parameter": "pm25",
			"sourceName": "aqicn",
			"entity": "other",
			"value": 54.2,
			"unit": "µg/m³"
		},
		"shootismoke": {
			"dailyCigarettes": 2.463636363636364,
			"distanceToStation": 1,
			"isAccurate": true
		}
	}
}