{
	"country": "China",
	"name": "Anshan",
	"gps": {
		"latitude": 41.115,
		"longitude": 122.94
	},
	"slug": "anshan",
	"adminName": "Liaoning",
	"photoUrl": "https://live.staticflickr.com/7412/10230118765_16deb63fe8_m.jpg",
	"api": {
		"results": [
			{
				"attribution": [
					{
						"url": "sthj.ln.gov.cn",
						"name": "Liaoning Provincial Environmental Monitoring (辽宁省环境保护厅)"
					},
					{
						"url": "https://waqi.info/",
						"name": "World Air Quality Index Project"
					}
				],
				"averagingPeriod": {
					"unit": "day",
					"value": 1
				},
				"city": "Tiexi Sandao jie, Anshan (鞍山铁西三道街)",
				"coordinates": {
					"latitude": 41.0971,
					"longitude": 122.9642
				},
				"country": "CN",
				"date": {
					"local": "2025-03-09T09:00:00.000+00:00",
					"utc": "2025-03-09T01:00:00.000Z"
				},
				"location": "aqicn|5233",
				"isMobile": false,
				"parameter": "co",
				"sourceName": "aqicn",
				"entity": "other",
				"value": 1.1,
				"unit": "ppb"
			},
			{
				"attribution": [
					{
						"url": "sthj.ln.gov.cn",
						"name": "Liaoning Provincial Environmental Monitoring (辽宁省环境保护厅)"
					},
					{
						"url": "https://waqi.info/",
						"name": "World Air Quality Index Project"
					}
				],
				"averagingPeriod": {
					"unit": "day",
					"value": 1
				},
				"city": "Tiexi Sandao jie, Anshan (鞍山铁西三道街)",
				"coordinates": {
					"latitude": 41.0971,
					"longitude": 122.9642
				},
				"country": "CN",
				"date": {
					"local": "2025-03-09T09:00:00.000+00:00",
					"utc": "2025-03-09T01:00:00.000Z"
				},
				"location": "aqicn|5233",
				"isMobile": false,
				"parameter": "no2",
				"sourceName": "aqicn",
				"entity": "other",
				"value": 28.2,
				"unit": "ppb"
			},
			{
				"attribution": [
					{
						"url": "sthj.ln.gov.cn",
						"name": "Liaoning Provincial Environmental Monitoring (辽宁省环境保护厅)"
					},
					{
						"url": "https://waqi.info/",
						"name": "World Air Quality Index Project"
					}
				],
				"averagingPeriod": {
					"unit": "day",
					"value": 1
				},
				"city": "Tiexi Sandao jie, Anshan (鞍山铁西三道街)",
				"coordinates": {
					"latitude": 41.0971,
					"longitude": 122.9642
				},
				"country": "CN",
				"date": {
					"local": "2025-03-09T09:00:00.000+00:00",
					"utc": "2025-03-09T01:00:00.000Z"
				},
				"location": "aqicn|5233",
				"isMobile": false,
				"parameter": "pm10",
				"sourceName": "aqicn",
				"entity": "other",
				"value": 163.1,
				"unit": "µg/m³"
			},
			{
				"attribution": [
					{
						"url": "sthj.ln.gov.cn",
						"name": "Liaoning Provincial Environmental Monitoring (辽宁省环境保护厅)"
					},
					{
						"url": "https://waqi.info/",
						"name": "World Air Quality Index Project"
					}
				],
				"averagingPeriod": {
					"unit": "day",
					"value": 1
				},
				"city": "Tiexi Sandao jie, Anshan (鞍山铁西三道街)",
				"coordinates": {
					"latitude": 41.0971,
					"longitude": 122.9642
				},
				"country": "CN",
				"date": {
					"local": "2025-03-09T09:00:00.000+00:00",
					"utc": "2025-03-09T01:00:00.000Z"
				},
				"location": "aqicn|5233",
				"isMobile": false,
				"parameter": "pm25",
				"sourceName": "aqicn",
				"entity": "other",
				"value": 107.8,
				"unit": "µg/m³"
			},
			{
				"attribution": [
					{
						"url": "sthj.ln.gov.cn",
						"name": "Liaoning Provincial Environmental Monitoring (辽宁省环境保护厅)"
					},
					{
						"url": "https://waqi.info/",
						"name": "World Air Quality Index Project"
					}
				],
				"averagingPeriod": {
					"unit": "day",
					"value": 1
				},
				"city": "Tiexi Sandao jie, Anshan (鞍山铁西三道街)",
				"coordinates": {
					"latitude": 41.0971,
					"longitude": 122.9642
				},
				"country": "CN",
				"date": {
					"local": "2025-03-09T09:00:00.000+00:00",
					"utc": "2025-03-09T01:00:00.000Z"
				},
				"location": "aqicn|5233",
				"isMobile": false,
				"parameter": "so2",
				"sourceName": "aqicn",
				"entity": "other",
				"value": 5.7,
				"unit": "ppb"
			}
		],
		"pm25": {
			"attribution": [
				{
					"url": "sthj.ln.gov.cn",
					"name": "Liaoning Provincial Environmental Monitoring (辽宁省环境保护厅)"
				},
				{
					"url": "https://waqi.info/",
					"name": "World Air Quality Index Project"
				}
			],
			"averagingPeriod": {
				"unit": "day",
				"value": 1
			},
			"city": "Tiexi Sandao jie, Anshan (鞍山铁西三道街)",
			"coordinates": {
				"latitude": 41.0971,
				"longitude": 122.9642
			},
			"country": "CN",
			"date": {
				"local": "2025-03-09T09:00:00.000+00:00",
				"utc": "2025-03-09T01:00:00.000Z"
			},
			"location": "aqicn|5233",
			"isMobile": false,
			"parameter": "pm25",
			"sourceName": "aqicn",
			"entity": "other",
			"value": 107.8,
			"unit": "µg/m³"
		},
		"shootismoke": {
			"dailyCigarettes": 4.8999999999999995,
			"distanceToStation": 3,
			"isAccurate": true
		}
	}
}