{
	"country": "China",
	"name": "Anshun",
	"gps": {
		"latitude": 26.2504,
		"longitude": 105.93
	},
	"slug": "anshun",
	"adminName": "Guizhou",
	"photoUrl": "https://live.staticflickr.com/2018/1804674842_dccf53cbd4_m.jpg"
}