{
	"country": "Belgium",
	"name": "Antwerp",
	"gps": {
		"latitude": 51.2204,
		"longitude": 4.415
	},
	"slug": "antwerp",
	"adminName": "Flanders",
	"photoUrl": "https://live.staticflickr.com/5512/11715686193_d86a9c8201_m.jpg",
	"api": {
		"results": [
			{
				"attribution": [
					{
						"url": "https://www.irceline.be/en/",
						"name": "IRCEL-CELINE - Belgian Interregional Environment Agency",
						"logo": "Beligium-irceline.png"
					},
					{
						"url": "https://waqi.info/",
						"name": "World Air Quality Index Project"
					}
				],
				"averagingPeriod": {
					"unit": "day",
					"value": 1
				},
				"city": "Antwerpen (park Spoor Noord), Belgium",
				"coordinates": {
					"latitude": 51.23089,
					"longitude": 4.422911
				},
				"country": "BE",
				"date": {
					"local": "2025-03-08T19:00:00.000+00:00",
					"utc": "2025-03-08T18:00:00.000Z"
				},
				"location": "aqicn|8905",
				"isMobile": false,
				"parameter": "no2",
				"sourceName": "aqicn",
				"entity": "other",
				"value": 11.7,
				"unit": "ppb"
			},
			{
				"attribution": [
					{
						"url": "https://www.irceline.be/en/",
						"name": "IRCEL-CELINE - Belgian Interregional Environment Agency",
						"logo": "Beligium-irceline.png"
					},
					{
						"url": "https://waqi.info/",
						"name": "World Air Quality Index Project"
					}
				],
				"averagingPeriod": {
					"unit": "day",
					"value": 1
				},
				"city": "Antwerpen (park Spoor Noord), Belgium",
				"coordinates": {
					"latitude": 51.23089,
					"longitude": 4.422911
				},
				"country": "BE",
				"date": {
					"local": "2025-03-08T19:00:00.000+00:00",
					"utc": "2025-03-08T18:00:00.000Z"
				},
				"location": "aqicn|8905",
				"isMobile": false,
				"parameter": "pm10",
				"sourceName": "aqicn",
				"entity": "other",
				"value": 32.4,
				"unit": "µg/m³"
			},
			{
				"attribution": [
					{
						"url": "https://www.irceline.be/en/",
						"name": "IRCEL-CELINE - Belgian Interregional Environment Agency",
						"logo": "Beligium-irceline.png"
					},
					{
						"url": "https://waqi.info/",
						"name": "World Air Quality Index Project"
					}
				],
				"averagingPeriod": {
					"unit": "day",
					"value": 1
				},
				"city": "Antwerpen (park Spoor Noord), Belgium",
				"coordinates": {
					"latitude": 51.23089,
					"longitude": 4.422911
				},
				"country": "BE",
				"date": {
					"local": "2025-03-08T19:00:00.000+00:00",
					"utc": "2025-03-08T18:00:00.000Z"
				},
				"location": "aqicn|8905",
				"isMobile": false,
				"parameter": "pm25",
				"sourceName": "aqicn",
				"entity": "other",
				"value": 19.2,
				"unit": "µg/m³"
			}
		],
		"pm25": {
			"attribution": [
				{
					"url": "https://www.irceline.be/en/",
					"name": "IRCEL-CELINE - Belgian Interregional Environment Agency",
					"logo": "Beligium-irceline.png"
				},
				{
					"url": "https://waqi.info/",
					"name": "World Air Quality Index Project"
				}
			],
			"averagingPeriod": {
				"unit": "day",
				"value": 1
			},
			"city": "Antwerpen (park Spoor Noord), Belgium",
			"coordinates": {
				"latitude": 51.23089,
				"longitude": 4.422911
			},
			"country": "BE",
			"date": {
				"local": "2025-03-08T19:00:00.000+00:00",
				"utc": "2025-03-08T18:00:00.000Z"
			},
			"location": "aqicn|8905",
			"isMobile": false,
			"parameter": "pm25",
			"sourceName": "aqicn",
			"entity": "other",
			"value": 19.2,
			"unit": "µg/m³"
		},
		"shootismoke": {
			"dailyCigarettes": 0.8727272727272727,
			"distanceToStation": 1,
			"isAccurate": true
		}
	}
}