{
	"country": "United States",
	"name": "Austin",
	"gps": {
		"latitude": 30.3006,
		"longitude": -97.7517
	},
	"slug": "austin",
	"adminName": "Texas",
	"photoUrl": "https://live.staticflickr.com/1662/26393765440_1ece31340d_m.jpg"
}