{
	"country": "Jordan",
	"name": "Az Zarqā’",
	"gps": {
		"latitude": 32.07,
		"longitude": 36.1
	},
	"slug": "az-zarqa",
	"adminName": "Az Zarqā’",
	"photoUrl": "https://live.staticflickr.com/4900/45181671124_0465300a6e_m.jpg"
}