{
	"country": "Philippines",
	"name": "Bacolod",
	"gps": {
		"latitude": 10.6317,
		"longitude": 122.9817
	},
	"slug": "bacolod",
	"adminName": "Bacolod",
	"photoUrl": "https://live.staticflickr.com/4054/4394703924_7eec63852e_m.jpg"
}