{
	"country": "United States",
	"name": "Baltimore",
	"gps": {
		"latitude": 39.3051,
		"longitude": -76.6144
	},
	"slug": "baltimore",
	"adminName": "Maryland",
	"photoUrl": "https://live.staticflickr.com/7843/47327477231_72bf32dd05_m.jpg"
}