{
	"country": "Indonesia",
	"name": "Bandar Lampung",
	"gps": {
		"latitude": -5.43,
		"longitude": 105.27
	},
	"slug": "bandar-lampung",
	"adminName": "Lampung",
	"photoUrl": "https://live.staticflickr.com/3810/9459960910_02d02aeeb1_m.jpg"
}