{
	"country": "Gambia, The",
	"name": "Banjul",
	"gps": {
		"latitude": 13.4539,
		"longitude": -16.5917
	},
	"slug": "banjul",
	"adminName": "Banjul",
	"photoUrl": "https://live.staticflickr.com/8219/29206233316_6c36b8f300_m.jpg"
}