{
	"country": "Spain",
	"name": "Barcelona",
	"gps": {
		"latitude": 41.3833,
		"longitude": 2.1834
	},
	"slug": "barcelona",
	"adminName": "Catalonia",
	"photoUrl": "https://live.staticflickr.com/1481/24149282371_989a6aa507_m.jpg"
}