{
	"country": "Russia",
	"name": "Barnaul",
	"gps": {
		"latitude": 53.355,
		"longitude": 83.745
	},
	"slug": "barnaul",
	"adminName": "Altayskiy Kray",
	"photoUrl": "https://live.staticflickr.com/3006/2727832327_edd541068f_m.jpg"
}