{
	"country": "Indonesia",
	"name": "Bekasi",
	"gps": {
		"latitude": -6.2173,
		"longitude": 106.9723
	},
	"slug": "bekasi",
	"adminName": "Jawa Barat",
	"photoUrl": "https://live.staticflickr.com/6015/5974149974_12f02ffee0_m.jpg"
}