{
	"country": "China",
	"name": "Bengbu",
	"gps": {
		"latitude": 32.95,
		"longitude": 117.33
	},
	"slug": "bengbu",
	"adminName": "Anhui",
	"photoUrl": "https://live.staticflickr.com/8451/8050178244_0eaa212c9b_m.jpg",
	"api": {
		"results": [
			{
				"attribution": [
					{
						"url": "https://sthjt.ah.gov.cn/",
						"name": "Anhui Environmental Protection Agency (安徽省生态环境厅)"
					},
					{
						"url": "https://waqi.info/",
						"name": "World Air Quality Index Project"
					}
				],
				"averagingPeriod": {
					"unit": "day",
					"value": 1
				},
				"city": "bǎihuò dàlóu, Bangbu (蚌埠百货大楼)",
				"coordinates": {
					"latitude": 32.9444,
					"longitude": 117.3575
				},
				"country": "CN",
				"date": {
					"local": "2025-03-09T09:00:00.000+00:00",
					"utc": "2025-03-09T01:00:00.000Z"
				},
				"location": "aqicn|7092",
				"isMobile": false,
				"parameter": "co",
				"sourceName": "aqicn",
				"entity": "other",
				"value": 0.4,
				"unit": "ppb"
			},
			{
				"attribution": [
					{
						"url": "https://sthjt.ah.gov.cn/",
						"name": "Anhui Environmental Protection Agency (安徽省生态环境厅)"
					},
					{
						"url": "https://waqi.info/",
						"name": "World Air Quality Index Project"
					}
				],
				"averagingPeriod": {
					"unit": "day",
					"value": 1
				},
				"city": "bǎihuò dàlóu, Bangbu (蚌埠百货大楼)",
				"coordinates": {
					"latitude": 32.9444,
					"longitude": 117.3575
				},
				"country": "CN",
				"date": {
					"local": "2025-03-09T09:00:00.000+00:00",
					"utc": "2025-03-09T01:00:00.000Z"
				},
				"location": "aqicn|7092",
				"isMobile": false,
				"parameter": "no2",
				"sourceName": "aqicn",
				"entity": "other",
				"value": 17.5,
				"unit": "ppb"
			},
			{
				"attribution": [
					{
						"url": "https://sthjt.ah.gov.cn/",
						"name": "Anhui Environmental Protection Agency (安徽省生态环境厅)"
					},
					{
						"url": "https://waqi.info/",
						"name": "World Air Quality Index Project"
					}
				],
				"averagingPeriod": {
					"unit": "day",
					"value": 1
				},
				"city": "bǎihuò dàlóu, Bangbu (蚌埠百货大楼)",
				"coordinates": {
					"latitude": 32.9444,
					"longitude": 117.3575
				},
				"country": "CN",
				"date": {
					"local": "2025-03-09T09:00:00.000+00:00",
					"utc": "2025-03-09T01:00:00.000Z"
				},
				"location": "aqicn|7092",
				"isMobile": false,
				"parameter": "pm10",
				"sourceName": "aqicn",
				"entity": "other",
				"value": 97.4,
				"unit": "µg/m³"
			},
			{
				"attribution": [
					{
						"url": "https://sthjt.ah.gov.cn/",
						"name": "Anhui Environmental Protection Agency (安徽省生态环境厅)"
					},
					{
						"url": "https://waqi.info/",
						"name": "World Air Quality Index Project"
					}
				],
				"averagingPeriod": {
					"unit": "day",
					"value": 1
				},
				"city": "bǎihuò dàlóu, Bangbu (蚌埠百货大楼)",
				"coordinates": {
					"latitude": 32.9444,
					"longitude": 117.3575
				},
				"country": "CN",
				"date": {
					"local": "2025-03-09T09:00:00.000+00:00",
					"utc": "2025-03-09T01:00:00.000Z"
				},
				"location": "aqicn|7092",
				"isMobile": false,
				"parameter": "pm25",
				"sourceName": "aqicn",
				"entity": "other",
				"value": 69.1,
				"unit": "µg/m³"
			},
			{
				"attribution": [
					{
						"url": "https://sthjt.ah.gov.cn/",
						"name": "Anhui Environmental Protection Agency (安徽省生态环境厅)"
					},
					{
						"url": "https://waqi.info/",
						"name": "World Air Quality Index Project"
					}
				],
				"averagingPeriod": {
					"unit": "day",
					"value": 1
				},
				"city": "bǎihuò dàlóu, Bangbu (蚌埠百货大楼)",
				"coordinates": {
					"latitude": 32.9444,
					"longitude": 117.3575
				},
				"country": "CN",
				"date": {
					"local": "2025-03-09T09:00:00.000+00:00",
					"utc": "2025-03-09T01:00:00.000Z"
				},
				"location": "aqicn|7092",
				"isMobile": false,
				"parameter": "so2",
				"sourceName": "aqicn",
				"entity": "other",
				"value": 2.2,
				"unit": "ppb"
			}
		],
		"pm25": {
			"attribution": [
				{
					"url": "https://sthjt.ah.gov.cn/",
					"name": "Anhui Environmental Protection Agency (安徽省生态环境厅)"
				},
				{
					"url": "https://waqi.info/",
					"name": "World Air Quality Index Project"
				}
			],
			"averagingPeriod": {
				"unit": "day",
				"value": 1
			},
			"city": "bǎihuò dàlóu, Bangbu (蚌埠百货大楼)",
			"coordinates": {
				"latitude": 32.9444,
				"longitude": 117.3575
			},
			"country": "CN",
			"date": {
				"local": "2025-03-09T09:00:00.000+00:00",
				"utc": "2025-03-09T01:00:00.000Z"
			},
			"location": "aqicn|7092",
			"isMobile": false,
			"parameter": "pm25",
			"sourceName": "aqicn",
			"entity": "other",
			"value": 69.1,
			"unit": "µg/m³"
		},
		"shootismoke": {
			"dailyCigarettes": 3.1409090909090907,
			"distanceToStation": 3,
			"isAccurate": true
		}
	}
}