{
	"country": "Spain",
	"name": "Bilbao",
	"gps": {
		"latitude": 43.25,
		"longitude": -2.93
	},
	"slug": "bilbao",
	"adminName": "Basque Country",
	"photoUrl": "https://live.staticflickr.com/7249/7858464246_d97d7d78b3_m.jpg",
	"api": {
		"results": [
			{
				"attribution": [
					{
						"url": "http://www.euskadi.eus/gobierno-vasco/medio-ambiente/",
						"name": "Departamento de Medio Ambiente, Planificación Territorial y Vivienda · Gobierno Vasco",
						"logo": "Spain-GobiernoVasco.png"
					},
					{
						"url": "http://www.eea.europa.eu/themes/air/",
						"name": "European Environment Agency",
						"logo": "Europe-EEA.png"
					},
					{
						"url": "https://waqi.info/",
						"name": "World Air Quality Index Project"
					}
				],
				"averagingPeriod": {
					"unit": "day",
					"value": 1
				},
				"city": "Mª Diaz Haro, Bilbao, País Vasco, Spain",
				"coordinates": {
					"latitude": 43.258830000142,
					"longitude": -2.9456500004024
				},
				"country": "ES",
				"date": {
					"local": "2025-03-08T18:00:00.000+00:00",
					"utc": "2025-03-08T17:00:00.000Z"
				},
				"location": "aqicn|8651",
				"isMobile": false,
				"parameter": "co",
				"sourceName": "aqicn",
				"entity": "other",
				"value": 0,
				"unit": "ppb"
			},
			{
				"attribution": [
					{
						"url": "http://www.euskadi.eus/gobierno-vasco/medio-ambiente/",
						"name": "Departamento de Medio Ambiente, Planificación Territorial y Vivienda · Gobierno Vasco",
						"logo": "Spain-GobiernoVasco.png"
					},
					{
						"url": "http://www.eea.europa.eu/themes/air/",
						"name": "European Environment Agency",
						"logo": "Europe-EEA.png"
					},
					{
						"url": "https://waqi.info/",
						"name": "World Air Quality Index Project"
					}
				],
				"averagingPeriod": {
					"unit": "day",
					"value": 1
				},
				"city": "Mª Diaz Haro, Bilbao, País Vasco, Spain",
				"coordinates": {
					"latitude": 43.258830000142,
					"longitude": -2.9456500004024
				},
				"country": "ES",
				"date": {
					"local": "2025-03-08T18:00:00.000+00:00",
					"utc": "2025-03-08T17:00:00.000Z"
				},
				"location": "aqicn|8651",
				"isMobile": false,
				"parameter": "no2",
				"sourceName": "aqicn",
				"entity": "other",
				"value": 4.9,
				"unit": "ppb"
			},
			{
				"attribution": [
					{
						"url": "http://www.euskadi.eus/gobierno-vasco/medio-ambiente/",
						"name": "Departamento de Medio Ambiente, Planificación Territorial y Vivienda · Gobierno Vasco",
						"logo": "Spain-GobiernoVasco.png"
					},
					{
						"url": "http://www.eea.europa.eu/themes/air/",
						"name": "European Environment Agency",
						"logo": "Europe-EEA.png"
					},
					{
						"url": "https://waqi.info/",
						"name": "World Air Quality Index Project"
					}
				],
				"averagingPeriod": {
					"unit": "day",
					"value": 1
				},
				"city": "Mª Diaz Haro, Bilbao, País Vasco, Spain",
				"coordinates": {
					"latitude": 43.258830000142,
					"longitude": -2.9456500004024
				},
				"country": "ES",
				"date": {
					"local": "2025-03-08T18:00:00.000+00:00",
					"utc": "2025-03-08T17:00:00.000Z"
				},
				"location": "aqicn|8651",
				"isMobile": false,
				"parameter": "o3",
				"sourceName": "aqicn",
				"entity": "other",
				"value": 27.2,
				"unit": "ppb"
			},
			{
				"attribution": [
					{
						"url": "http://www.euskadi.eus/gobierno-vasco/medio-ambiente/",
						"name": "Departamento de Medio Ambiente, Planificación Territorial y Vivienda · Gobierno Vasco",
						"logo": "Spain-GobiernoVasco.png"
					},
					{
						"url": "http://www.eea.europa.eu/themes/air/",
						"name": "European Environment Agency",
						"logo": "Europe-EEA.png"
					},
					{
						"url": "https://waqi.info/",
						"name": "World Air Quality Index Project"
					}
				],
				"averagingPeriod": {
					"unit": "day",
					"value": 1
				},
				"city": "Mª Diaz Haro, Bilbao, País Vasco, Spain",
				"coordinates": {
					"latitude": 43.258830000142,
					"longitude": -2.9456500004024
				},
				"country": "ES",
				"date": {
					"local": "2025-03-08T18:00:00.000+00:00",
					"utc": "2025-03-08T17:00:00.000Z"
				},
				"location": "aqicn|8651",
				"isMobile": false,
				"parameter": "pm10",
				"sourceName": "aqicn",
				"entity": "other",
				"value": 10.8,
				"unit": "µg/m³"
			},
			{
				"attribution": [
					{
						"url": "http://www.euskadi.eus/gobierno-vasco/medio-ambiente/",
						"name": "Departamento de Medio Ambiente, Planificación Territorial y Vivienda · Gobierno Vasco",
						"logo": "Spain-GobiernoVasco.png"
					},
					{
						"url": "http://www.eea.europa.eu/themes/air/",
						"name": "European Environment Agency",
						"logo": "Europe-EEA.png"
					},
					{
						"url": "https://waqi.info/",
						"name": "World Air Quality Index Project"
					}
				],
				"averagingPeriod": {
					"unit": "day",
					"value": 1
				},
				"city": "Mª Diaz Haro, Bilbao, País Vasco, Spain",
				"coordinates": {
					"latitude": 43.258830000142,
					"longitude": -2.9456500004024
				},
				"country": "ES",
				"date": {
					"local": "2025-03-08T18:00:00.000+00:00",
					"utc": "2025-03-08T17:00:00.000Z"
				},
				"location": "aqicn|8651",
				"isMobile": false,
				"parameter": "pm25",
				"sourceName": "aqicn",
				"entity": "other",
				"value": 7.2,
				"unit": "µg/m³"
			},
			{
				"attribution": [
					{
						"url": "http://www.euskadi.eus/gobierno-vasco/medio-ambiente/",
						"name": "Departamento de Medio Ambiente, Planificación Territorial y Vivienda · Gobierno Vasco",
						"logo": "Spain-GobiernoVasco.png"
					},
					{
						"url": "http://www.eea.europa.eu/themes/air/",
						"name": "European Environment Agency",
						"logo": "Europe-EEA.png"
					},
					{
						"url": "https://waqi.info/",
						"name": "World Air Quality Index Project"
					}
				],
				"averagingPeriod": {
					"unit": "day",
					"value": 1
				},
				"city": "Mª Diaz Haro, Bilbao, País Vasco, Spain",
				"coordinates": {
					"latitude": 43.258830000142,
					"longitude": -2.9456500004024
				},
				"country": "ES",
				"date": {
					"local": "2025-03-08T18:00:00.000+00:00",
					"utc": "2025-03-08T17:00:00.000Z"
				},
				"location": "aqicn|8651",
				"isMobile": false,
				"parameter": "so2",
				"sourceName": "aqicn",
				"entity": "other",
				"value": 1.5,
				"unit": "ppb"
			}
		],
		"pm25": {
			"attribution": [
				{
					"url": "http://www.euskadi.eus/gobierno-vasco/medio-ambiente/",
					"name": "Departamento de Medio Ambiente, Planificación Territorial y Vivienda · Gobierno Vasco",
					"logo": "Spain-GobiernoVasco.png"
				},
				{
					"url": "http://www.eea.europa.eu/themes/air/",
					"name": "European Environment Agency",
					"logo": "Europe-EEA.png"
				},
				{
					"url": "https://waqi.info/",
					"name": "World Air Quality Index Project"
				}
			],
			"averagingPeriod": {
				"unit": "day",
				"value": 1
			},
			"city": "Mª Diaz Haro, Bilbao, País Vasco, Spain",
			"coordinates": {
				"latitude": 43.258830000142,
				"longitude": -2.9456500004024
			},
			"country": "ES",
			"date": {
				"local": "2025-03-08T18:00:00.000+00:00",
				"utc": "2025-03-08T17:00:00.000Z"
			},
			"location": "aqicn|8651",
			"isMobile": false,
			"parameter": "pm25",
			"sourceName": "aqicn",
			"entity": "other",
			"value": 7.2,
			"unit": "µg/m³"
		},
		"shootismoke": {
			"dailyCigarettes": 0.32727272727272727,
			"distanceToStation": 2,
			"isAccurate": true
		}
	}
}