{
	"adminName": "Alabama",
	"country": "United States",
	"name": "Birmingham",
	"gps": {
		"latitude": 33.5277,
		"longitude": -86.7987
	},
	"photoUrl": "https://live.staticflickr.com/1697/24354717533_16fc98fa2c_m.jpg",
	"slug": "birmingham-united-states"
}