{
	"country": "Guinea-Bissau",
	"name": "Bissau",
	"gps": {
		"latitude": 11.865,
		"longitude": -15.5984
	},
	"slug": "bissau",
	"adminName": "Bissau",
	"photoUrl": "https://live.staticflickr.com/2581/4128433711_f3faa3841b_m.jpg"
}