{
	"country": "Côte D’Ivoire",
	"name": "Bouaké",
	"gps": {
		"latitude": 7.69,
		"longitude": -5.03
	},
	"slug": "bouake",
	"adminName": "Vallée du Bandama",
	"photoUrl": "https://live.staticflickr.com/6127/5935332455_06369244d6_m.jpg"
}