{
	"country": "Brazil",
	"name": "Brasília",
	"gps": {
		"latitude": -15.7833,
		"longitude": -47.9161
	},
	"slug": "brasilia",
	"adminName": "Distrito Federal",
	"photoUrl": "https://live.staticflickr.com/1653/25823365732_66d585706c_m.jpg"
}