{
	"country": "United States",
	"name": "Bridgeport",
	"gps": {
		"latitude": 41.1918,
		"longitude": -73.1953
	},
	"slug": "bridgeport",
	"adminName": "Connecticut",
	"photoUrl": "https://live.staticflickr.com/7810/46632475174_3a6cd78080_m.jpg",
	"api": {
		"results": [
			{
				"attribution": [
					{
						"url": "http://ct.gov/deep/cwp/view.asp?a=2684&q=321758",
						"name": "Connecticut Department of Energy and Environmental Protection (DEEP)"
					},
					{
						"url": "http://www.airnow.gov/",
						"name": "Air Now - US EPA"
					},
					{
						"url": "https://waqi.info/",
						"name": "World Air Quality Index Project"
					}
				],
				"averagingPeriod": {
					"unit": "day",
					"value": 1
				},
				"city": "Bridgeport, Connecticut, USA",
				"coordinates": {
					"latitude": 41.171398,
					"longitude": -73.195297
				},
				"country": "US",
				"date": {
					"local": "2025-03-08T07:00:00.000+00:00",
					"utc": "2025-03-08T12:00:00.000Z"
				},
				"location": "aqicn|7389",
				"isMobile": false,
				"parameter": "pm10",
				"sourceName": "aqicn",
				"entity": "other",
				"value": 5.4,
				"unit": "µg/m³"
			},
			{
				"attribution": [
					{
						"url": "http://ct.gov/deep/cwp/view.asp?a=2684&q=321758",
						"name": "Connecticut Department of Energy and Environmental Protection (DEEP)"
					},
					{
						"url": "http://www.airnow.gov/",
						"name": "Air Now - US EPA"
					},
					{
						"url": "https://waqi.info/",
						"name": "World Air Quality Index Project"
					}
				],
				"averagingPeriod": {
					"unit": "day",
					"value": 1
				},
				"city": "Bridgeport, Connecticut, USA",
				"coordinates": {
					"latitude": 41.171398,
					"longitude": -73.195297
				},
				"country": "US",
				"date": {
					"local": "2025-03-08T07:00:00.000+00:00",
					"utc": "2025-03-08T12:00:00.000Z"
				},
				"location": "aqicn|7389",
				"isMobile": false,
				"parameter": "pm25",
				"sourceName": "aqicn",
				"entity": "other",
				"value": 2.2,
				"unit": "µg/m³"
			},
			{
				"attribution": [
					{
						"url": "http://ct.gov/deep/cwp/view.asp?a=2684&q=321758",
						"name": "Connecticut Department of Energy and Environmental Protection (DEEP)"
					},
					{
						"url": "http://www.airnow.gov/",
						"name": "Air Now - US EPA"
					},
					{
						"url": "https://waqi.info/",
						"name": "World Air Quality Index Project"
					}
				],
				"averagingPeriod": {
					"unit": "day",
					"value": 1
				},
				"city": "Bridgeport, Connecticut, USA",
				"coordinates": {
					"latitude": 41.171398,
					"longitude": -73.195297
				},
				"country": "US",
				"date": {
					"local": "2025-03-08T07:00:00.000+00:00",
					"utc": "2025-03-08T12:00:00.000Z"
				},
				"location": "aqicn|7389",
				"isMobile": false,
				"parameter": "so2",
				"sourceName": "aqicn",
				"entity": "other",
				"value": 0.1,
				"unit": "ppb"
			}
		],
		"pm25": {
			"attribution": [
				{
					"url": "http://ct.gov/deep/cwp/view.asp?a=2684&q=321758",
					"name": "Connecticut Department of Energy and Environmental Protection (DEEP)"
				},
				{
					"url": "http://www.airnow.gov/",
					"name": "Air Now - US EPA"
				},
				{
					"url": "https://waqi.info/",
					"name": "World Air Quality Index Project"
				}
			],
			"averagingPeriod": {
				"unit": "day",
				"value": 1
			},
			"city": "Bridgeport, Connecticut, USA",
			"coordinates": {
				"latitude": 41.171398,
				"longitude": -73.195297
			},
			"country": "US",
			"date": {
				"local": "2025-03-08T07:00:00.000+00:00",
				"utc": "2025-03-08T12:00:00.000Z"
			},
			"location": "aqicn|7389",
			"isMobile": false,
			"parameter": "pm25",
			"sourceName": "aqicn",
			"entity": "other",
			"value": 2.2,
			"unit": "µg/m³"
		},
		"shootismoke": {
			"dailyCigarettes": 0.1,
			"distanceToStation": 2,
			"isAccurate": true
		}
	}
}