{
	"country": "United Kingdom",
	"name": "Bristol",
	"gps": {
		"latitude": 51.45,
		"longitude": -2.5833
	},
	"slug": "bristol",
	"adminName": "Bristol, City of",
	"photoUrl": "https://live.staticflickr.com/5777/22918871925_e1d65aee2b_m.jpg",
	"api": {
		"results": [
			{
				"attribution": [
					{
						"url": "http://uk-air.defra.gov.uk/",
						"name": "UK-AIR, air quality information resource - Defra, UK",
						"logo": "UK-Department-for-environment-food-and-rural-affairs.png"
					},
					{
						"url": "https://waqi.info/",
						"name": "World Air Quality Index Project"
					}
				],
				"averagingPeriod": {
					"unit": "day",
					"value": 1
				},
				"city": "Bristol St Paul's, United Kingdom",
				"coordinates": {
					"latitude": 51.462839,
					"longitude": -2.584482
				},
				"country": "GB",
				"date": {
					"local": "2025-03-08T17:00:00.000+00:00",
					"utc": "2025-03-08T17:00:00.000Z"
				},
				"location": "aqicn|8917",
				"isMobile": false,
				"parameter": "no2",
				"sourceName": "aqicn",
				"entity": "other",
				"value": 5.9,
				"unit": "ppb"
			},
			{
				"attribution": [
					{
						"url": "http://uk-air.defra.gov.uk/",
						"name": "UK-AIR, air quality information resource - Defra, UK",
						"logo": "UK-Department-for-environment-food-and-rural-affairs.png"
					},
					{
						"url": "https://waqi.info/",
						"name": "World Air Quality Index Project"
					}
				],
				"averagingPeriod": {
					"unit": "day",
					"value": 1
				},
				"city": "Bristol St Paul's, United Kingdom",
				"coordinates": {
					"latitude": 51.462839,
					"longitude": -2.584482
				},
				"country": "GB",
				"date": {
					"local": "2025-03-08T17:00:00.000+00:00",
					"utc": "2025-03-08T17:00:00.000Z"
				},
				"location": "aqicn|8917",
				"isMobile": false,
				"parameter": "o3",
				"sourceName": "aqicn",
				"entity": "other",
				"value": 35.6,
				"unit": "ppb"
			},
			{
				"attribution": [
					{
						"url": "http://uk-air.defra.gov.uk/",
						"name": "UK-AIR, air quality information resource - Defra, UK",
						"logo": "UK-Department-for-environment-food-and-rural-affairs.png"
					},
					{
						"url": "https://waqi.info/",
						"name": "World Air Quality Index Project"
					}
				],
				"averagingPeriod": {
					"unit": "day",
					"value": 1
				},
				"city": "Bristol St Paul's, United Kingdom",
				"coordinates": {
					"latitude": 51.462839,
					"longitude": -2.584482
				},
				"country": "GB",
				"date": {
					"local": "2025-03-08T17:00:00.000+00:00",
					"utc": "2025-03-08T17:00:00.000Z"
				},
				"location": "aqicn|8917",
				"isMobile": false,
				"parameter": "pm10",
				"sourceName": "aqicn",
				"entity": "other",
				"value": 21.6,
				"unit": "µg/m³"
			},
			{
				"attribution": [
					{
						"url": "http://uk-air.defra.gov.uk/",
						"name": "UK-AIR, air quality information resource - Defra, UK",
						"logo": "UK-Department-for-environment-food-and-rural-affairs.png"
					},
					{
						"url": "https://waqi.info/",
						"name": "World Air Quality Index Project"
					}
				],
				"averagingPeriod": {
					"unit": "day",
					"value": 1
				},
				"city": "Bristol St Paul's, United Kingdom",
				"coordinates": {
					"latitude": 51.462839,
					"longitude": -2.584482
				},
				"country": "GB",
				"date": {
					"local": "2025-03-08T17:00:00.000+00:00",
					"utc": "2025-03-08T17:00:00.000Z"
				},
				"location": "aqicn|8917",
				"isMobile": false,
				"parameter": "pm25",
				"sourceName": "aqicn",
				"entity": "other",
				"value": 12,
				"unit": "µg/m³"
			}
		],
		"pm25": {
			"attribution": [
				{
					"url": "http://uk-air.defra.gov.uk/",
					"name": "UK-AIR, air quality information resource - Defra, UK",
					"logo": "UK-Department-for-environment-food-and-rural-affairs.png"
				},
				{
					"url": "https://waqi.info/",
					"name": "World Air Quality Index Project"
				}
			],
			"averagingPeriod": {
				"unit": "day",
				"value": 1
			},
			"city": "Bristol St Paul's, United Kingdom",
			"coordinates": {
				"latitude": 51.462839,
				"longitude": -2.584482
			},
			"country": "GB",
			"date": {
				"local": "2025-03-08T17:00:00.000+00:00",
				"utc": "2025-03-08T17:00:00.000Z"
			},
			"location": "aqicn|8917",
			"isMobile": false,
			"parameter": "pm25",
			"sourceName": "aqicn",
			"entity": "other",
			"value": 12,
			"unit": "µg/m³"
		},
		"shootismoke": {
			"dailyCigarettes": 0.5454545454545454,
			"distanceToStation": 1,
			"isAccurate": true
		}
	}
}