{
	"country": "United States",
	"name": "Bronx",
	"gps": {
		"latitude": 40.8501,
		"longitude": -73.8662
	},
	"slug": "bronx",
	"adminName": "New York",
	"photoUrl": "https://live.staticflickr.com/4558/24016855707_1e050f887d_m.jpg"
}