{
	"country": "United States",
	"name": "Buffalo",
	"gps": {
		"latitude": 42.9017,
		"longitude": -78.8487
	},
	"slug": "buffalo",
	"adminName": "New York",
	"photoUrl": "https://live.staticflickr.com/5452/17755116515_4349d7cc5f_m.jpg"
}