{
	"country": "Canada",
	"name": "Calgary",
	"gps": {
		"latitude": 51.083,
		"longitude": -114.08
	},
	"slug": "calgary",
	"adminName": "Alberta",
	"photoUrl": "https://live.staticflickr.com/8090/28794224944_2953202a5e_m.jpg"
}