{
	"country": "Mexico",
	"name": "Cancún",
	"gps": {
		"latitude": 21.17,
		"longitude": -86.83
	},
	"slug": "cancun",
	"adminName": "Quintana Roo",
	"photoUrl": "https://live.staticflickr.com/5209/5260861527_23d44edaa3_m.jpg"
}