{
	"country": "United States",
	"name": "Charleston",
	"gps": {
		"latitude": 32.8151,
		"longitude": -79.963
	},
	"slug": "charleston",
	"adminName": "South Carolina",
	"photoUrl": "https://live.staticflickr.com/7497/15268497733_98001f41a1_m.jpg"
}