{
	"country": "Russia",
	"name": "Chelyabinsk",
	"gps": {
		"latitude": 55.155,
		"longitude": 61.4387
	},
	"slug": "chelyabinsk",
	"adminName": "Chelyabinskaya Oblast’",
	"photoUrl": "https://live.staticflickr.com/8531/8534596662_fe5bae242a_m.jpg"
}