{
	"country": "Moldova",
	"name": "Chisinau",
	"gps": {
		"latitude": 47.005,
		"longitude": 28.8577
	},
	"slug": "chisinau",
	"adminName": "Chişinău",
	"photoUrl": "https://live.staticflickr.com/7417/11731951936_9b1a7ceeb3_m.jpg"
}