{
	"country": "Mexico",
	"name": "Cuernavaca",
	"gps": {
		"latitude": 18.9211,
		"longitude": -99.24
	},
	"slug": "cuernavaca",
	"adminName": "Morelos",
	"photoUrl": "https://live.staticflickr.com/3892/14609116511_0153068a5c_m.jpg"
}