{
	"country": "Mexico",
	"name": "Culiacán",
	"gps": {
		"latitude": 24.83,
		"longitude": -107.38
	},
	"slug": "culiacan",
	"adminName": "Sinaloa",
	"photoUrl": "https://live.staticflickr.com/8083/8332384360_dea140f520_m.jpg"
}