{
	"country": "India",
	"name": "Cuttack",
	"gps": {
		"latitude": 20.47,
		"longitude": 85.8899
	},
	"slug": "cuttack",
	"adminName": "Odisha",
	"photoUrl": "https://live.staticflickr.com/4524/26540586849_4bc8b8b47e_m.jpg"
}