{
	"country": "Tanzania",
	"name": "Dar es Salaam",
	"gps": {
		"latitude": -6.8,
		"longitude": 39.2683
	},
	"slug": "dar-es-salaam",
	"adminName": "Dar es Salaam",
	"photoUrl": "https://live.staticflickr.com/1214/1469716480_087e8c2a71_m.jpg"
}