{
	"country": "China",
	"name": "Dengtalu",
	"gps": {
		"latitude": 36.08,
		"longitude": 114.35
	},
	"slug": "dengtalu",
	"adminName": "Henan",
	"api": {
		"results": [
			{
				"attribution": [
					{
						"url": "http://sthjt.henan.gov.cn/",
						"name": "Henan Environmental Protection Agency (河南环保 > 网站首页)"
					},
					{
						"url": "https://waqi.info/",
						"name": "World Air Quality Index Project"
					}
				],
				"averagingPeriod": {
					"unit": "day",
					"value": 1
				},
				"city": "Yinxing Compound, Anyang (安阳银杏小区)",
				"coordinates": {
					"latitude": 36.087,
					"longitude": 114.358
				},
				"country": "CN",
				"date": {
					"local": "2025-03-09T09:00:00.000+00:00",
					"utc": "2025-03-09T01:00:00.000Z"
				},
				"location": "aqicn|4325",
				"isMobile": false,
				"parameter": "co",
				"sourceName": "aqicn",
				"entity": "other",
				"value": 0.5,
				"unit": "ppb"
			},
			{
				"attribution": [
					{
						"url": "http://sthjt.henan.gov.cn/",
						"name": "Henan Environmental Protection Agency (河南环保 > 网站首页)"
					},
					{
						"url": "https://waqi.info/",
						"name": "World Air Quality Index Project"
					}
				],
				"averagingPeriod": {
					"unit": "day",
					"value": 1
				},
				"city": "Yinxing Compound, Anyang (安阳银杏小区)",
				"coordinates": {
					"latitude": 36.087,
					"longitude": 114.358
				},
				"country": "CN",
				"date": {
					"local": "2025-03-09T09:00:00.000+00:00",
					"utc": "2025-03-09T01:00:00.000Z"
				},
				"location": "aqicn|4325",
				"isMobile": false,
				"parameter": "no2",
				"sourceName": "aqicn",
				"entity": "other",
				"value": 20.4,
				"unit": "ppb"
			},
			{
				"attribution": [
					{
						"url": "http://sthjt.henan.gov.cn/",
						"name": "Henan Environmental Protection Agency (河南环保 > 网站首页)"
					},
					{
						"url": "https://waqi.info/",
						"name": "World Air Quality Index Project"
					}
				],
				"averagingPeriod": {
					"unit": "day",
					"value": 1
				},
				"city": "Yinxing Compound, Anyang (安阳银杏小区)",
				"coordinates": {
					"latitude": 36.087,
					"longitude": 114.358
				},
				"country": "CN",
				"date": {
					"local": "2025-03-09T09:00:00.000+00:00",
					"utc": "2025-03-09T01:00:00.000Z"
				},
				"location": "aqicn|4325",
				"isMobile": false,
				"parameter": "pm10",
				"sourceName": "aqicn",
				"entity": "other",
				"value": 77.2,
				"unit": "µg/m³"
			},
			{
				"attribution": [
					{
						"url": "http://sthjt.henan.gov.cn/",
						"name": "Henan Environmental Protection Agency (河南环保 > 网站首页)"
					},
					{
						"url": "https://waqi.info/",
						"name": "World Air Quality Index Project"
					}
				],
				"averagingPeriod": {
					"unit": "day",
					"value": 1
				},
				"city": "Yinxing Compound, Anyang (安阳银杏小区)",
				"coordinates": {
					"latitude": 36.087,
					"longitude": 114.358
				},
				"country": "CN",
				"date": {
					"local": "2025-03-09T09:00:00.000+00:00",
					"utc": "2025-03-09T01:00:00.000Z"
				},
				"location": "aqicn|4325",
				"isMobile": false,
				"parameter": "pm25",
				"sourceName": "aqicn",
				"entity": "other",
				"value": 76.8,
				"unit": "µg/m³"
			},
			{
				"attribution": [
					{
						"url": "http://sthjt.henan.gov.cn/",
						"name": "Henan Environmental Protection Agency (河南环保 > 网站首页)"
					},
					{
						"url": "https://waqi.info/",
						"name": "World Air Quality Index Project"
					}
				],
				"averagingPeriod": {
					"unit": "day",
					"value": 1
				},
				"city": "Yinxing Compound, Anyang (安阳银杏小区)",
				"coordinates": {
					"latitude": 36.087,
					"longitude": 114.358
				},
				"country": "CN",
				"date": {
					"local": "2025-03-09T09:00:00.000+00:00",
					"utc": "2025-03-09T01:00:00.000Z"
				},
				"location": "aqicn|4325",
				"isMobile": false,
				"parameter": "so2",
				"sourceName": "aqicn",
				"entity": "other",
				"value": 3.9,
				"unit": "ppb"
			}
		],
		"pm25": {
			"attribution": [
				{
					"url": "http://sthjt.henan.gov.cn/",
					"name": "Henan Environmental Protection Agency (河南环保 > 网站首页)"
				},
				{
					"url": "https://waqi.info/",
					"name": "World Air Quality Index Project"
				}
			],
			"averagingPeriod": {
				"unit": "day",
				"value": 1
			},
			"city": "Yinxing Compound, Anyang (安阳银杏小区)",
			"coordinates": {
				"latitude": 36.087,
				"longitude": 114.358
			},
			"country": "CN",
			"date": {
				"local": "2025-03-09T09:00:00.000+00:00",
				"utc": "2025-03-09T01:00:00.000Z"
			},
			"location": "aqicn|4325",
			"isMobile": false,
			"parameter": "pm25",
			"sourceName": "aqicn",
			"entity": "other",
			"value": 76.8,
			"unit": "µg/m³"
		},
		"shootismoke": {
			"dailyCigarettes": 3.4909090909090907,
			"distanceToStation": 1,
			"isAccurate": true
		}
	}
}