{
	"country": "Indonesia",
	"name": "Denpasar",
	"gps": {
		"latitude": -8.65,
		"longitude": 115.22
	},
	"slug": "denpasar",
	"adminName": "Bali",
	"photoUrl": "https://live.staticflickr.com/7896/40516922163_b0b190f123_m.jpg"
}