{
	"country": "United States",
	"name": "Detroit",
	"gps": {
		"latitude": 42.3834,
		"longitude": -83.1024
	},
	"slug": "detroit",
	"adminName": "Michigan",
	"photoUrl": "https://live.staticflickr.com/7307/26388720534_32724dfe34_m.jpg",
	"api": {
		"results": [
			{
				"attribution": [
					{
						"url": "https://www.michigan.gov/deq",
						"name": "Michigan Department of Environmental Quality",
						"logo": "US-MIDEC.png"
					},
					{
						"url": "http://www.airnow.gov/",
						"name": "Air Now - US EPA"
					},
					{
						"url": "https://waqi.info/",
						"name": "World Air Quality Index Project"
					}
				],
				"averagingPeriod": {
					"unit": "day",
					"value": 1
				},
				"city": "Military Park, Michigan, USA",
				"coordinates": {
					"latitude": 42.312078,
					"longitude": -83.103469
				},
				"country": "US",
				"date": {
					"local": "2025-03-08T07:00:00.000+00:00",
					"utc": "2025-03-08T12:00:00.000Z"
				},
				"location": "aqicn|12850",
				"isMobile": false,
				"parameter": "no2",
				"sourceName": "aqicn",
				"entity": "other",
				"value": 4.5,
				"unit": "ppb"
			},
			{
				"attribution": [
					{
						"url": "https://www.michigan.gov/deq",
						"name": "Michigan Department of Environmental Quality",
						"logo": "US-MIDEC.png"
					},
					{
						"url": "http://www.airnow.gov/",
						"name": "Air Now - US EPA"
					},
					{
						"url": "https://waqi.info/",
						"name": "World Air Quality Index Project"
					}
				],
				"averagingPeriod": {
					"unit": "day",
					"value": 1
				},
				"city": "Military Park, Michigan, USA",
				"coordinates": {
					"latitude": 42.312078,
					"longitude": -83.103469
				},
				"country": "US",
				"date": {
					"local": "2025-03-08T07:00:00.000+00:00",
					"utc": "2025-03-08T12:00:00.000Z"
				},
				"location": "aqicn|12850",
				"isMobile": false,
				"parameter": "pm25",
				"sourceName": "aqicn",
				"entity": "other",
				"value": 2.9,
				"unit": "µg/m³"
			},
			{
				"attribution": [
					{
						"url": "https://www.michigan.gov/deq",
						"name": "Michigan Department of Environmental Quality",
						"logo": "US-MIDEC.png"
					},
					{
						"url": "http://www.airnow.gov/",
						"name": "Air Now - US EPA"
					},
					{
						"url": "https://waqi.info/",
						"name": "World Air Quality Index Project"
					}
				],
				"averagingPeriod": {
					"unit": "day",
					"value": 1
				},
				"city": "Military Park, Michigan, USA",
				"coordinates": {
					"latitude": 42.312078,
					"longitude": -83.103469
				},
				"country": "US",
				"date": {
					"local": "2025-03-08T07:00:00.000+00:00",
					"utc": "2025-03-08T12:00:00.000Z"
				},
				"location": "aqicn|12850",
				"isMobile": false,
				"parameter": "so2",
				"sourceName": "aqicn",
				"entity": "other",
				"value": 0.1,
				"unit": "ppb"
			}
		],
		"pm25": {
			"attribution": [
				{
					"url": "https://www.michigan.gov/deq",
					"name": "Michigan Department of Environmental Quality",
					"logo": "US-MIDEC.png"
				},
				{
					"url": "http://www.airnow.gov/",
					"name": "Air Now - US EPA"
				},
				{
					"url": "https://waqi.info/",
					"name": "World Air Quality Index Project"
				}
			],
			"averagingPeriod": {
				"unit": "day",
				"value": 1
			},
			"city": "Military Park, Michigan, USA",
			"coordinates": {
				"latitude": 42.312078,
				"longitude": -83.103469
			},
			"country": "US",
			"date": {
				"local": "2025-03-08T07:00:00.000+00:00",
				"utc": "2025-03-08T12:00:00.000Z"
			},
			"location": "aqicn|12850",
			"isMobile": false,
			"parameter": "pm25",
			"sourceName": "aqicn",
			"entity": "other",
			"value": 2.9,
			"unit": "µg/m³"
		},
		"shootismoke": {
			"dailyCigarettes": 0.1318181818181818,
			"distanceToStation": 8,
			"isAccurate": true
		}
	}
}