{
	"country": "Bangladesh",
	"name": "Dhaka",
	"gps": {
		"latitude": 23.7231,
		"longitude": 90.4086
	},
	"slug": "dhaka",
	"adminName": "Dhaka",
	"photoUrl": "https://live.staticflickr.com/4668/39732338954_25717ed33b_m.jpg"
}