{
	"country": "Turkey",
	"name": "Diyarbakır",
	"gps": {
		"latitude": 37.9204,
		"longitude": 40.23
	},
	"slug": "diyarbakir",
	"adminName": "Diyarbakır",
	"photoUrl": "https://live.staticflickr.com/7198/6885962094_6aff337db0_m.jpg"
}