{
	"country": "Djibouti",
	"name": "Djibouti",
	"gps": {
		"latitude": 11.595,
		"longitude": 43.148
	},
	"slug": "djibouti",
	"adminName": "Djibouti",
	"photoUrl": "https://live.staticflickr.com/3622/3577001352_e19434e6a0_m.jpg"
}