{
	"country": "Germany",
	"name": "Duisburg",
	"gps": {
		"latitude": 51.43,
		"longitude": 6.75
	},
	"slug": "duisburg",
	"adminName": "North Rhine-Westphalia",
	"photoUrl": "https://live.staticflickr.com/752/22066061071_035f8e5404_m.jpg"
}