{
	"country": "Tajikistan",
	"name": "Dushanbe",
	"gps": {
		"latitude": 38.56,
		"longitude": 68.7739
	},
	"slug": "dushanbe",
	"adminName": "Dushanbe",
	"photoUrl": "https://live.staticflickr.com/5333/17680514075_0f5090b062_m.jpg"
}