{
	"country": "Germany",
	"name": "Düsseldorf",
	"gps": {
		"latitude": 51.2204,
		"longitude": 6.78
	},
	"slug": "dusseldorf",
	"adminName": "North Rhine-Westphalia",
	"photoUrl": "https://live.staticflickr.com/7687/27236675442_159ab3e49a_m.jpg",
	"api": {
		"results": [
			{
				"attribution": [
					{
						"url": "https://www.lanuv.nrw.de/luft/luft.htm",
						"name": "LANUV - State Agency for Nature, Environment and Consumer Protection of North Rhine Westphalia (Landesamt für Natur, Umwelt und Verbraucherschutz NRW)",
						"logo": "de-lanuv.png"
					},
					{
						"url": "http://www.eea.europa.eu/themes/air/",
						"name": "European Environment Agency",
						"logo": "Europe-EEA.png"
					},
					{
						"url": "https://waqi.info/",
						"name": "World Air Quality Index Project"
					}
				],
				"averagingPeriod": {
					"unit": "day",
					"value": 1
				},
				"city": "Düsseldorf Corneliusstraße, Germany",
				"coordinates": {
					"latitude": 51.213166,
					"longitude": 6.782538
				},
				"country": "DE",
				"date": {
					"local": "2025-03-08T19:00:00.000+00:00",
					"utc": "2025-03-08T18:00:00.000Z"
				},
				"location": "aqicn|6085",
				"isMobile": false,
				"parameter": "no2",
				"sourceName": "aqicn",
				"entity": "other",
				"value": 13.9,
				"unit": "ppb"
			},
			{
				"attribution": [
					{
						"url": "https://www.lanuv.nrw.de/luft/luft.htm",
						"name": "LANUV - State Agency for Nature, Environment and Consumer Protection of North Rhine Westphalia (Landesamt für Natur, Umwelt und Verbraucherschutz NRW)",
						"logo": "de-lanuv.png"
					},
					{
						"url": "http://www.eea.europa.eu/themes/air/",
						"name": "European Environment Agency",
						"logo": "Europe-EEA.png"
					},
					{
						"url": "https://waqi.info/",
						"name": "World Air Quality Index Project"
					}
				],
				"averagingPeriod": {
					"unit": "day",
					"value": 1
				},
				"city": "Düsseldorf Corneliusstraße, Germany",
				"coordinates": {
					"latitude": 51.213166,
					"longitude": 6.782538
				},
				"country": "DE",
				"date": {
					"local": "2025-03-08T19:00:00.000+00:00",
					"utc": "2025-03-08T18:00:00.000Z"
				},
				"location": "aqicn|6085",
				"isMobile": false,
				"parameter": "pm10",
				"sourceName": "aqicn",
				"entity": "other",
				"value": 30.2,
				"unit": "µg/m³"
			},
			{
				"attribution": [
					{
						"url": "https://www.lanuv.nrw.de/luft/luft.htm",
						"name": "LANUV - State Agency for Nature, Environment and Consumer Protection of North Rhine Westphalia (Landesamt für Natur, Umwelt und Verbraucherschutz NRW)",
						"logo": "de-lanuv.png"
					},
					{
						"url": "http://www.eea.europa.eu/themes/air/",
						"name": "European Environment Agency",
						"logo": "Europe-EEA.png"
					},
					{
						"url": "https://waqi.info/",
						"name": "World Air Quality Index Project"
					}
				],
				"averagingPeriod": {
					"unit": "day",
					"value": 1
				},
				"city": "Düsseldorf Corneliusstraße, Germany",
				"coordinates": {
					"latitude": 51.213166,
					"longitude": 6.782538
				},
				"country": "DE",
				"date": {
					"local": "2025-03-08T19:00:00.000+00:00",
					"utc": "2025-03-08T18:00:00.000Z"
				},
				"location": "aqicn|6085",
				"isMobile": false,
				"parameter": "pm25",
				"sourceName": "aqicn",
				"entity": "other",
				"value": 19.2,
				"unit": "µg/m³"
			}
		],
		"pm25": {
			"attribution": [
				{
					"url": "https://www.lanuv.nrw.de/luft/luft.htm",
					"name": "LANUV - State Agency for Nature, Environment and Consumer Protection of North Rhine Westphalia (Landesamt für Natur, Umwelt und Verbraucherschutz NRW)",
					"logo": "de-lanuv.png"
				},
				{
					"url": "http://www.eea.europa.eu/themes/air/",
					"name": "European Environment Agency",
					"logo": "Europe-EEA.png"
				},
				{
					"url": "https://waqi.info/",
					"name": "World Air Quality Index Project"
				}
			],
			"averagingPeriod": {
				"unit": "day",
				"value": 1
			},
			"city": "Düsseldorf Corneliusstraße, Germany",
			"coordinates": {
				"latitude": 51.213166,
				"longitude": 6.782538
			},
			"country": "DE",
			"date": {
				"local": "2025-03-08T19:00:00.000+00:00",
				"utc": "2025-03-08T18:00:00.000Z"
			},
			"location": "aqicn|6085",
			"isMobile": false,
			"parameter": "pm25",
			"sourceName": "aqicn",
			"entity": "other",
			"value": 19.2,
			"unit": "µg/m³"
		},
		"shootismoke": {
			"dailyCigarettes": 0.8727272727272727,
			"distanceToStation": 1,
			"isAccurate": true
		}
	}
}