{
	"adminName": "Farg‘ona",
	"country": "Uzbekistan",
	"name": "Farg‘ona",
	"gps": {
		"latitude": 40.39,
		"longitude": 71.78
	},
	"photoUrl": "https://live.staticflickr.com/2650/3800842266_09218f5d96_m.jpg",
	"slug": "farg-ona"
}