{
	"country": "China",
	"name": "Fuyang",
	"gps": {
		"latitude": 30.0533,
		"longitude": 119.9519
	},
	"slug": "fuyang",
	"adminName": "Zhejiang",
	"photoUrl": "https://live.staticflickr.com/7195/7124306073_fe7a10caed_m.jpg"
}