{
	"country": "Ecuador",
	"name": "Guayaquil",
	"gps": {
		"latitude": -2.22,
		"longitude": -79.92
	},
	"slug": "guayaquil",
	"adminName": "Guayas",
	"photoUrl": "https://live.staticflickr.com/375/19087226491_6d817442c9_m.jpg"
}