{
	"country": "China",
	"name": "Hengyang",
	"gps": {
		"latitude": 26.88,
		"longitude": 112.59
	},
	"slug": "hengyang",
	"adminName": "Hunan",
	"photoUrl": "https://live.staticflickr.com/515/18703971772_c20ffa0068_m.jpg",
	"api": {
		"results": [
			{
				"attribution": [
					{
						"url": "http://sthjt.hunan.gov.cn/",
						"name": "Hunan Environmental Protection Agency (湖南省环境保护厅)"
					},
					{
						"url": "http://113.108.142.147:20035/emcpublish/",
						"name": "China National Urban air quality real-time publishing platform (全国城市空气质量实时发布平台)"
					},
					{
						"url": "https://waqi.info/",
						"name": "World Air Quality Index Project"
					}
				],
				"averagingPeriod": {
					"unit": "day",
					"value": 1
				},
				"city": "City Monitoring Station, Hengyang (衡阳市监测站)",
				"coordinates": {
					"latitude": 26.8919,
					"longitude": 112.6006
				},
				"country": "CN",
				"date": {
					"local": "2025-03-09T09:00:00.000+00:00",
					"utc": "2025-03-09T01:00:00.000Z"
				},
				"location": "aqicn|7822",
				"isMobile": false,
				"parameter": "co",
				"sourceName": "aqicn",
				"entity": "other",
				"value": 0.6,
				"unit": "ppb"
			},
			{
				"attribution": [
					{
						"url": "http://sthjt.hunan.gov.cn/",
						"name": "Hunan Environmental Protection Agency (湖南省环境保护厅)"
					},
					{
						"url": "http://113.108.142.147:20035/emcpublish/",
						"name": "China National Urban air quality real-time publishing platform (全国城市空气质量实时发布平台)"
					},
					{
						"url": "https://waqi.info/",
						"name": "World Air Quality Index Project"
					}
				],
				"averagingPeriod": {
					"unit": "day",
					"value": 1
				},
				"city": "City Monitoring Station, Hengyang (衡阳市监测站)",
				"coordinates": {
					"latitude": 26.8919,
					"longitude": 112.6006
				},
				"country": "CN",
				"date": {
					"local": "2025-03-09T09:00:00.000+00:00",
					"utc": "2025-03-09T01:00:00.000Z"
				},
				"location": "aqicn|7822",
				"isMobile": false,
				"parameter": "no2",
				"sourceName": "aqicn",
				"entity": "other",
				"value": 12.2,
				"unit": "ppb"
			},
			{
				"attribution": [
					{
						"url": "http://sthjt.hunan.gov.cn/",
						"name": "Hunan Environmental Protection Agency (湖南省环境保护厅)"
					},
					{
						"url": "http://113.108.142.147:20035/emcpublish/",
						"name": "China National Urban air quality real-time publishing platform (全国城市空气质量实时发布平台)"
					},
					{
						"url": "https://waqi.info/",
						"name": "World Air Quality Index Project"
					}
				],
				"averagingPeriod": {
					"unit": "day",
					"value": 1
				},
				"city": "City Monitoring Station, Hengyang (衡阳市监测站)",
				"coordinates": {
					"latitude": 26.8919,
					"longitude": 112.6006
				},
				"country": "CN",
				"date": {
					"local": "2025-03-09T09:00:00.000+00:00",
					"utc": "2025-03-09T01:00:00.000Z"
				},
				"location": "aqicn|7822",
				"isMobile": false,
				"parameter": "pm10",
				"sourceName": "aqicn",
				"entity": "other",
				"value": 41,
				"unit": "µg/m³"
			},
			{
				"attribution": [
					{
						"url": "http://sthjt.hunan.gov.cn/",
						"name": "Hunan Environmental Protection Agency (湖南省环境保护厅)"
					},
					{
						"url": "http://113.108.142.147:20035/emcpublish/",
						"name": "China National Urban air quality real-time publishing platform (全国城市空气质量实时发布平台)"
					},
					{
						"url": "https://waqi.info/",
						"name": "World Air Quality Index Project"
					}
				],
				"averagingPeriod": {
					"unit": "day",
					"value": 1
				},
				"city": "City Monitoring Station, Hengyang (衡阳市监测站)",
				"coordinates": {
					"latitude": 26.8919,
					"longitude": 112.6006
				},
				"country": "CN",
				"date": {
					"local": "2025-03-09T09:00:00.000+00:00",
					"utc": "2025-03-09T01:00:00.000Z"
				},
				"location": "aqicn|7822",
				"isMobile": false,
				"parameter": "pm25",
				"sourceName": "aqicn",
				"entity": "other",
				"value": 37.9,
				"unit": "µg/m³"
			},
			{
				"attribution": [
					{
						"url": "http://sthjt.hunan.gov.cn/",
						"name": "Hunan Environmental Protection Agency (湖南省环境保护厅)"
					},
					{
						"url": "http://113.108.142.147:20035/emcpublish/",
						"name": "China National Urban air quality real-time publishing platform (全国城市空气质量实时发布平台)"
					},
					{
						"url": "https://waqi.info/",
						"name": "World Air Quality Index Project"
					}
				],
				"averagingPeriod": {
					"unit": "day",
					"value": 1
				},
				"city": "City Monitoring Station, Hengyang (衡阳市监测站)",
				"coordinates": {
					"latitude": 26.8919,
					"longitude": 112.6006
				},
				"country": "CN",
				"date": {
					"local": "2025-03-09T09:00:00.000+00:00",
					"utc": "2025-03-09T01:00:00.000Z"
				},
				"location": "aqicn|7822",
				"isMobile": false,
				"parameter": "so2",
				"sourceName": "aqicn",
				"entity": "other",
				"value": 2.5,
				"unit": "ppb"
			}
		],
		"pm25": {
			"attribution": [
				{
					"url": "http://sthjt.hunan.gov.cn/",
					"name": "Hunan Environmental Protection Agency (湖南省环境保护厅)"
				},
				{
					"url": "http://113.108.142.147:20035/emcpublish/",
					"name": "China National Urban air quality real-time publishing platform (全国城市空气质量实时发布平台)"
				},
				{
					"url": "https://waqi.info/",
					"name": "World Air Quality Index Project"
				}
			],
			"averagingPeriod": {
				"unit": "day",
				"value": 1
			},
			"city": "City Monitoring Station, Hengyang (衡阳市监测站)",
			"coordinates": {
				"latitude": 26.8919,
				"longitude": 112.6006
			},
			"country": "CN",
			"date": {
				"local": "2025-03-09T09:00:00.000+00:00",
				"utc": "2025-03-09T01:00:00.000Z"
			},
			"location": "aqicn|7822",
			"isMobile": false,
			"parameter": "pm25",
			"sourceName": "aqicn",
			"entity": "other",
			"value": 37.9,
			"unit": "µg/m³"
		},
		"shootismoke": {
			"dailyCigarettes": 1.7227272727272727,
			"distanceToStation": 2,
			"isAccurate": true
		}
	}
}