{
	"country": "India",
	"name": "Hisar",
	"gps": {
		"latitude": 29.17,
		"longitude": 75.725
	},
	"slug": "hisar",
	"adminName": "Haryāna",
	"photoUrl": "https://live.staticflickr.com/65535/48684471881_293c2be0e4_m.jpg"
}