{
	"country": "Syria",
	"name": "Homs",
	"gps": {
		"latitude": 34.73,
		"longitude": 36.72
	},
	"slug": "homs",
	"adminName": "Ḩimş",
	"photoUrl": "https://live.staticflickr.com/8562/28816061022_23dfcf3292_m.jpg"
}