{
	"country": "Hong Kong",
	"name": "Hong Kong",
	"gps": {
		"latitude": 22.305,
		"longitude": 114.185
	},
	"slug": "hong-kong",
	"adminName": "",
	"photoUrl": "https://live.staticflickr.com/1728/42736240511_91cd425b59_m.jpg",
	"api": {
		"results": [
			{
				"attribution": [
					{
						"url": "http://www.aqhi.gov.hk/",
						"name": "Hong Kong Environmental Protection Department - 空氣質素健康指數單張及海報",
						"logo": "HongKong-EPD.png"
					},
					{
						"url": "https://waqi.info/",
						"name": "World Air Quality Index Project"
					}
				],
				"averagingPeriod": {
					"unit": "day",
					"value": 1
				},
				"city": "Mong Kok, HongKong (旺角)",
				"coordinates": {
					"latitude": 22.3221146,
					"longitude": 114.1687333
				},
				"country": "CN",
				"date": {
					"local": "2025-03-09T08:00:00.000+00:00",
					"utc": "2025-03-09T00:00:00.000Z"
				},
				"location": "aqicn|2572",
				"isMobile": false,
				"parameter": "co",
				"sourceName": "aqicn",
				"entity": "other",
				"value": 0.5,
				"unit": "ppb"
			},
			{
				"attribution": [
					{
						"url": "http://www.aqhi.gov.hk/",
						"name": "Hong Kong Environmental Protection Department - 空氣質素健康指數單張及海報",
						"logo": "HongKong-EPD.png"
					},
					{
						"url": "https://waqi.info/",
						"name": "World Air Quality Index Project"
					}
				],
				"averagingPeriod": {
					"unit": "day",
					"value": 1
				},
				"city": "Mong Kok, HongKong (旺角)",
				"coordinates": {
					"latitude": 22.3221146,
					"longitude": 114.1687333
				},
				"country": "CN",
				"date": {
					"local": "2025-03-09T08:00:00.000+00:00",
					"utc": "2025-03-09T00:00:00.000Z"
				},
				"location": "aqicn|2572",
				"isMobile": false,
				"parameter": "no2",
				"sourceName": "aqicn",
				"entity": "other",
				"value": 32.4,
				"unit": "ppb"
			},
			{
				"attribution": [
					{
						"url": "http://www.aqhi.gov.hk/",
						"name": "Hong Kong Environmental Protection Department - 空氣質素健康指數單張及海報",
						"logo": "HongKong-EPD.png"
					},
					{
						"url": "https://waqi.info/",
						"name": "World Air Quality Index Project"
					}
				],
				"averagingPeriod": {
					"unit": "day",
					"value": 1
				},
				"city": "Mong Kok, HongKong (旺角)",
				"coordinates": {
					"latitude": 22.3221146,
					"longitude": 114.1687333
				},
				"country": "CN",
				"date": {
					"local": "2025-03-09T08:00:00.000+00:00",
					"utc": "2025-03-09T00:00:00.000Z"
				},
				"location": "aqicn|2572",
				"isMobile": false,
				"parameter": "o3",
				"sourceName": "aqicn",
				"entity": "other",
				"value": 19.2,
				"unit": "ppb"
			},
			{
				"attribution": [
					{
						"url": "http://www.aqhi.gov.hk/",
						"name": "Hong Kong Environmental Protection Department - 空氣質素健康指數單張及海報",
						"logo": "HongKong-EPD.png"
					},
					{
						"url": "https://waqi.info/",
						"name": "World Air Quality Index Project"
					}
				],
				"averagingPeriod": {
					"unit": "day",
					"value": 1
				},
				"city": "Mong Kok, HongKong (旺角)",
				"coordinates": {
					"latitude": 22.3221146,
					"longitude": 114.1687333
				},
				"country": "CN",
				"date": {
					"local": "2025-03-09T08:00:00.000+00:00",
					"utc": "2025-03-09T00:00:00.000Z"
				},
				"location": "aqicn|2572",
				"isMobile": false,
				"parameter": "pm10",
				"sourceName": "aqicn",
				"entity": "other",
				"value": 34.6,
				"unit": "µg/m³"
			},
			{
				"attribution": [
					{
						"url": "http://www.aqhi.gov.hk/",
						"name": "Hong Kong Environmental Protection Department - 空氣質素健康指數單張及海報",
						"logo": "HongKong-EPD.png"
					},
					{
						"url": "https://waqi.info/",
						"name": "World Air Quality Index Project"
					}
				],
				"averagingPeriod": {
					"unit": "day",
					"value": 1
				},
				"city": "Mong Kok, HongKong (旺角)",
				"coordinates": {
					"latitude": 22.3221146,
					"longitude": 114.1687333
				},
				"country": "CN",
				"date": {
					"local": "2025-03-09T08:00:00.000+00:00",
					"utc": "2025-03-09T00:00:00.000Z"
				},
				"location": "aqicn|2572",
				"isMobile": false,
				"parameter": "pm25",
				"sourceName": "aqicn",
				"entity": "other",
				"value": 26.8,
				"unit": "µg/m³"
			},
			{
				"attribution": [
					{
						"url": "http://www.aqhi.gov.hk/",
						"name": "Hong Kong Environmental Protection Department - 空氣質素健康指數單張及海報",
						"logo": "HongKong-EPD.png"
					},
					{
						"url": "https://waqi.info/",
						"name": "World Air Quality Index Project"
					}
				],
				"averagingPeriod": {
					"unit": "day",
					"value": 1
				},
				"city": "Mong Kok, HongKong (旺角)",
				"coordinates": {
					"latitude": 22.3221146,
					"longitude": 114.1687333
				},
				"country": "CN",
				"date": {
					"local": "2025-03-09T08:00:00.000+00:00",
					"utc": "2025-03-09T00:00:00.000Z"
				},
				"location": "aqicn|2572",
				"isMobile": false,
				"parameter": "so2",
				"sourceName": "aqicn",
				"entity": "other",
				"value": 0.9,
				"unit": "ppb"
			}
		],
		"pm25": {
			"attribution": [
				{
					"url": "http://www.aqhi.gov.hk/",
					"name": "Hong Kong Environmental Protection Department - 空氣質素健康指數單張及海報",
					"logo": "HongKong-EPD.png"
				},
				{
					"url": "https://waqi.info/",
					"name": "World Air Quality Index Project"
				}
			],
			"averagingPeriod": {
				"unit": "day",
				"value": 1
			},
			"city": "Mong Kok, HongKong (旺角)",
			"coordinates": {
				"latitude": 22.3221146,
				"longitude": 114.1687333
			},
			"country": "CN",
			"date": {
				"local": "2025-03-09T08:00:00.000+00:00",
				"utc": "2025-03-09T00:00:00.000Z"
			},
			"location": "aqicn|2572",
			"isMobile": false,
			"parameter": "pm25",
			"sourceName": "aqicn",
			"entity": "other",
			"value": 26.8,
			"unit": "µg/m³"
		},
		"shootismoke": {
			"dailyCigarettes": 1.2181818181818183,
			"distanceToStation": 3,
			"isAccurate": true
		}
	}
}