{
	"country": "China",
	"name": "Huaiyin",
	"gps": {
		"latitude": 33.58,
		"longitude": 119.03
	},
	"slug": "huaiyin",
	"adminName": "Jiangsu",
	"api": {
		"results": [
			{
				"attribution": [
					{
						"url": "http://hbt.jiangsu.gov.cn/",
						"name": "Jiangsu Environmental Protection public network (江苏省城市空气PM2.5等试运行监测数据平台)"
					},
					{
						"url": "https://waqi.info/",
						"name": "World Air Quality Index Project"
					}
				],
				"averagingPeriod": {
					"unit": "day",
					"value": 1
				},
				"city": "Beijing South , Huai'an (淮安北京南路)",
				"coordinates": {
					"latitude": 33.578039,
					"longitude": 119.007906
				},
				"country": "CN",
				"date": {
					"local": "2025-03-09T09:00:00.000+00:00",
					"utc": "2025-03-09T01:00:00.000Z"
				},
				"location": "aqicn|885",
				"isMobile": false,
				"parameter": "co",
				"sourceName": "aqicn",
				"entity": "other",
				"value": 0.4,
				"unit": "ppb"
			},
			{
				"attribution": [
					{
						"url": "http://hbt.jiangsu.gov.cn/",
						"name": "Jiangsu Environmental Protection public network (江苏省城市空气PM2.5等试运行监测数据平台)"
					},
					{
						"url": "https://waqi.info/",
						"name": "World Air Quality Index Project"
					}
				],
				"averagingPeriod": {
					"unit": "day",
					"value": 1
				},
				"city": "Beijing South , Huai'an (淮安北京南路)",
				"coordinates": {
					"latitude": 33.578039,
					"longitude": 119.007906
				},
				"country": "CN",
				"date": {
					"local": "2025-03-09T09:00:00.000+00:00",
					"utc": "2025-03-09T01:00:00.000Z"
				},
				"location": "aqicn|885",
				"isMobile": false,
				"parameter": "no2",
				"sourceName": "aqicn",
				"entity": "other",
				"value": 14.1,
				"unit": "ppb"
			},
			{
				"attribution": [
					{
						"url": "http://hbt.jiangsu.gov.cn/",
						"name": "Jiangsu Environmental Protection public network (江苏省城市空气PM2.5等试运行监测数据平台)"
					},
					{
						"url": "https://waqi.info/",
						"name": "World Air Quality Index Project"
					}
				],
				"averagingPeriod": {
					"unit": "day",
					"value": 1
				},
				"city": "Beijing South , Huai'an (淮安北京南路)",
				"coordinates": {
					"latitude": 33.578039,
					"longitude": 119.007906
				},
				"country": "CN",
				"date": {
					"local": "2025-03-09T09:00:00.000+00:00",
					"utc": "2025-03-09T01:00:00.000Z"
				},
				"location": "aqicn|885",
				"isMobile": false,
				"parameter": "o3",
				"sourceName": "aqicn",
				"entity": "other",
				"value": 46.5,
				"unit": "ppb"
			},
			{
				"attribution": [
					{
						"url": "http://hbt.jiangsu.gov.cn/",
						"name": "Jiangsu Environmental Protection public network (江苏省城市空气PM2.5等试运行监测数据平台)"
					},
					{
						"url": "https://waqi.info/",
						"name": "World Air Quality Index Project"
					}
				],
				"averagingPeriod": {
					"unit": "day",
					"value": 1
				},
				"city": "Beijing South , Huai'an (淮安北京南路)",
				"coordinates": {
					"latitude": 33.578039,
					"longitude": 119.007906
				},
				"country": "CN",
				"date": {
					"local": "2025-03-09T09:00:00.000+00:00",
					"utc": "2025-03-09T01:00:00.000Z"
				},
				"location": "aqicn|885",
				"isMobile": false,
				"parameter": "pm10",
				"sourceName": "aqicn",
				"entity": "other",
				"value": 77.2,
				"unit": "µg/m³"
			},
			{
				"attribution": [
					{
						"url": "http://hbt.jiangsu.gov.cn/",
						"name": "Jiangsu Environmental Protection public network (江苏省城市空气PM2.5等试运行监测数据平台)"
					},
					{
						"url": "https://waqi.info/",
						"name": "World Air Quality Index Project"
					}
				],
				"averagingPeriod": {
					"unit": "day",
					"value": 1
				},
				"city": "Beijing South , Huai'an (淮安北京南路)",
				"coordinates": {
					"latitude": 33.578039,
					"longitude": 119.007906
				},
				"country": "CN",
				"date": {
					"local": "2025-03-09T09:00:00.000+00:00",
					"utc": "2025-03-09T01:00:00.000Z"
				},
				"location": "aqicn|885",
				"isMobile": false,
				"parameter": "pm25",
				"sourceName": "aqicn",
				"entity": "other",
				"value": 74.9,
				"unit": "µg/m³"
			},
			{
				"attribution": [
					{
						"url": "http://hbt.jiangsu.gov.cn/",
						"name": "Jiangsu Environmental Protection public network (江苏省城市空气PM2.5等试运行监测数据平台)"
					},
					{
						"url": "https://waqi.info/",
						"name": "World Air Quality Index Project"
					}
				],
				"averagingPeriod": {
					"unit": "day",
					"value": 1
				},
				"city": "Beijing South , Huai'an (淮安北京南路)",
				"coordinates": {
					"latitude": 33.578039,
					"longitude": 119.007906
				},
				"country": "CN",
				"date": {
					"local": "2025-03-09T09:00:00.000+00:00",
					"utc": "2025-03-09T01:00:00.000Z"
				},
				"location": "aqicn|885",
				"isMobile": false,
				"parameter": "so2",
				"sourceName": "aqicn",
				"entity": "other",
				"value": 3.2,
				"unit": "ppb"
			}
		],
		"pm25": {
			"attribution": [
				{
					"url": "http://hbt.jiangsu.gov.cn/",
					"name": "Jiangsu Environmental Protection public network (江苏省城市空气PM2.5等试运行监测数据平台)"
				},
				{
					"url": "https://waqi.info/",
					"name": "World Air Quality Index Project"
				}
			],
			"averagingPeriod": {
				"unit": "day",
				"value": 1
			},
			"city": "Beijing South , Huai'an (淮安北京南路)",
			"coordinates": {
				"latitude": 33.578039,
				"longitude": 119.007906
			},
			"country": "CN",
			"date": {
				"local": "2025-03-09T09:00:00.000+00:00",
				"utc": "2025-03-09T01:00:00.000Z"
			},
			"location": "aqicn|885",
			"isMobile": false,
			"parameter": "pm25",
			"sourceName": "aqicn",
			"entity": "other",
			"value": 74.9,
			"unit": "µg/m³"
		},
		"shootismoke": {
			"dailyCigarettes": 3.4045454545454548,
			"distanceToStation": 2,
			"isAccurate": true
		}
	}
}