{
	"country": "China",
	"name": "Huzhou",
	"gps": {
		"latitude": 30.8704,
		"longitude": 120.1
	},
	"slug": "huzhou",
	"adminName": "Zhejiang",
	"photoUrl": "https://live.staticflickr.com/79/212165726_27fb820cef_m.jpg",
	"api": {
		"results": [
			{
				"attribution": [
					{
						"url": "http://sthjt.zj.gov.cn/",
						"name": "Zhejiang Environmental Protection Bureau (浙江省环保厅门户)"
					},
					{
						"url": "https://waqi.info/",
						"name": "World Air Quality Index Project"
					}
				],
				"averagingPeriod": {
					"unit": "day",
					"value": 1
				},
				"city": "Town west water plant, Huzhou (湖州市城西水厂)",
				"coordinates": {
					"latitude": 30.864437,
					"longitude": 120.079708
				},
				"country": "CN",
				"date": {
					"local": "2025-03-09T09:00:00.000+00:00",
					"utc": "2025-03-09T01:00:00.000Z"
				},
				"location": "aqicn|745",
				"isMobile": false,
				"parameter": "co",
				"sourceName": "aqicn",
				"entity": "other",
				"value": 0.3,
				"unit": "ppb"
			},
			{
				"attribution": [
					{
						"url": "http://sthjt.zj.gov.cn/",
						"name": "Zhejiang Environmental Protection Bureau (浙江省环保厅门户)"
					},
					{
						"url": "https://waqi.info/",
						"name": "World Air Quality Index Project"
					}
				],
				"averagingPeriod": {
					"unit": "day",
					"value": 1
				},
				"city": "Town west water plant, Huzhou (湖州市城西水厂)",
				"coordinates": {
					"latitude": 30.864437,
					"longitude": 120.079708
				},
				"country": "CN",
				"date": {
					"local": "2025-03-09T09:00:00.000+00:00",
					"utc": "2025-03-09T01:00:00.000Z"
				},
				"location": "aqicn|745",
				"isMobile": false,
				"parameter": "no2",
				"sourceName": "aqicn",
				"entity": "other",
				"value": 18.4,
				"unit": "ppb"
			},
			{
				"attribution": [
					{
						"url": "http://sthjt.zj.gov.cn/",
						"name": "Zhejiang Environmental Protection Bureau (浙江省环保厅门户)"
					},
					{
						"url": "https://waqi.info/",
						"name": "World Air Quality Index Project"
					}
				],
				"averagingPeriod": {
					"unit": "day",
					"value": 1
				},
				"city": "Town west water plant, Huzhou (湖州市城西水厂)",
				"coordinates": {
					"latitude": 30.864437,
					"longitude": 120.079708
				},
				"country": "CN",
				"date": {
					"local": "2025-03-09T09:00:00.000+00:00",
					"utc": "2025-03-09T01:00:00.000Z"
				},
				"location": "aqicn|745",
				"isMobile": false,
				"parameter": "pm10",
				"sourceName": "aqicn",
				"entity": "other",
				"value": 99.4,
				"unit": "µg/m³"
			},
			{
				"attribution": [
					{
						"url": "http://sthjt.zj.gov.cn/",
						"name": "Zhejiang Environmental Protection Bureau (浙江省环保厅门户)"
					},
					{
						"url": "https://waqi.info/",
						"name": "World Air Quality Index Project"
					}
				],
				"averagingPeriod": {
					"unit": "day",
					"value": 1
				},
				"city": "Town west water plant, Huzhou (湖州市城西水厂)",
				"coordinates": {
					"latitude": 30.864437,
					"longitude": 120.079708
				},
				"country": "CN",
				"date": {
					"local": "2025-03-09T09:00:00.000+00:00",
					"utc": "2025-03-09T01:00:00.000Z"
				},
				"location": "aqicn|745",
				"isMobile": false,
				"parameter": "pm25",
				"sourceName": "aqicn",
				"entity": "other",
				"value": 67.1,
				"unit": "µg/m³"
			},
			{
				"attribution": [
					{
						"url": "http://sthjt.zj.gov.cn/",
						"name": "Zhejiang Environmental Protection Bureau (浙江省环保厅门户)"
					},
					{
						"url": "https://waqi.info/",
						"name": "World Air Quality Index Project"
					}
				],
				"averagingPeriod": {
					"unit": "day",
					"value": 1
				},
				"city": "Town west water plant, Huzhou (湖州市城西水厂)",
				"coordinates": {
					"latitude": 30.864437,
					"longitude": 120.079708
				},
				"country": "CN",
				"date": {
					"local": "2025-03-09T09:00:00.000+00:00",
					"utc": "2025-03-09T01:00:00.000Z"
				},
				"location": "aqicn|745",
				"isMobile": false,
				"parameter": "so2",
				"sourceName": "aqicn",
				"entity": "other",
				"value": 2.9,
				"unit": "ppb"
			}
		],
		"pm25": {
			"attribution": [
				{
					"url": "http://sthjt.zj.gov.cn/",
					"name": "Zhejiang Environmental Protection Bureau (浙江省环保厅门户)"
				},
				{
					"url": "https://waqi.info/",
					"name": "World Air Quality Index Project"
				}
			],
			"averagingPeriod": {
				"unit": "day",
				"value": 1
			},
			"city": "Town west water plant, Huzhou (湖州市城西水厂)",
			"coordinates": {
				"latitude": 30.864437,
				"longitude": 120.079708
			},
			"country": "CN",
			"date": {
				"local": "2025-03-09T09:00:00.000+00:00",
				"utc": "2025-03-09T01:00:00.000Z"
			},
			"location": "aqicn|745",
			"isMobile": false,
			"parameter": "pm25",
			"sourceName": "aqicn",
			"entity": "other",
			"value": 67.1,
			"unit": "µg/m³"
		},
		"shootismoke": {
			"dailyCigarettes": 3.05,
			"distanceToStation": 2,
			"isAccurate": true
		}
	}
}