{
	"country": "United States",
	"name": "Indianapolis",
	"gps": {
		"latitude": 39.7771,
		"longitude": -86.1458
	},
	"slug": "indianapolis",
	"adminName": "Indiana",
	"photoUrl": "https://live.staticflickr.com/3261/2410692928_f6d3380248_m.jpg",
	"api": {
		"results": [
			{
				"attribution": [
					{
						"url": "http://www.in.gov/idem/",
						"name": "Indiana Department of Environmental Management",
						"logo": "US-Indiana.png"
					},
					{
						"url": "http://www.airnow.gov/",
						"name": "Air Now - US EPA"
					},
					{
						"url": "https://waqi.info/",
						"name": "World Air Quality Index Project"
					}
				],
				"averagingPeriod": {
					"unit": "day",
					"value": 1
				},
				"city": "Indpls - I-70 E, Indiana, USA",
				"coordinates": {
					"latitude": 39.787933,
					"longitude": -86.13088
				},
				"country": "US",
				"date": {
					"local": "2025-03-08T07:00:00.000+00:00",
					"utc": "2025-03-08T12:00:00.000Z"
				},
				"location": "aqicn|8699",
				"isMobile": false,
				"parameter": "co",
				"sourceName": "aqicn",
				"entity": "other",
				"value": 0.4,
				"unit": "ppb"
			},
			{
				"attribution": [
					{
						"url": "http://www.in.gov/idem/",
						"name": "Indiana Department of Environmental Management",
						"logo": "US-Indiana.png"
					},
					{
						"url": "http://www.airnow.gov/",
						"name": "Air Now - US EPA"
					},
					{
						"url": "https://waqi.info/",
						"name": "World Air Quality Index Project"
					}
				],
				"averagingPeriod": {
					"unit": "day",
					"value": 1
				},
				"city": "Indpls - I-70 E, Indiana, USA",
				"coordinates": {
					"latitude": 39.787933,
					"longitude": -86.13088
				},
				"country": "US",
				"date": {
					"local": "2025-03-08T07:00:00.000+00:00",
					"utc": "2025-03-08T12:00:00.000Z"
				},
				"location": "aqicn|8699",
				"isMobile": false,
				"parameter": "no2",
				"sourceName": "aqicn",
				"entity": "other",
				"value": 8.4,
				"unit": "ppb"
			},
			{
				"attribution": [
					{
						"url": "http://www.in.gov/idem/",
						"name": "Indiana Department of Environmental Management",
						"logo": "US-Indiana.png"
					},
					{
						"url": "http://www.airnow.gov/",
						"name": "Air Now - US EPA"
					},
					{
						"url": "https://waqi.info/",
						"name": "World Air Quality Index Project"
					}
				],
				"averagingPeriod": {
					"unit": "day",
					"value": 1
				},
				"city": "Indpls - I-70 E, Indiana, USA",
				"coordinates": {
					"latitude": 39.787933,
					"longitude": -86.13088
				},
				"country": "US",
				"date": {
					"local": "2025-03-08T07:00:00.000+00:00",
					"utc": "2025-03-08T12:00:00.000Z"
				},
				"location": "aqicn|8699",
				"isMobile": false,
				"parameter": "o3",
				"sourceName": "aqicn",
				"entity": "other",
				"value": 27.6,
				"unit": "ppb"
			},
			{
				"attribution": [
					{
						"url": "http://www.in.gov/idem/",
						"name": "Indiana Department of Environmental Management",
						"logo": "US-Indiana.png"
					},
					{
						"url": "http://www.airnow.gov/",
						"name": "Air Now - US EPA"
					},
					{
						"url": "https://waqi.info/",
						"name": "World Air Quality Index Project"
					}
				],
				"averagingPeriod": {
					"unit": "day",
					"value": 1
				},
				"city": "Indpls - I-70 E, Indiana, USA",
				"coordinates": {
					"latitude": 39.787933,
					"longitude": -86.13088
				},
				"country": "US",
				"date": {
					"local": "2025-03-08T07:00:00.000+00:00",
					"utc": "2025-03-08T12:00:00.000Z"
				},
				"location": "aqicn|8699",
				"isMobile": false,
				"parameter": "pm25",
				"sourceName": "aqicn",
				"entity": "other",
				"value": 9.6,
				"unit": "µg/m³"
			}
		],
		"pm25": {
			"attribution": [
				{
					"url": "http://www.in.gov/idem/",
					"name": "Indiana Department of Environmental Management",
					"logo": "US-Indiana.png"
				},
				{
					"url": "http://www.airnow.gov/",
					"name": "Air Now - US EPA"
				},
				{
					"url": "https://waqi.info/",
					"name": "World Air Quality Index Project"
				}
			],
			"averagingPeriod": {
				"unit": "day",
				"value": 1
			},
			"city": "Indpls - I-70 E, Indiana, USA",
			"coordinates": {
				"latitude": 39.787933,
				"longitude": -86.13088
			},
			"country": "US",
			"date": {
				"local": "2025-03-08T07:00:00.000+00:00",
				"utc": "2025-03-08T12:00:00.000Z"
			},
			"location": "aqicn|8699",
			"isMobile": false,
			"parameter": "pm25",
			"sourceName": "aqicn",
			"entity": "other",
			"value": 9.6,
			"unit": "µg/m³"
		},
		"shootismoke": {
			"dailyCigarettes": 0.43636363636363634,
			"distanceToStation": 2,
			"isAccurate": true
		}
	}
}