{
	"country": "India",
	"name": "Indore",
	"gps": {
		"latitude": 22.7151,
		"longitude": 75.865
	},
	"slug": "indore",
	"adminName": "Madhya Pradesh",
	"photoUrl": "https://live.staticflickr.com/4149/5440965976_8731a1e75c_m.jpg"
}