{
	"country": "Brazil",
	"name": "Jaboatão",
	"gps": {
		"latitude": -8.11,
		"longitude": -35.02
	},
	"slug": "jaboatao",
	"adminName": "Pernambuco",
	"photoUrl": "https://live.staticflickr.com/774/21343005936_fd87b16d4d_m.jpg"
}