{
	"country": "China",
	"name": "Jiaozuo",
	"gps": {
		"latitude": 35.25,
		"longitude": 113.22
	},
	"slug": "jiaozuo",
	"adminName": "Henan",
	"photoUrl": "https://live.staticflickr.com/3384/3638549004_9d2b38b2fd_m.jpg"
}