{
	"country": "China",
	"name": "Jilin",
	"gps": {
		"latitude": 43.85,
		"longitude": 126.55
	},
	"slug": "jilin",
	"adminName": "Jilin",
	"photoUrl": "https://live.staticflickr.com/4217/35291890381_8297178881_m.jpg",
	"api": {
		"results": [
			{
				"attribution": [
					{
						"url": "http://sthjt.jl.gov.cn/",
						"name": "Environmental Protection Agency of Jilin Province (吉林省环境保护厅)"
					},
					{
						"url": "http://113.108.142.147:20035/emcpublish/",
						"name": "China National Urban air quality real-time publishing platform (全国城市空气质量实时发布平台)"
					},
					{
						"url": "http://hbt.jl.gov.cn/",
						"name": "Environmental Protection Agency of Jilin Province (吉林省环境保护厅)"
					},
					{
						"url": "https://waqi.info/",
						"name": "World Air Quality Index Project"
					}
				],
				"averagingPeriod": {
					"unit": "day",
					"value": 1
				},
				"city": "Jilin (吉林)",
				"coordinates": {
					"latitude": 43.837883,
					"longitude": 126.549572
				},
				"country": "CN",
				"date": {
					"local": "2025-03-09T09:00:00.000+00:00",
					"utc": "2025-03-09T01:00:00.000Z"
				},
				"location": "aqicn|1480",
				"isMobile": false,
				"parameter": "co",
				"sourceName": "aqicn",
				"entity": "other",
				"value": 1,
				"unit": "ppb"
			},
			{
				"attribution": [
					{
						"url": "http://sthjt.jl.gov.cn/",
						"name": "Environmental Protection Agency of Jilin Province (吉林省环境保护厅)"
					},
					{
						"url": "http://113.108.142.147:20035/emcpublish/",
						"name": "China National Urban air quality real-time publishing platform (全国城市空气质量实时发布平台)"
					},
					{
						"url": "http://hbt.jl.gov.cn/",
						"name": "Environmental Protection Agency of Jilin Province (吉林省环境保护厅)"
					},
					{
						"url": "https://waqi.info/",
						"name": "World Air Quality Index Project"
					}
				],
				"averagingPeriod": {
					"unit": "day",
					"value": 1
				},
				"city": "Jilin (吉林)",
				"coordinates": {
					"latitude": 43.837883,
					"longitude": 126.549572
				},
				"country": "CN",
				"date": {
					"local": "2025-03-09T09:00:00.000+00:00",
					"utc": "2025-03-09T01:00:00.000Z"
				},
				"location": "aqicn|1480",
				"isMobile": false,
				"parameter": "no2",
				"sourceName": "aqicn",
				"entity": "other",
				"value": 28.2,
				"unit": "ppb"
			},
			{
				"attribution": [
					{
						"url": "http://sthjt.jl.gov.cn/",
						"name": "Environmental Protection Agency of Jilin Province (吉林省环境保护厅)"
					},
					{
						"url": "http://113.108.142.147:20035/emcpublish/",
						"name": "China National Urban air quality real-time publishing platform (全国城市空气质量实时发布平台)"
					},
					{
						"url": "http://hbt.jl.gov.cn/",
						"name": "Environmental Protection Agency of Jilin Province (吉林省环境保护厅)"
					},
					{
						"url": "https://waqi.info/",
						"name": "World Air Quality Index Project"
					}
				],
				"averagingPeriod": {
					"unit": "day",
					"value": 1
				},
				"city": "Jilin (吉林)",
				"coordinates": {
					"latitude": 43.837883,
					"longitude": 126.549572
				},
				"country": "CN",
				"date": {
					"local": "2025-03-09T09:00:00.000+00:00",
					"utc": "2025-03-09T01:00:00.000Z"
				},
				"location": "aqicn|1480",
				"isMobile": false,
				"parameter": "o3",
				"sourceName": "aqicn",
				"entity": "other",
				"value": 2.2,
				"unit": "ppb"
			},
			{
				"attribution": [
					{
						"url": "http://sthjt.jl.gov.cn/",
						"name": "Environmental Protection Agency of Jilin Province (吉林省环境保护厅)"
					},
					{
						"url": "http://113.108.142.147:20035/emcpublish/",
						"name": "China National Urban air quality real-time publishing platform (全国城市空气质量实时发布平台)"
					},
					{
						"url": "http://hbt.jl.gov.cn/",
						"name": "Environmental Protection Agency of Jilin Province (吉林省环境保护厅)"
					},
					{
						"url": "https://waqi.info/",
						"name": "World Air Quality Index Project"
					}
				],
				"averagingPeriod": {
					"unit": "day",
					"value": 1
				},
				"city": "Jilin (吉林)",
				"coordinates": {
					"latitude": 43.837883,
					"longitude": 126.549572
				},
				"country": "CN",
				"date": {
					"local": "2025-03-09T09:00:00.000+00:00",
					"utc": "2025-03-09T01:00:00.000Z"
				},
				"location": "aqicn|1480",
				"isMobile": false,
				"parameter": "pm10",
				"sourceName": "aqicn",
				"entity": "other",
				"value": 169.1,
				"unit": "µg/m³"
			},
			{
				"attribution": [
					{
						"url": "http://sthjt.jl.gov.cn/",
						"name": "Environmental Protection Agency of Jilin Province (吉林省环境保护厅)"
					},
					{
						"url": "http://113.108.142.147:20035/emcpublish/",
						"name": "China National Urban air quality real-time publishing platform (全国城市空气质量实时发布平台)"
					},
					{
						"url": "http://hbt.jl.gov.cn/",
						"name": "Environmental Protection Agency of Jilin Province (吉林省环境保护厅)"
					},
					{
						"url": "https://waqi.info/",
						"name": "World Air Quality Index Project"
					}
				],
				"averagingPeriod": {
					"unit": "day",
					"value": 1
				},
				"city": "Jilin (吉林)",
				"coordinates": {
					"latitude": 43.837883,
					"longitude": 126.549572
				},
				"country": "CN",
				"date": {
					"local": "2025-03-09T09:00:00.000+00:00",
					"utc": "2025-03-09T01:00:00.000Z"
				},
				"location": "aqicn|1480",
				"isMobile": false,
				"parameter": "pm25",
				"sourceName": "aqicn",
				"entity": "other",
				"value": 105.9,
				"unit": "µg/m³"
			},
			{
				"attribution": [
					{
						"url": "http://sthjt.jl.gov.cn/",
						"name": "Environmental Protection Agency of Jilin Province (吉林省环境保护厅)"
					},
					{
						"url": "http://113.108.142.147:20035/emcpublish/",
						"name": "China National Urban air quality real-time publishing platform (全国城市空气质量实时发布平台)"
					},
					{
						"url": "http://hbt.jl.gov.cn/",
						"name": "Environmental Protection Agency of Jilin Province (吉林省环境保护厅)"
					},
					{
						"url": "https://waqi.info/",
						"name": "World Air Quality Index Project"
					}
				],
				"averagingPeriod": {
					"unit": "day",
					"value": 1
				},
				"city": "Jilin (吉林)",
				"coordinates": {
					"latitude": 43.837883,
					"longitude": 126.549572
				},
				"country": "CN",
				"date": {
					"local": "2025-03-09T09:00:00.000+00:00",
					"utc": "2025-03-09T01:00:00.000Z"
				},
				"location": "aqicn|1480",
				"isMobile": false,
				"parameter": "so2",
				"sourceName": "aqicn",
				"entity": "other",
				"value": 5.3,
				"unit": "ppb"
			}
		],
		"pm25": {
			"attribution": [
				{
					"url": "http://sthjt.jl.gov.cn/",
					"name": "Environmental Protection Agency of Jilin Province (吉林省环境保护厅)"
				},
				{
					"url": "http://113.108.142.147:20035/emcpublish/",
					"name": "China National Urban air quality real-time publishing platform (全国城市空气质量实时发布平台)"
				},
				{
					"url": "http://hbt.jl.gov.cn/",
					"name": "Environmental Protection Agency of Jilin Province (吉林省环境保护厅)"
				},
				{
					"url": "https://waqi.info/",
					"name": "World Air Quality Index Project"
				}
			],
			"averagingPeriod": {
				"unit": "day",
				"value": 1
			},
			"city": "Jilin (吉林)",
			"coordinates": {
				"latitude": 43.837883,
				"longitude": 126.549572
			},
			"country": "CN",
			"date": {
				"local": "2025-03-09T09:00:00.000+00:00",
				"utc": "2025-03-09T01:00:00.000Z"
			},
			"location": "aqicn|1480",
			"isMobile": false,
			"parameter": "pm25",
			"sourceName": "aqicn",
			"entity": "other",
			"value": 105.9,
			"unit": "µg/m³"
		},
		"shootismoke": {
			"dailyCigarettes": 4.8136363636363635,
			"distanceToStation": 1,
			"isAccurate": true
		}
	}
}