{
	"country": "China",
	"name": "Jincheng",
	"gps": {
		"latitude": 35.5004,
		"longitude": 112.83
	},
	"slug": "jincheng",
	"adminName": "Shanxi",
	"photoUrl": "https://live.staticflickr.com/65535/48936756043_52c259a667_m.jpg",
	"api": {
		"results": [
			{
				"attribution": [
					{
						"url": "http://sthjt.shanxi.gov.cn/",
						"name": "Shanxi Province Environmental Monitoring Center (山西省环境监测中心站网站首页)"
					},
					{
						"url": "https://waqi.info/",
						"name": "World Air Quality Index Project"
					}
				],
				"averagingPeriod": {
					"unit": "day",
					"value": 1
				},
				"city": "Baiyun shopping mall, Jincheng (晋城白云商贸)",
				"coordinates": {
					"latitude": 35.4934,
					"longitude": 112.835
				},
				"country": "CN",
				"date": {
					"local": "2025-03-09T09:00:00.000+00:00",
					"utc": "2025-03-09T01:00:00.000Z"
				},
				"location": "aqicn|3517",
				"isMobile": false,
				"parameter": "co",
				"sourceName": "aqicn",
				"entity": "other",
				"value": 0.5,
				"unit": "ppb"
			},
			{
				"attribution": [
					{
						"url": "http://sthjt.shanxi.gov.cn/",
						"name": "Shanxi Province Environmental Monitoring Center (山西省环境监测中心站网站首页)"
					},
					{
						"url": "https://waqi.info/",
						"name": "World Air Quality Index Project"
					}
				],
				"averagingPeriod": {
					"unit": "day",
					"value": 1
				},
				"city": "Baiyun shopping mall, Jincheng (晋城白云商贸)",
				"coordinates": {
					"latitude": 35.4934,
					"longitude": 112.835
				},
				"country": "CN",
				"date": {
					"local": "2025-03-09T09:00:00.000+00:00",
					"utc": "2025-03-09T01:00:00.000Z"
				},
				"location": "aqicn|3517",
				"isMobile": false,
				"parameter": "no2",
				"sourceName": "aqicn",
				"entity": "other",
				"value": 15.6,
				"unit": "ppb"
			},
			{
				"attribution": [
					{
						"url": "http://sthjt.shanxi.gov.cn/",
						"name": "Shanxi Province Environmental Monitoring Center (山西省环境监测中心站网站首页)"
					},
					{
						"url": "https://waqi.info/",
						"name": "World Air Quality Index Project"
					}
				],
				"averagingPeriod": {
					"unit": "day",
					"value": 1
				},
				"city": "Baiyun shopping mall, Jincheng (晋城白云商贸)",
				"coordinates": {
					"latitude": 35.4934,
					"longitude": 112.835
				},
				"country": "CN",
				"date": {
					"local": "2025-03-09T09:00:00.000+00:00",
					"utc": "2025-03-09T01:00:00.000Z"
				},
				"location": "aqicn|3517",
				"isMobile": false,
				"parameter": "pm10",
				"sourceName": "aqicn",
				"entity": "other",
				"value": 83.3,
				"unit": "µg/m³"
			},
			{
				"attribution": [
					{
						"url": "http://sthjt.shanxi.gov.cn/",
						"name": "Shanxi Province Environmental Monitoring Center (山西省环境监测中心站网站首页)"
					},
					{
						"url": "https://waqi.info/",
						"name": "World Air Quality Index Project"
					}
				],
				"averagingPeriod": {
					"unit": "day",
					"value": 1
				},
				"city": "Baiyun shopping mall, Jincheng (晋城白云商贸)",
				"coordinates": {
					"latitude": 35.4934,
					"longitude": 112.835
				},
				"country": "CN",
				"date": {
					"local": "2025-03-09T09:00:00.000+00:00",
					"utc": "2025-03-09T01:00:00.000Z"
				},
				"location": "aqicn|3517",
				"isMobile": false,
				"parameter": "pm25",
				"sourceName": "aqicn",
				"entity": "other",
				"value": 48.1,
				"unit": "µg/m³"
			},
			{
				"attribution": [
					{
						"url": "http://sthjt.shanxi.gov.cn/",
						"name": "Shanxi Province Environmental Monitoring Center (山西省环境监测中心站网站首页)"
					},
					{
						"url": "https://waqi.info/",
						"name": "World Air Quality Index Project"
					}
				],
				"averagingPeriod": {
					"unit": "day",
					"value": 1
				},
				"city": "Baiyun shopping mall, Jincheng (晋城白云商贸)",
				"coordinates": {
					"latitude": 35.4934,
					"longitude": 112.835
				},
				"country": "CN",
				"date": {
					"local": "2025-03-09T09:00:00.000+00:00",
					"utc": "2025-03-09T01:00:00.000Z"
				},
				"location": "aqicn|3517",
				"isMobile": false,
				"parameter": "so2",
				"sourceName": "aqicn",
				"entity": "other",
				"value": 2.2,
				"unit": "ppb"
			}
		],
		"pm25": {
			"attribution": [
				{
					"url": "http://sthjt.shanxi.gov.cn/",
					"name": "Shanxi Province Environmental Monitoring Center (山西省环境监测中心站网站首页)"
				},
				{
					"url": "https://waqi.info/",
					"name": "World Air Quality Index Project"
				}
			],
			"averagingPeriod": {
				"unit": "day",
				"value": 1
			},
			"city": "Baiyun shopping mall, Jincheng (晋城白云商贸)",
			"coordinates": {
				"latitude": 35.4934,
				"longitude": 112.835
			},
			"country": "CN",
			"date": {
				"local": "2025-03-09T09:00:00.000+00:00",
				"utc": "2025-03-09T01:00:00.000Z"
			},
			"location": "aqicn|3517",
			"isMobile": false,
			"parameter": "pm25",
			"sourceName": "aqicn",
			"entity": "other",
			"value": 48.1,
			"unit": "µg/m³"
		},
		"shootismoke": {
			"dailyCigarettes": 2.1863636363636365,
			"distanceToStation": 1,
			"isAccurate": true
		}
	}
}