{
	"country": "Mexico",
	"name": "Juárez",
	"gps": {
		"latitude": 31.6904,
		"longitude": -106.49
	},
	"slug": "juarez",
	"adminName": "Chihuahua",
	"photoUrl": "https://live.staticflickr.com/2455/3663362308_1075637962_m.jpg"
}