{
	"country": "Pakistan",
	"name": "Karachi",
	"gps": {
		"latitude": 24.87,
		"longitude": 66.99
	},
	"slug": "karachi",
	"adminName": "Sindh",
	"photoUrl": "https://live.staticflickr.com/5506/9186100223_7194cb5775_m.jpg"
}