{
	"country": "Poland",
	"name": "Katowice",
	"gps": {
		"latitude": 50.2604,
		"longitude": 19.02
	},
	"slug": "katowice",
	"adminName": "Śląskie",
	"photoUrl": "https://live.staticflickr.com/5819/30262924552_b5da1c986e_m.jpg",
	"api": {
		"results": [
			{
				"attribution": [
					{
						"url": "http://katowice.wios.gov.pl/",
						"name": "Świętokrzyski Monitoring network",
						"logo": "poland-wios-katowice.png"
					},
					{
						"url": "http://powietrze.gios.gov.pl/",
						"name": "Główny inspektorat ochrony środowiska",
						"logo": "poland-wios-national.png"
					},
					{
						"url": "https://waqi.info/",
						"name": "World Air Quality Index Project"
					}
				],
				"averagingPeriod": {
					"unit": "day",
					"value": 1
				},
				"city": "Katowice, ul Kossutha 6, Poland",
				"coordinates": {
					"latitude": 50.264611,
					"longitude": 18.975028
				},
				"country": "PL",
				"date": {
					"local": "2025-03-08T18:00:00.000+00:00",
					"utc": "2025-03-08T17:00:00.000Z"
				},
				"location": "aqicn|6540",
				"isMobile": false,
				"parameter": "no2",
				"sourceName": "aqicn",
				"entity": "other",
				"value": 6.3,
				"unit": "ppb"
			},
			{
				"attribution": [
					{
						"url": "http://katowice.wios.gov.pl/",
						"name": "Świętokrzyski Monitoring network",
						"logo": "poland-wios-katowice.png"
					},
					{
						"url": "http://powietrze.gios.gov.pl/",
						"name": "Główny inspektorat ochrony środowiska",
						"logo": "poland-wios-national.png"
					},
					{
						"url": "https://waqi.info/",
						"name": "World Air Quality Index Project"
					}
				],
				"averagingPeriod": {
					"unit": "day",
					"value": 1
				},
				"city": "Katowice, ul Kossutha 6, Poland",
				"coordinates": {
					"latitude": 50.264611,
					"longitude": 18.975028
				},
				"country": "PL",
				"date": {
					"local": "2025-03-08T18:00:00.000+00:00",
					"utc": "2025-03-08T17:00:00.000Z"
				},
				"location": "aqicn|6540",
				"isMobile": false,
				"parameter": "o3",
				"sourceName": "aqicn",
				"entity": "other",
				"value": 48.8,
				"unit": "ppb"
			},
			{
				"attribution": [
					{
						"url": "http://katowice.wios.gov.pl/",
						"name": "Świętokrzyski Monitoring network",
						"logo": "poland-wios-katowice.png"
					},
					{
						"url": "http://powietrze.gios.gov.pl/",
						"name": "Główny inspektorat ochrony środowiska",
						"logo": "poland-wios-national.png"
					},
					{
						"url": "https://waqi.info/",
						"name": "World Air Quality Index Project"
					}
				],
				"averagingPeriod": {
					"unit": "day",
					"value": 1
				},
				"city": "Katowice, ul Kossutha 6, Poland",
				"coordinates": {
					"latitude": 50.264611,
					"longitude": 18.975028
				},
				"country": "PL",
				"date": {
					"local": "2025-03-08T18:00:00.000+00:00",
					"utc": "2025-03-08T17:00:00.000Z"
				},
				"location": "aqicn|6540",
				"isMobile": false,
				"parameter": "pm10",
				"sourceName": "aqicn",
				"entity": "other",
				"value": 29.2,
				"unit": "µg/m³"
			},
			{
				"attribution": [
					{
						"url": "http://katowice.wios.gov.pl/",
						"name": "Świętokrzyski Monitoring network",
						"logo": "poland-wios-katowice.png"
					},
					{
						"url": "http://powietrze.gios.gov.pl/",
						"name": "Główny inspektorat ochrony środowiska",
						"logo": "poland-wios-national.png"
					},
					{
						"url": "https://waqi.info/",
						"name": "World Air Quality Index Project"
					}
				],
				"averagingPeriod": {
					"unit": "day",
					"value": 1
				},
				"city": "Katowice, ul Kossutha 6, Poland",
				"coordinates": {
					"latitude": 50.264611,
					"longitude": 18.975028
				},
				"country": "PL",
				"date": {
					"local": "2025-03-08T18:00:00.000+00:00",
					"utc": "2025-03-08T17:00:00.000Z"
				},
				"location": "aqicn|6540",
				"isMobile": false,
				"parameter": "pm25",
				"sourceName": "aqicn",
				"entity": "other",
				"value": 15.4,
				"unit": "µg/m³"
			},
			{
				"attribution": [
					{
						"url": "http://katowice.wios.gov.pl/",
						"name": "Świętokrzyski Monitoring network",
						"logo": "poland-wios-katowice.png"
					},
					{
						"url": "http://powietrze.gios.gov.pl/",
						"name": "Główny inspektorat ochrony środowiska",
						"logo": "poland-wios-national.png"
					},
					{
						"url": "https://waqi.info/",
						"name": "World Air Quality Index Project"
					}
				],
				"averagingPeriod": {
					"unit": "day",
					"value": 1
				},
				"city": "Katowice, ul Kossutha 6, Poland",
				"coordinates": {
					"latitude": 50.264611,
					"longitude": 18.975028
				},
				"country": "PL",
				"date": {
					"local": "2025-03-08T18:00:00.000+00:00",
					"utc": "2025-03-08T17:00:00.000Z"
				},
				"location": "aqicn|6540",
				"isMobile": false,
				"parameter": "so2",
				"sourceName": "aqicn",
				"entity": "other",
				"value": 1.5,
				"unit": "ppb"
			}
		],
		"pm25": {
			"attribution": [
				{
					"url": "http://katowice.wios.gov.pl/",
					"name": "Świętokrzyski Monitoring network",
					"logo": "poland-wios-katowice.png"
				},
				{
					"url": "http://powietrze.gios.gov.pl/",
					"name": "Główny inspektorat ochrony środowiska",
					"logo": "poland-wios-national.png"
				},
				{
					"url": "https://waqi.info/",
					"name": "World Air Quality Index Project"
				}
			],
			"averagingPeriod": {
				"unit": "day",
				"value": 1
			},
			"city": "Katowice, ul Kossutha 6, Poland",
			"coordinates": {
				"latitude": 50.264611,
				"longitude": 18.975028
			},
			"country": "PL",
			"date": {
				"local": "2025-03-08T18:00:00.000+00:00",
				"utc": "2025-03-08T17:00:00.000Z"
			},
			"location": "aqicn|6540",
			"isMobile": false,
			"parameter": "pm25",
			"sourceName": "aqicn",
			"entity": "other",
			"value": 15.4,
			"unit": "µg/m³"
		},
		"shootismoke": {
			"dailyCigarettes": 0.7000000000000001,
			"distanceToStation": 3,
			"isAccurate": true
		}
	}
}