{
	"country": "Morocco",
	"name": "Kenitra",
	"gps": {
		"latitude": 34.2704,
		"longitude": -6.58
	},
	"slug": "kenitra",
	"adminName": "Rabat-Salé-Kénitra",
	"photoUrl": "https://live.staticflickr.com/2299/1535105015_d82f863814_m.jpg"
}