{
	"country": "Ukraine",
	"name": "Kharkiv",
	"gps": {
		"latitude": 50,
		"longitude": 36.25
	},
	"slug": "kharkiv",
	"adminName": "Kharkivs’ka Oblast’",
	"photoUrl": "https://live.staticflickr.com/7605/16987317511_b2dc9406b1_m.jpg"
}