{
	"country": "Congo (Kinshasa)",
	"name": "Kisangani",
	"gps": {
		"latitude": 0.52,
		"longitude": 25.22
	},
	"slug": "kisangani",
	"adminName": "Tshopo",
	"photoUrl": "https://live.staticflickr.com/151/357995684_cedb713b03_m.jpg"
}