{
	"country": "Russia",
	"name": "Krasnodar",
	"gps": {
		"latitude": 45.02,
		"longitude": 39
	},
	"slug": "krasnodar",
	"adminName": "Krasnodarskiy Kray",
	"photoUrl": "https://live.staticflickr.com/3900/15045793670_e6c30f50c6_m.jpg"
}