{
	"country": "Pakistan",
	"name": "Lahore",
	"gps": {
		"latitude": 31.56,
		"longitude": 74.35
	},
	"slug": "lahore",
	"adminName": "Punjab",
	"photoUrl": "https://live.staticflickr.com/28/90215517_be32fa8504_m.jpg"
}