{
	"country": "China",
	"name": "Leshan",
	"gps": {
		"latitude": 29.5671,
		"longitude": 103.7333
	},
	"slug": "leshan",
	"adminName": "Sichuan",
	"photoUrl": "https://live.staticflickr.com/8538/29235023860_0db46613f1_m.jpg",
	"api": {
		"results": [
			{
				"attribution": [
					{
						"url": "https://sthjt.sc.gov.cn/",
						"name": "Sichuan Province Environmental Protection Agency (四川省环保重点城市环境空气质量实时监测结果)"
					},
					{
						"url": "https://waqi.info/",
						"name": "World Air Quality Index Project"
					}
				],
				"averagingPeriod": {
					"unit": "day",
					"value": 1
				},
				"city": "City Monitoring Station, Leshan (乐山市监测站)",
				"coordinates": {
					"latitude": 29.5634,
					"longitude": 103.757
				},
				"country": "CN",
				"date": {
					"local": "2025-03-09T09:00:00.000+00:00",
					"utc": "2025-03-09T01:00:00.000Z"
				},
				"location": "aqicn|5700",
				"isMobile": false,
				"parameter": "co",
				"sourceName": "aqicn",
				"entity": "other",
				"value": 0.6,
				"unit": "ppb"
			},
			{
				"attribution": [
					{
						"url": "https://sthjt.sc.gov.cn/",
						"name": "Sichuan Province Environmental Protection Agency (四川省环保重点城市环境空气质量实时监测结果)"
					},
					{
						"url": "https://waqi.info/",
						"name": "World Air Quality Index Project"
					}
				],
				"averagingPeriod": {
					"unit": "day",
					"value": 1
				},
				"city": "City Monitoring Station, Leshan (乐山市监测站)",
				"coordinates": {
					"latitude": 29.5634,
					"longitude": 103.757
				},
				"country": "CN",
				"date": {
					"local": "2025-03-09T09:00:00.000+00:00",
					"utc": "2025-03-09T01:00:00.000Z"
				},
				"location": "aqicn|5700",
				"isMobile": false,
				"parameter": "no2",
				"sourceName": "aqicn",
				"entity": "other",
				"value": 6.8,
				"unit": "ppb"
			},
			{
				"attribution": [
					{
						"url": "https://sthjt.sc.gov.cn/",
						"name": "Sichuan Province Environmental Protection Agency (四川省环保重点城市环境空气质量实时监测结果)"
					},
					{
						"url": "https://waqi.info/",
						"name": "World Air Quality Index Project"
					}
				],
				"averagingPeriod": {
					"unit": "day",
					"value": 1
				},
				"city": "City Monitoring Station, Leshan (乐山市监测站)",
				"coordinates": {
					"latitude": 29.5634,
					"longitude": 103.757
				},
				"country": "CN",
				"date": {
					"local": "2025-03-09T09:00:00.000+00:00",
					"utc": "2025-03-09T01:00:00.000Z"
				},
				"location": "aqicn|5700",
				"isMobile": false,
				"parameter": "pm10",
				"sourceName": "aqicn",
				"entity": "other",
				"value": 35.6,
				"unit": "µg/m³"
			},
			{
				"attribution": [
					{
						"url": "https://sthjt.sc.gov.cn/",
						"name": "Sichuan Province Environmental Protection Agency (四川省环保重点城市环境空气质量实时监测结果)"
					},
					{
						"url": "https://waqi.info/",
						"name": "World Air Quality Index Project"
					}
				],
				"averagingPeriod": {
					"unit": "day",
					"value": 1
				},
				"city": "City Monitoring Station, Leshan (乐山市监测站)",
				"coordinates": {
					"latitude": 29.5634,
					"longitude": 103.757
				},
				"country": "CN",
				"date": {
					"local": "2025-03-09T09:00:00.000+00:00",
					"utc": "2025-03-09T01:00:00.000Z"
				},
				"location": "aqicn|5700",
				"isMobile": false,
				"parameter": "pm25",
				"sourceName": "aqicn",
				"entity": "other",
				"value": 29.2,
				"unit": "µg/m³"
			},
			{
				"attribution": [
					{
						"url": "https://sthjt.sc.gov.cn/",
						"name": "Sichuan Province Environmental Protection Agency (四川省环保重点城市环境空气质量实时监测结果)"
					},
					{
						"url": "https://waqi.info/",
						"name": "World Air Quality Index Project"
					}
				],
				"averagingPeriod": {
					"unit": "day",
					"value": 1
				},
				"city": "City Monitoring Station, Leshan (乐山市监测站)",
				"coordinates": {
					"latitude": 29.5634,
					"longitude": 103.757
				},
				"country": "CN",
				"date": {
					"local": "2025-03-09T09:00:00.000+00:00",
					"utc": "2025-03-09T01:00:00.000Z"
				},
				"location": "aqicn|5700",
				"isMobile": false,
				"parameter": "so2",
				"sourceName": "aqicn",
				"entity": "other",
				"value": 1.5,
				"unit": "ppb"
			}
		],
		"pm25": {
			"attribution": [
				{
					"url": "https://sthjt.sc.gov.cn/",
					"name": "Sichuan Province Environmental Protection Agency (四川省环保重点城市环境空气质量实时监测结果)"
				},
				{
					"url": "https://waqi.info/",
					"name": "World Air Quality Index Project"
				}
			],
			"averagingPeriod": {
				"unit": "day",
				"value": 1
			},
			"city": "City Monitoring Station, Leshan (乐山市监测站)",
			"coordinates": {
				"latitude": 29.5634,
				"longitude": 103.757
			},
			"country": "CN",
			"date": {
				"local": "2025-03-09T09:00:00.000+00:00",
				"utc": "2025-03-09T01:00:00.000Z"
			},
			"location": "aqicn|5700",
			"isMobile": false,
			"parameter": "pm25",
			"sourceName": "aqicn",
			"entity": "other",
			"value": 29.2,
			"unit": "µg/m³"
		},
		"shootismoke": {
			"dailyCigarettes": 1.3272727272727272,
			"distanceToStation": 2,
			"isAccurate": true
		}
	}
}