{
	"country": "China",
	"name": "Liaoyang",
	"gps": {
		"latitude": 41.28,
		"longitude": 123.18
	},
	"slug": "liaoyang",
	"adminName": "Liaoning",
	"photoUrl": "https://live.staticflickr.com/7769/17366588015_23bc5b73a6_m.jpg",
	"api": {
		"results": [
			{
				"attribution": [
					{
						"url": "sthj.ln.gov.cn",
						"name": "Liaoning Provincial Environmental Monitoring (辽宁省环境保护厅)"
					},
					{
						"url": "https://waqi.info/",
						"name": "World Air Quality Index Project"
					}
				],
				"averagingPeriod": {
					"unit": "day",
					"value": 1
				},
				"city": "Riverside Road , Liaoyang , Liaoyang (辽阳滨河路)",
				"coordinates": {
					"latitude": 41.2736,
					"longitude": 123.1761
				},
				"country": "CN",
				"date": {
					"local": "2025-03-09T09:00:00.000+00:00",
					"utc": "2025-03-09T01:00:00.000Z"
				},
				"location": "aqicn|5207",
				"isMobile": false,
				"parameter": "co",
				"sourceName": "aqicn",
				"entity": "other",
				"value": 0.6,
				"unit": "ppb"
			},
			{
				"attribution": [
					{
						"url": "sthj.ln.gov.cn",
						"name": "Liaoning Provincial Environmental Monitoring (辽宁省环境保护厅)"
					},
					{
						"url": "https://waqi.info/",
						"name": "World Air Quality Index Project"
					}
				],
				"averagingPeriod": {
					"unit": "day",
					"value": 1
				},
				"city": "Riverside Road , Liaoyang , Liaoyang (辽阳滨河路)",
				"coordinates": {
					"latitude": 41.2736,
					"longitude": 123.1761
				},
				"country": "CN",
				"date": {
					"local": "2025-03-09T09:00:00.000+00:00",
					"utc": "2025-03-09T01:00:00.000Z"
				},
				"location": "aqicn|5207",
				"isMobile": false,
				"parameter": "no2",
				"sourceName": "aqicn",
				"entity": "other",
				"value": 12.2,
				"unit": "ppb"
			},
			{
				"attribution": [
					{
						"url": "sthj.ln.gov.cn",
						"name": "Liaoning Provincial Environmental Monitoring (辽宁省环境保护厅)"
					},
					{
						"url": "https://waqi.info/",
						"name": "World Air Quality Index Project"
					}
				],
				"averagingPeriod": {
					"unit": "day",
					"value": 1
				},
				"city": "Riverside Road , Liaoyang , Liaoyang (辽阳滨河路)",
				"coordinates": {
					"latitude": 41.2736,
					"longitude": 123.1761
				},
				"country": "CN",
				"date": {
					"local": "2025-03-09T09:00:00.000+00:00",
					"utc": "2025-03-09T01:00:00.000Z"
				},
				"location": "aqicn|5207",
				"isMobile": false,
				"parameter": "pm10",
				"sourceName": "aqicn",
				"entity": "other",
				"value": 77.2,
				"unit": "µg/m³"
			},
			{
				"attribution": [
					{
						"url": "sthj.ln.gov.cn",
						"name": "Liaoning Provincial Environmental Monitoring (辽宁省环境保护厅)"
					},
					{
						"url": "https://waqi.info/",
						"name": "World Air Quality Index Project"
					}
				],
				"averagingPeriod": {
					"unit": "day",
					"value": 1
				},
				"city": "Riverside Road , Liaoyang , Liaoyang (辽阳滨河路)",
				"coordinates": {
					"latitude": 41.2736,
					"longitude": 123.1761
				},
				"country": "CN",
				"date": {
					"local": "2025-03-09T09:00:00.000+00:00",
					"utc": "2025-03-09T01:00:00.000Z"
				},
				"location": "aqicn|5207",
				"isMobile": false,
				"parameter": "pm25",
				"sourceName": "aqicn",
				"entity": "other",
				"value": 72.9,
				"unit": "µg/m³"
			},
			{
				"attribution": [
					{
						"url": "sthj.ln.gov.cn",
						"name": "Liaoning Provincial Environmental Monitoring (辽宁省环境保护厅)"
					},
					{
						"url": "https://waqi.info/",
						"name": "World Air Quality Index Project"
					}
				],
				"averagingPeriod": {
					"unit": "day",
					"value": 1
				},
				"city": "Riverside Road , Liaoyang , Liaoyang (辽阳滨河路)",
				"coordinates": {
					"latitude": 41.2736,
					"longitude": 123.1761
				},
				"country": "CN",
				"date": {
					"local": "2025-03-09T09:00:00.000+00:00",
					"utc": "2025-03-09T01:00:00.000Z"
				},
				"location": "aqicn|5207",
				"isMobile": false,
				"parameter": "so2",
				"sourceName": "aqicn",
				"entity": "other",
				"value": 7.8,
				"unit": "ppb"
			}
		],
		"pm25": {
			"attribution": [
				{
					"url": "sthj.ln.gov.cn",
					"name": "Liaoning Provincial Environmental Monitoring (辽宁省环境保护厅)"
				},
				{
					"url": "https://waqi.info/",
					"name": "World Air Quality Index Project"
				}
			],
			"averagingPeriod": {
				"unit": "day",
				"value": 1
			},
			"city": "Riverside Road , Liaoyang , Liaoyang (辽阳滨河路)",
			"coordinates": {
				"latitude": 41.2736,
				"longitude": 123.1761
			},
			"country": "CN",
			"date": {
				"local": "2025-03-09T09:00:00.000+00:00",
				"utc": "2025-03-09T01:00:00.000Z"
			},
			"location": "aqicn|5207",
			"isMobile": false,
			"parameter": "pm25",
			"sourceName": "aqicn",
			"entity": "other",
			"value": 72.9,
			"unit": "µg/m³"
		},
		"shootismoke": {
			"dailyCigarettes": 3.313636363636364,
			"distanceToStation": 1,
			"isAccurate": true
		}
	}
}