{
	"country": "Gabon",
	"name": "Libreville",
	"gps": {
		"latitude": 0.3854,
		"longitude": 9.458
	},
	"slug": "libreville",
	"adminName": "Estuaire",
	"photoUrl": "https://live.staticflickr.com/7832/40542777773_6512d72241_m.jpg"
}