{
	"country": "France",
	"name": "Lille",
	"gps": {
		"latitude": 50.65,
		"longitude": 3.08
	},
	"slug": "lille",
	"adminName": "Hauts-de-France",
	"photoUrl": "https://live.staticflickr.com/1506/24863825946_8cf2a83ab3_m.jpg",
	"api": {
		"results": [
			{
				"attribution": [
					{
						"url": "https://www.atmo-hdf.fr/",
						"name": "Atmo en Hauts-de-France - Pas-de-Calais",
						"logo": "France-AmtoNPC.png"
					},
					{
						"url": "https://waqi.info/",
						"name": "World Air Quality Index Project"
					}
				],
				"averagingPeriod": {
					"unit": "day",
					"value": 1
				},
				"city": "Roubaix Serres, Nord-Pas-de-Calais, France",
				"coordinates": {
					"latitude": 50.70654444444419,
					"longitude": 3.1806611810675345
				},
				"country": "FR",
				"date": {
					"local": "2025-03-08T18:00:00.000+00:00",
					"utc": "2025-03-08T17:00:00.000Z"
				},
				"location": "aqicn|6251",
				"isMobile": false,
				"parameter": "co",
				"sourceName": "aqicn",
				"entity": "other",
				"value": 0,
				"unit": "ppb"
			},
			{
				"attribution": [
					{
						"url": "https://www.atmo-hdf.fr/",
						"name": "Atmo en Hauts-de-France - Pas-de-Calais",
						"logo": "France-AmtoNPC.png"
					},
					{
						"url": "https://waqi.info/",
						"name": "World Air Quality Index Project"
					}
				],
				"averagingPeriod": {
					"unit": "day",
					"value": 1
				},
				"city": "Roubaix Serres, Nord-Pas-de-Calais, France",
				"coordinates": {
					"latitude": 50.70654444444419,
					"longitude": 3.1806611810675345
				},
				"country": "FR",
				"date": {
					"local": "2025-03-08T18:00:00.000+00:00",
					"utc": "2025-03-08T17:00:00.000Z"
				},
				"location": "aqicn|6251",
				"isMobile": false,
				"parameter": "no2",
				"sourceName": "aqicn",
				"entity": "other",
				"value": 13.1,
				"unit": "ppb"
			},
			{
				"attribution": [
					{
						"url": "https://www.atmo-hdf.fr/",
						"name": "Atmo en Hauts-de-France - Pas-de-Calais",
						"logo": "France-AmtoNPC.png"
					},
					{
						"url": "https://waqi.info/",
						"name": "World Air Quality Index Project"
					}
				],
				"averagingPeriod": {
					"unit": "day",
					"value": 1
				},
				"city": "Roubaix Serres, Nord-Pas-de-Calais, France",
				"coordinates": {
					"latitude": 50.70654444444419,
					"longitude": 3.1806611810675345
				},
				"country": "FR",
				"date": {
					"local": "2025-03-08T18:00:00.000+00:00",
					"utc": "2025-03-08T17:00:00.000Z"
				},
				"location": "aqicn|6251",
				"isMobile": false,
				"parameter": "o3",
				"sourceName": "aqicn",
				"entity": "other",
				"value": 16.8,
				"unit": "ppb"
			},
			{
				"attribution": [
					{
						"url": "https://www.atmo-hdf.fr/",
						"name": "Atmo en Hauts-de-France - Pas-de-Calais",
						"logo": "France-AmtoNPC.png"
					},
					{
						"url": "https://waqi.info/",
						"name": "World Air Quality Index Project"
					}
				],
				"averagingPeriod": {
					"unit": "day",
					"value": 1
				},
				"city": "Roubaix Serres, Nord-Pas-de-Calais, France",
				"coordinates": {
					"latitude": 50.70654444444419,
					"longitude": 3.1806611810675345
				},
				"country": "FR",
				"date": {
					"local": "2025-03-08T18:00:00.000+00:00",
					"utc": "2025-03-08T17:00:00.000Z"
				},
				"location": "aqicn|6251",
				"isMobile": false,
				"parameter": "pm10",
				"sourceName": "aqicn",
				"entity": "other",
				"value": 23.8,
				"unit": "µg/m³"
			},
			{
				"attribution": [
					{
						"url": "https://www.atmo-hdf.fr/",
						"name": "Atmo en Hauts-de-France - Pas-de-Calais",
						"logo": "France-AmtoNPC.png"
					},
					{
						"url": "https://waqi.info/",
						"name": "World Air Quality Index Project"
					}
				],
				"averagingPeriod": {
					"unit": "day",
					"value": 1
				},
				"city": "Roubaix Serres, Nord-Pas-de-Calais, France",
				"coordinates": {
					"latitude": 50.70654444444419,
					"longitude": 3.1806611810675345
				},
				"country": "FR",
				"date": {
					"local": "2025-03-08T18:00:00.000+00:00",
					"utc": "2025-03-08T17:00:00.000Z"
				},
				"location": "aqicn|6251",
				"isMobile": false,
				"parameter": "pm25",
				"sourceName": "aqicn",
				"entity": "other",
				"value": 13.1,
				"unit": "µg/m³"
			},
			{
				"attribution": [
					{
						"url": "https://www.atmo-hdf.fr/",
						"name": "Atmo en Hauts-de-France - Pas-de-Calais",
						"logo": "France-AmtoNPC.png"
					},
					{
						"url": "https://waqi.info/",
						"name": "World Air Quality Index Project"
					}
				],
				"averagingPeriod": {
					"unit": "day",
					"value": 1
				},
				"city": "Roubaix Serres, Nord-Pas-de-Calais, France",
				"coordinates": {
					"latitude": 50.70654444444419,
					"longitude": 3.1806611810675345
				},
				"country": "FR",
				"date": {
					"local": "2025-03-08T18:00:00.000+00:00",
					"utc": "2025-03-08T17:00:00.000Z"
				},
				"location": "aqicn|6251",
				"isMobile": false,
				"parameter": "so2",
				"sourceName": "aqicn",
				"entity": "other",
				"value": 0.8,
				"unit": "ppb"
			}
		],
		"pm25": {
			"attribution": [
				{
					"url": "https://www.atmo-hdf.fr/",
					"name": "Atmo en Hauts-de-France - Pas-de-Calais",
					"logo": "France-AmtoNPC.png"
				},
				{
					"url": "https://waqi.info/",
					"name": "World Air Quality Index Project"
				}
			],
			"averagingPeriod": {
				"unit": "day",
				"value": 1
			},
			"city": "Roubaix Serres, Nord-Pas-de-Calais, France",
			"coordinates": {
				"latitude": 50.70654444444419,
				"longitude": 3.1806611810675345
			},
			"country": "FR",
			"date": {
				"local": "2025-03-08T18:00:00.000+00:00",
				"utc": "2025-03-08T17:00:00.000Z"
			},
			"location": "aqicn|6251",
			"isMobile": false,
			"parameter": "pm25",
			"sourceName": "aqicn",
			"entity": "other",
			"value": 13.1,
			"unit": "µg/m³"
		},
		"shootismoke": {
			"dailyCigarettes": 0.5954545454545455,
			"distanceToStation": 9,
			"isAccurate": true
		}
	}
}