{
	"country": "Malawi",
	"name": "Lilongwe",
	"gps": {
		"latitude": -13.9833,
		"longitude": 33.7833
	},
	"slug": "lilongwe",
	"adminName": "Lilongwe",
	"photoUrl": "https://live.staticflickr.com/7161/6451945751_42a58c9f6e_m.jpg"
}