{
	"country": "Peru",
	"name": "Lima",
	"gps": {
		"latitude": -12.048,
		"longitude": -77.0501
	},
	"slug": "lima",
	"adminName": "Lima",
	"photoUrl": "https://live.staticflickr.com/1794/28131512197_084cee6237_m.jpg",
	"api": {
		"results": [
			{
				"attribution": [
					{
						"url": "https://www.gob.pe/senamhi",
						"name": "SENAMHI - Sistema de Gesti&oacute;n de Informaci&oacute;n de la Calidad del Aire en Peru",
						"logo": "Peru-SENAMHI.png"
					},
					{
						"url": "https://waqi.info/",
						"name": "World Air Quality Index Project"
					}
				],
				"averagingPeriod": {
					"unit": "day",
					"value": 1
				},
				"city": "Campo De Marte, Lima, Peru",
				"coordinates": {
					"latitude": -12.07054,
					"longitude": -77.04322
				},
				"country": "PE",
				"date": {
					"local": "2025-03-08T07:00:00.000+00:00",
					"utc": "2025-03-08T12:00:00.000Z"
				},
				"location": "aqicn|380",
				"isMobile": false,
				"parameter": "co",
				"sourceName": "aqicn",
				"entity": "other",
				"value": 0.6,
				"unit": "ppb"
			},
			{
				"attribution": [
					{
						"url": "https://www.gob.pe/senamhi",
						"name": "SENAMHI - Sistema de Gesti&oacute;n de Informaci&oacute;n de la Calidad del Aire en Peru",
						"logo": "Peru-SENAMHI.png"
					},
					{
						"url": "https://waqi.info/",
						"name": "World Air Quality Index Project"
					}
				],
				"averagingPeriod": {
					"unit": "day",
					"value": 1
				},
				"city": "Campo De Marte, Lima, Peru",
				"coordinates": {
					"latitude": -12.07054,
					"longitude": -77.04322
				},
				"country": "PE",
				"date": {
					"local": "2025-03-08T07:00:00.000+00:00",
					"utc": "2025-03-08T12:00:00.000Z"
				},
				"location": "aqicn|380",
				"isMobile": false,
				"parameter": "no2",
				"sourceName": "aqicn",
				"entity": "other",
				"value": 15.5,
				"unit": "ppb"
			},
			{
				"attribution": [
					{
						"url": "https://www.gob.pe/senamhi",
						"name": "SENAMHI - Sistema de Gesti&oacute;n de Informaci&oacute;n de la Calidad del Aire en Peru",
						"logo": "Peru-SENAMHI.png"
					},
					{
						"url": "https://waqi.info/",
						"name": "World Air Quality Index Project"
					}
				],
				"averagingPeriod": {
					"unit": "day",
					"value": 1
				},
				"city": "Campo De Marte, Lima, Peru",
				"coordinates": {
					"latitude": -12.07054,
					"longitude": -77.04322
				},
				"country": "PE",
				"date": {
					"local": "2025-03-08T07:00:00.000+00:00",
					"utc": "2025-03-08T12:00:00.000Z"
				},
				"location": "aqicn|380",
				"isMobile": false,
				"parameter": "o3",
				"sourceName": "aqicn",
				"entity": "other",
				"value": 22.5,
				"unit": "ppb"
			},
			{
				"attribution": [
					{
						"url": "https://www.gob.pe/senamhi",
						"name": "SENAMHI - Sistema de Gesti&oacute;n de Informaci&oacute;n de la Calidad del Aire en Peru",
						"logo": "Peru-SENAMHI.png"
					},
					{
						"url": "https://waqi.info/",
						"name": "World Air Quality Index Project"
					}
				],
				"averagingPeriod": {
					"unit": "day",
					"value": 1
				},
				"city": "Campo De Marte, Lima, Peru",
				"coordinates": {
					"latitude": -12.07054,
					"longitude": -77.04322
				},
				"country": "PE",
				"date": {
					"local": "2025-03-08T07:00:00.000+00:00",
					"utc": "2025-03-08T12:00:00.000Z"
				},
				"location": "aqicn|380",
				"isMobile": false,
				"parameter": "pm10",
				"sourceName": "aqicn",
				"entity": "other",
				"value": 61.1,
				"unit": "µg/m³"
			},
			{
				"attribution": [
					{
						"url": "https://www.gob.pe/senamhi",
						"name": "SENAMHI - Sistema de Gesti&oacute;n de Informaci&oacute;n de la Calidad del Aire en Peru",
						"logo": "Peru-SENAMHI.png"
					},
					{
						"url": "https://waqi.info/",
						"name": "World Air Quality Index Project"
					}
				],
				"averagingPeriod": {
					"unit": "day",
					"value": 1
				},
				"city": "Campo De Marte, Lima, Peru",
				"coordinates": {
					"latitude": -12.07054,
					"longitude": -77.04322
				},
				"country": "PE",
				"date": {
					"local": "2025-03-08T07:00:00.000+00:00",
					"utc": "2025-03-08T12:00:00.000Z"
				},
				"location": "aqicn|380",
				"isMobile": false,
				"parameter": "pm25",
				"sourceName": "aqicn",
				"entity": "other",
				"value": 24.5,
				"unit": "µg/m³"
			},
			{
				"attribution": [
					{
						"url": "https://www.gob.pe/senamhi",
						"name": "SENAMHI - Sistema de Gesti&oacute;n de Informaci&oacute;n de la Calidad del Aire en Peru",
						"logo": "Peru-SENAMHI.png"
					},
					{
						"url": "https://waqi.info/",
						"name": "World Air Quality Index Project"
					}
				],
				"averagingPeriod": {
					"unit": "day",
					"value": 1
				},
				"city": "Campo De Marte, Lima, Peru",
				"coordinates": {
					"latitude": -12.07054,
					"longitude": -77.04322
				},
				"country": "PE",
				"date": {
					"local": "2025-03-08T07:00:00.000+00:00",
					"utc": "2025-03-08T12:00:00.000Z"
				},
				"location": "aqicn|380",
				"isMobile": false,
				"parameter": "so2",
				"sourceName": "aqicn",
				"entity": "other",
				"value": 7.4,
				"unit": "ppb"
			}
		],
		"pm25": {
			"attribution": [
				{
					"url": "https://www.gob.pe/senamhi",
					"name": "SENAMHI - Sistema de Gesti&oacute;n de Informaci&oacute;n de la Calidad del Aire en Peru",
					"logo": "Peru-SENAMHI.png"
				},
				{
					"url": "https://waqi.info/",
					"name": "World Air Quality Index Project"
				}
			],
			"averagingPeriod": {
				"unit": "day",
				"value": 1
			},
			"city": "Campo De Marte, Lima, Peru",
			"coordinates": {
				"latitude": -12.07054,
				"longitude": -77.04322
			},
			"country": "PE",
			"date": {
				"local": "2025-03-08T07:00:00.000+00:00",
				"utc": "2025-03-08T12:00:00.000Z"
			},
			"location": "aqicn|380",
			"isMobile": false,
			"parameter": "pm25",
			"sourceName": "aqicn",
			"entity": "other",
			"value": 24.5,
			"unit": "µg/m³"
		},
		"shootismoke": {
			"dailyCigarettes": 1.1136363636363635,
			"distanceToStation": 3,
			"isAccurate": true
		}
	}
}