{
	"country": "China",
	"name": "Linfen",
	"gps": {
		"latitude": 36.0803,
		"longitude": 111.52
	},
	"slug": "linfen",
	"adminName": "Shanxi",
	"photoUrl": "https://live.staticflickr.com/1103/580289428_6aa378412a_m.jpg"
}