{
	"country": "Congo (Kinshasa)",
	"name": "Lubumbashi",
	"gps": {
		"latitude": -11.68,
		"longitude": 27.48
	},
	"slug": "lubumbashi",
	"adminName": "Haut-Katanga",
	"photoUrl": "https://live.staticflickr.com/2838/10350856706_b5c65d43ea_m.jpg"
}