{
	"country": "Macau",
	"name": "Macau",
	"gps": {
		"latitude": 22.203,
		"longitude": 113.545
	},
	"slug": "macau",
	"adminName": "",
	"photoUrl": "https://live.staticflickr.com/4854/46097842811_07668f49da_m.jpg"
}