{
	"country": "Equatorial Guinea",
	"name": "Malabo",
	"gps": {
		"latitude": 3.75,
		"longitude": 8.7833
	},
	"slug": "malabo",
	"adminName": "Bioko Norte",
	"photoUrl": "https://live.staticflickr.com/1853/43502130555_a343afda52_m.jpg"
}