{
	"country": "Maldives",
	"name": "Male",
	"gps": {
		"latitude": 4.1667,
		"longitude": 73.4999
	},
	"slug": "male",
	"adminName": "Maale",
	"photoUrl": "https://live.staticflickr.com/5097/5471483685_0285da1dc1_m.jpg"
}