{
	"country": "Brazil",
	"name": "Manaus",
	"gps": {
		"latitude": -3.1,
		"longitude": -60
	},
	"slug": "manaus",
	"adminName": "Amazonas",
	"photoUrl": "https://live.staticflickr.com/5342/8873774899_72036075b2_m.jpg"
}