{
	"country": "Nicaragua",
	"name": "Managua",
	"gps": {
		"latitude": 12.153,
		"longitude": -86.2685
	},
	"slug": "managua",
	"adminName": "Managua",
	"photoUrl": "https://live.staticflickr.com/46/144000893_cc5d5a02e8_m.jpg"
}