{
	"country": "United Kingdom",
	"name": "Manchester",
	"gps": {
		"latitude": 53.5004,
		"longitude": -2.248
	},
	"slug": "manchester",
	"adminName": "Manchester",
	"photoUrl": "https://live.staticflickr.com/471/32227123131_3477fa0599_m.jpg",
	"api": {
		"results": [
			{
				"attribution": [
					{
						"url": "http://uk-air.defra.gov.uk/",
						"name": "UK-AIR, air quality information resource - Defra, UK",
						"logo": "UK-Department-for-environment-food-and-rural-affairs.png"
					},
					{
						"url": "http://www.greatairmanchester.org.uk/",
						"name": "Great Air Manchester",
						"logo": "UK-GreatAir-Manchester.png"
					},
					{
						"url": "https://waqi.info/",
						"name": "World Air Quality Index Project"
					}
				],
				"averagingPeriod": {
					"unit": "day",
					"value": 1
				},
				"city": "Manchester Piccadilly, United Kingdom",
				"coordinates": {
					"latitude": 53.48152,
					"longitude": -2.237881
				},
				"country": "GB",
				"date": {
					"local": "2025-03-08T17:00:00.000+00:00",
					"utc": "2025-03-08T17:00:00.000Z"
				},
				"location": "aqicn|3196",
				"isMobile": false,
				"parameter": "no2",
				"sourceName": "aqicn",
				"entity": "other",
				"value": 24.7,
				"unit": "ppb"
			},
			{
				"attribution": [
					{
						"url": "http://uk-air.defra.gov.uk/",
						"name": "UK-AIR, air quality information resource - Defra, UK",
						"logo": "UK-Department-for-environment-food-and-rural-affairs.png"
					},
					{
						"url": "http://www.greatairmanchester.org.uk/",
						"name": "Great Air Manchester",
						"logo": "UK-GreatAir-Manchester.png"
					},
					{
						"url": "https://waqi.info/",
						"name": "World Air Quality Index Project"
					}
				],
				"averagingPeriod": {
					"unit": "day",
					"value": 1
				},
				"city": "Manchester Piccadilly, United Kingdom",
				"coordinates": {
					"latitude": 53.48152,
					"longitude": -2.237881
				},
				"country": "GB",
				"date": {
					"local": "2025-03-08T17:00:00.000+00:00",
					"utc": "2025-03-08T17:00:00.000Z"
				},
				"location": "aqicn|3196",
				"isMobile": false,
				"parameter": "o3",
				"sourceName": "aqicn",
				"entity": "other",
				"value": 22,
				"unit": "ppb"
			},
			{
				"attribution": [
					{
						"url": "http://uk-air.defra.gov.uk/",
						"name": "UK-AIR, air quality information resource - Defra, UK",
						"logo": "UK-Department-for-environment-food-and-rural-affairs.png"
					},
					{
						"url": "http://www.greatairmanchester.org.uk/",
						"name": "Great Air Manchester",
						"logo": "UK-GreatAir-Manchester.png"
					},
					{
						"url": "https://waqi.info/",
						"name": "World Air Quality Index Project"
					}
				],
				"averagingPeriod": {
					"unit": "day",
					"value": 1
				},
				"city": "Manchester Piccadilly, United Kingdom",
				"coordinates": {
					"latitude": 53.48152,
					"longitude": -2.237881
				},
				"country": "GB",
				"date": {
					"local": "2025-03-08T17:00:00.000+00:00",
					"utc": "2025-03-08T17:00:00.000Z"
				},
				"location": "aqicn|3196",
				"isMobile": false,
				"parameter": "pm10",
				"sourceName": "aqicn",
				"entity": "other",
				"value": 30.2,
				"unit": "µg/m³"
			},
			{
				"attribution": [
					{
						"url": "http://uk-air.defra.gov.uk/",
						"name": "UK-AIR, air quality information resource - Defra, UK",
						"logo": "UK-Department-for-environment-food-and-rural-affairs.png"
					},
					{
						"url": "http://www.greatairmanchester.org.uk/",
						"name": "Great Air Manchester",
						"logo": "UK-GreatAir-Manchester.png"
					},
					{
						"url": "https://waqi.info/",
						"name": "World Air Quality Index Project"
					}
				],
				"averagingPeriod": {
					"unit": "day",
					"value": 1
				},
				"city": "Manchester Piccadilly, United Kingdom",
				"coordinates": {
					"latitude": 53.48152,
					"longitude": -2.237881
				},
				"country": "GB",
				"date": {
					"local": "2025-03-08T17:00:00.000+00:00",
					"utc": "2025-03-08T17:00:00.000Z"
				},
				"location": "aqicn|3196",
				"isMobile": false,
				"parameter": "pm25",
				"sourceName": "aqicn",
				"entity": "other",
				"value": 20.2,
				"unit": "µg/m³"
			},
			{
				"attribution": [
					{
						"url": "http://uk-air.defra.gov.uk/",
						"name": "UK-AIR, air quality information resource - Defra, UK",
						"logo": "UK-Department-for-environment-food-and-rural-affairs.png"
					},
					{
						"url": "http://www.greatairmanchester.org.uk/",
						"name": "Great Air Manchester",
						"logo": "UK-GreatAir-Manchester.png"
					},
					{
						"url": "https://waqi.info/",
						"name": "World Air Quality Index Project"
					}
				],
				"averagingPeriod": {
					"unit": "day",
					"value": 1
				},
				"city": "Manchester Piccadilly, United Kingdom",
				"coordinates": {
					"latitude": 53.48152,
					"longitude": -2.237881
				},
				"country": "GB",
				"date": {
					"local": "2025-03-08T17:00:00.000+00:00",
					"utc": "2025-03-08T17:00:00.000Z"
				},
				"location": "aqicn|3196",
				"isMobile": false,
				"parameter": "so2",
				"sourceName": "aqicn",
				"entity": "other",
				"value": 0.8,
				"unit": "ppb"
			}
		],
		"pm25": {
			"attribution": [
				{
					"url": "http://uk-air.defra.gov.uk/",
					"name": "UK-AIR, air quality information resource - Defra, UK",
					"logo": "UK-Department-for-environment-food-and-rural-affairs.png"
				},
				{
					"url": "http://www.greatairmanchester.org.uk/",
					"name": "Great Air Manchester",
					"logo": "UK-GreatAir-Manchester.png"
				},
				{
					"url": "https://waqi.info/",
					"name": "World Air Quality Index Project"
				}
			],
			"averagingPeriod": {
				"unit": "day",
				"value": 1
			},
			"city": "Manchester Piccadilly, United Kingdom",
			"coordinates": {
				"latitude": 53.48152,
				"longitude": -2.237881
			},
			"country": "GB",
			"date": {
				"local": "2025-03-08T17:00:00.000+00:00",
				"utc": "2025-03-08T17:00:00.000Z"
			},
			"location": "aqicn|3196",
			"isMobile": false,
			"parameter": "pm25",
			"sourceName": "aqicn",
			"entity": "other",
			"value": 20.2,
			"unit": "µg/m³"
		},
		"shootismoke": {
			"dailyCigarettes": 0.9181818181818181,
			"distanceToStation": 2,
			"isAccurate": true
		}
	}
}