{
	"country": "India",
	"name": "Mangalore",
	"gps": {
		"latitude": 12.9,
		"longitude": 74.85
	},
	"slug": "mangalore",
	"adminName": "Karnātaka",
	"photoUrl": "https://live.staticflickr.com/4667/39589668851_fbf2838082_m.jpg",
	"api": {
		"results": [
			{
				"attribution": [
					{
						"url": "http://cpcb.nic.in/",
						"name": "CPCB - India Central Pollution Control Board",
						"logo": "India-CPCB.png"
					},
					{
						"url": "https://waqi.info/",
						"name": "World Air Quality Index Project"
					}
				],
				"averagingPeriod": {
					"unit": "day",
					"value": 1
				},
				"city": "Kadri, Mangalore, India",
				"coordinates": {
					"latitude": 12.88925,
					"longitude": 74.853
				},
				"country": "IN",
				"date": {
					"local": "2025-03-09T04:30:00.000+00:00",
					"utc": "2025-03-08T23:00:00.000Z"
				},
				"location": "aqicn|13718",
				"isMobile": false,
				"parameter": "co",
				"sourceName": "aqicn",
				"entity": "other",
				"value": 0.5,
				"unit": "ppb"
			},
			{
				"attribution": [
					{
						"url": "http://cpcb.nic.in/",
						"name": "CPCB - India Central Pollution Control Board",
						"logo": "India-CPCB.png"
					},
					{
						"url": "https://waqi.info/",
						"name": "World Air Quality Index Project"
					}
				],
				"averagingPeriod": {
					"unit": "day",
					"value": 1
				},
				"city": "Kadri, Mangalore, India",
				"coordinates": {
					"latitude": 12.88925,
					"longitude": 74.853
				},
				"country": "IN",
				"date": {
					"local": "2025-03-09T04:30:00.000+00:00",
					"utc": "2025-03-08T23:00:00.000Z"
				},
				"location": "aqicn|13718",
				"isMobile": false,
				"parameter": "no2",
				"sourceName": "aqicn",
				"entity": "other",
				"value": 4.1,
				"unit": "ppb"
			},
			{
				"attribution": [
					{
						"url": "http://cpcb.nic.in/",
						"name": "CPCB - India Central Pollution Control Board",
						"logo": "India-CPCB.png"
					},
					{
						"url": "https://waqi.info/",
						"name": "World Air Quality Index Project"
					}
				],
				"averagingPeriod": {
					"unit": "day",
					"value": 1
				},
				"city": "Kadri, Mangalore, India",
				"coordinates": {
					"latitude": 12.88925,
					"longitude": 74.853
				},
				"country": "IN",
				"date": {
					"local": "2025-03-09T04:30:00.000+00:00",
					"utc": "2025-03-08T23:00:00.000Z"
				},
				"location": "aqicn|13718",
				"isMobile": false,
				"parameter": "o3",
				"sourceName": "aqicn",
				"entity": "other",
				"value": 11.9,
				"unit": "ppb"
			},
			{
				"attribution": [
					{
						"url": "http://cpcb.nic.in/",
						"name": "CPCB - India Central Pollution Control Board",
						"logo": "India-CPCB.png"
					},
					{
						"url": "https://waqi.info/",
						"name": "World Air Quality Index Project"
					}
				],
				"averagingPeriod": {
					"unit": "day",
					"value": 1
				},
				"city": "Kadri, Mangalore, India",
				"coordinates": {
					"latitude": 12.88925,
					"longitude": 74.853
				},
				"country": "IN",
				"date": {
					"local": "2025-03-09T04:30:00.000+00:00",
					"utc": "2025-03-08T23:00:00.000Z"
				},
				"location": "aqicn|13718",
				"isMobile": false,
				"parameter": "pm10",
				"sourceName": "aqicn",
				"entity": "other",
				"value": 79.2,
				"unit": "µg/m³"
			},
			{
				"attribution": [
					{
						"url": "http://cpcb.nic.in/",
						"name": "CPCB - India Central Pollution Control Board",
						"logo": "India-CPCB.png"
					},
					{
						"url": "https://waqi.info/",
						"name": "World Air Quality Index Project"
					}
				],
				"averagingPeriod": {
					"unit": "day",
					"value": 1
				},
				"city": "Kadri, Mangalore, India",
				"coordinates": {
					"latitude": 12.88925,
					"longitude": 74.853
				},
				"country": "IN",
				"date": {
					"local": "2025-03-09T04:30:00.000+00:00",
					"utc": "2025-03-08T23:00:00.000Z"
				},
				"location": "aqicn|13718",
				"isMobile": false,
				"parameter": "pm25",
				"sourceName": "aqicn",
				"entity": "other",
				"value": 40.8,
				"unit": "µg/m³"
			},
			{
				"attribution": [
					{
						"url": "http://cpcb.nic.in/",
						"name": "CPCB - India Central Pollution Control Board",
						"logo": "India-CPCB.png"
					},
					{
						"url": "https://waqi.info/",
						"name": "World Air Quality Index Project"
					}
				],
				"averagingPeriod": {
					"unit": "day",
					"value": 1
				},
				"city": "Kadri, Mangalore, India",
				"coordinates": {
					"latitude": 12.88925,
					"longitude": 74.853
				},
				"country": "IN",
				"date": {
					"local": "2025-03-09T04:30:00.000+00:00",
					"utc": "2025-03-08T23:00:00.000Z"
				},
				"location": "aqicn|13718",
				"isMobile": false,
				"parameter": "so2",
				"sourceName": "aqicn",
				"entity": "other",
				"value": 2.5,
				"unit": "ppb"
			}
		],
		"pm25": {
			"attribution": [
				{
					"url": "http://cpcb.nic.in/",
					"name": "CPCB - India Central Pollution Control Board",
					"logo": "India-CPCB.png"
				},
				{
					"url": "https://waqi.info/",
					"name": "World Air Quality Index Project"
				}
			],
			"averagingPeriod": {
				"unit": "day",
				"value": 1
			},
			"city": "Kadri, Mangalore, India",
			"coordinates": {
				"latitude": 12.88925,
				"longitude": 74.853
			},
			"country": "IN",
			"date": {
				"local": "2025-03-09T04:30:00.000+00:00",
				"utc": "2025-03-08T23:00:00.000Z"
			},
			"location": "aqicn|13718",
			"isMobile": false,
			"parameter": "pm25",
			"sourceName": "aqicn",
			"entity": "other",
			"value": 40.8,
			"unit": "µg/m³"
		},
		"shootismoke": {
			"dailyCigarettes": 1.8545454545454545,
			"distanceToStation": 1,
			"isAccurate": true
		}
	}
}