{
	"country": "Philippines",
	"name": "Manila",
	"gps": {
		"latitude": 14.6042,
		"longitude": 120.9822
	},
	"slug": "manila",
	"adminName": "Manila",
	"photoUrl": "https://live.staticflickr.com/7624/27109581095_942b007d87_m.jpg"
}