{
	"country": "Venezuela",
	"name": "Maracay",
	"gps": {
		"latitude": 10.2469,
		"longitude": -67.5958
	},
	"slug": "maracay",
	"adminName": "Aragua",
	"photoUrl": "https://live.staticflickr.com/8244/8455011861_22293b6684_m.jpg"
}