{
	"country": "Swaziland",
	"name": "Mbabane",
	"gps": {
		"latitude": -26.3167,
		"longitude": 31.1333
	},
	"slug": "mbabane",
	"adminName": "Hhohho",
	"photoUrl": "https://live.staticflickr.com/8456/8063540389_e9512bc75c_m.jpg"
}