{
	"country": "Saudi Arabia",
	"name": "Medina",
	"gps": {
		"latitude": 24.5,
		"longitude": 39.58
	},
	"slug": "medina",
	"adminName": "Al Madīnah al Munawwarah",
	"photoUrl": "https://live.staticflickr.com/5530/12418452653_109ca1404b_m.jpg"
}