{
	"country": "Morocco",
	"name": "Meknès",
	"gps": {
		"latitude": 33.9004,
		"longitude": -5.56
	},
	"slug": "meknes",
	"adminName": "Fès-Meknès",
	"photoUrl": "https://live.staticflickr.com/7736/27286089085_cb8dd0a900_m.jpg"
}