{
	"country": "China",
	"name": "Mianyang",
	"gps": {
		"latitude": 31.47,
		"longitude": 104.77
	},
	"slug": "mianyang",
	"adminName": "Sichuan",
	"photoUrl": "https://live.staticflickr.com/5811/22690472763_9969ded500_m.jpg",
	"api": {
		"results": [
			{
				"attribution": [
					{
						"url": "https://sthjt.sc.gov.cn/",
						"name": "Sichuan Province Environmental Protection Agency (四川省环保重点城市环境空气质量实时监测结果)"
					},
					{
						"url": "https://waqi.info/",
						"name": "World Air Quality Index Project"
					}
				],
				"averagingPeriod": {
					"unit": "day",
					"value": 1
				},
				"city": "Fuleshan, Mianyang (绵阳富乐山)",
				"coordinates": {
					"latitude": 31.4747,
					"longitude": 104.7778
				},
				"country": "CN",
				"date": {
					"local": "2025-03-09T09:00:00.000+00:00",
					"utc": "2025-03-09T01:00:00.000Z"
				},
				"location": "aqicn|3598",
				"isMobile": false,
				"parameter": "co",
				"sourceName": "aqicn",
				"entity": "other",
				"value": 0.5,
				"unit": "ppb"
			},
			{
				"attribution": [
					{
						"url": "https://sthjt.sc.gov.cn/",
						"name": "Sichuan Province Environmental Protection Agency (四川省环保重点城市环境空气质量实时监测结果)"
					},
					{
						"url": "https://waqi.info/",
						"name": "World Air Quality Index Project"
					}
				],
				"averagingPeriod": {
					"unit": "day",
					"value": 1
				},
				"city": "Fuleshan, Mianyang (绵阳富乐山)",
				"coordinates": {
					"latitude": 31.4747,
					"longitude": 104.7778
				},
				"country": "CN",
				"date": {
					"local": "2025-03-09T09:00:00.000+00:00",
					"utc": "2025-03-09T01:00:00.000Z"
				},
				"location": "aqicn|3598",
				"isMobile": false,
				"parameter": "no2",
				"sourceName": "aqicn",
				"entity": "other",
				"value": 11.7,
				"unit": "ppb"
			},
			{
				"attribution": [
					{
						"url": "https://sthjt.sc.gov.cn/",
						"name": "Sichuan Province Environmental Protection Agency (四川省环保重点城市环境空气质量实时监测结果)"
					},
					{
						"url": "https://waqi.info/",
						"name": "World Air Quality Index Project"
					}
				],
				"averagingPeriod": {
					"unit": "day",
					"value": 1
				},
				"city": "Fuleshan, Mianyang (绵阳富乐山)",
				"coordinates": {
					"latitude": 31.4747,
					"longitude": 104.7778
				},
				"country": "CN",
				"date": {
					"local": "2025-03-09T09:00:00.000+00:00",
					"utc": "2025-03-09T01:00:00.000Z"
				},
				"location": "aqicn|3598",
				"isMobile": false,
				"parameter": "pm10",
				"sourceName": "aqicn",
				"entity": "other",
				"value": 42.1,
				"unit": "µg/m³"
			},
			{
				"attribution": [
					{
						"url": "https://sthjt.sc.gov.cn/",
						"name": "Sichuan Province Environmental Protection Agency (四川省环保重点城市环境空气质量实时监测结果)"
					},
					{
						"url": "https://waqi.info/",
						"name": "World Air Quality Index Project"
					}
				],
				"averagingPeriod": {
					"unit": "day",
					"value": 1
				},
				"city": "Fuleshan, Mianyang (绵阳富乐山)",
				"coordinates": {
					"latitude": 31.4747,
					"longitude": 104.7778
				},
				"country": "CN",
				"date": {
					"local": "2025-03-09T09:00:00.000+00:00",
					"utc": "2025-03-09T01:00:00.000Z"
				},
				"location": "aqicn|3598",
				"isMobile": false,
				"parameter": "pm25",
				"sourceName": "aqicn",
				"entity": "other",
				"value": 34,
				"unit": "µg/m³"
			},
			{
				"attribution": [
					{
						"url": "https://sthjt.sc.gov.cn/",
						"name": "Sichuan Province Environmental Protection Agency (四川省环保重点城市环境空气质量实时监测结果)"
					},
					{
						"url": "https://waqi.info/",
						"name": "World Air Quality Index Project"
					}
				],
				"averagingPeriod": {
					"unit": "day",
					"value": 1
				},
				"city": "Fuleshan, Mianyang (绵阳富乐山)",
				"coordinates": {
					"latitude": 31.4747,
					"longitude": 104.7778
				},
				"country": "CN",
				"date": {
					"local": "2025-03-09T09:00:00.000+00:00",
					"utc": "2025-03-09T01:00:00.000Z"
				},
				"location": "aqicn|3598",
				"isMobile": false,
				"parameter": "so2",
				"sourceName": "aqicn",
				"entity": "other",
				"value": 0.4,
				"unit": "ppb"
			}
		],
		"pm25": {
			"attribution": [
				{
					"url": "https://sthjt.sc.gov.cn/",
					"name": "Sichuan Province Environmental Protection Agency (四川省环保重点城市环境空气质量实时监测结果)"
				},
				{
					"url": "https://waqi.info/",
					"name": "World Air Quality Index Project"
				}
			],
			"averagingPeriod": {
				"unit": "day",
				"value": 1
			},
			"city": "Fuleshan, Mianyang (绵阳富乐山)",
			"coordinates": {
				"latitude": 31.4747,
				"longitude": 104.7778
			},
			"country": "CN",
			"date": {
				"local": "2025-03-09T09:00:00.000+00:00",
				"utc": "2025-03-09T01:00:00.000Z"
			},
			"location": "aqicn|3598",
			"isMobile": false,
			"parameter": "pm25",
			"sourceName": "aqicn",
			"entity": "other",
			"value": 34,
			"unit": "µg/m³"
		},
		"shootismoke": {
			"dailyCigarettes": 1.5454545454545454,
			"distanceToStation": 1,
			"isAccurate": true
		}
	}
}