{
	"country": "Italy",
	"name": "Milan",
	"gps": {
		"latitude": 45.47,
		"longitude": 9.205
	},
	"slug": "milan",
	"adminName": "Lombardy",
	"photoUrl": "https://live.staticflickr.com/1572/26709768306_bd3eff6bd7_m.jpg"
}