{
	"country": "United States",
	"name": "Milwaukee",
	"gps": {
		"latitude": 43.0642,
		"longitude": -87.9673
	},
	"slug": "milwaukee",
	"adminName": "Wisconsin",
	"photoUrl": "https://live.staticflickr.com/5335/7425779250_8993d82740_m.jpg"
}