{
	"country": "Somalia",
	"name": "Mogadishu",
	"gps": {
		"latitude": 2.0667,
		"longitude": 45.3667
	},
	"slug": "mogadishu",
	"adminName": "Banaadir",
	"photoUrl": "https://live.staticflickr.com/7881/46959619012_4581752f22_m.jpg"
}