{
	"country": "Liberia",
	"name": "Monrovia",
	"gps": {
		"latitude": 6.3106,
		"longitude": -10.8048
	},
	"slug": "monrovia",
	"adminName": "Montserrado",
	"photoUrl": "https://live.staticflickr.com/2378/2551946112_0aaa81436c_m.jpg"
}