{
	"country": "Tanzania",
	"name": "Moshi",
	"gps": {
		"latitude": -3.3396,
		"longitude": 37.34
	},
	"slug": "moshi",
	"adminName": "Kilimanjaro",
	"photoUrl": "https://live.staticflickr.com/2808/9884612933_8afbdfb131_m.jpg"
}