{
	"country": "India",
	"name": "Mumbai",
	"gps": {
		"latitude": 19.017,
		"longitude": 72.857
	},
	"slug": "mumbai",
	"adminName": "Mahārāshtra",
	"photoUrl": "https://live.staticflickr.com/3715/12994632105_ee5a8d9d21_m.jpg",
	"api": {
		"results": [
			{
				"attribution": [
					{
						"url": "http://cpcb.nic.in/",
						"name": "CPCB - India Central Pollution Control Board",
						"logo": "India-CPCB.png"
					},
					{
						"url": "https://waqi.info/",
						"name": "World Air Quality Index Project"
					}
				],
				"averagingPeriod": {
					"unit": "day",
					"value": 1
				},
				"city": "Sion, Mumbai, India",
				"coordinates": {
					"latitude": 19.047,
					"longitude": 72.8746
				},
				"country": "IN",
				"date": {
					"local": "2025-03-09T04:30:00.000+00:00",
					"utc": "2025-03-08T23:00:00.000Z"
				},
				"location": "aqicn|12464",
				"isMobile": false,
				"parameter": "co",
				"sourceName": "aqicn",
				"entity": "other",
				"value": 0.1,
				"unit": "ppb"
			},
			{
				"attribution": [
					{
						"url": "http://cpcb.nic.in/",
						"name": "CPCB - India Central Pollution Control Board",
						"logo": "India-CPCB.png"
					},
					{
						"url": "https://waqi.info/",
						"name": "World Air Quality Index Project"
					}
				],
				"averagingPeriod": {
					"unit": "day",
					"value": 1
				},
				"city": "Sion, Mumbai, India",
				"coordinates": {
					"latitude": 19.047,
					"longitude": 72.8746
				},
				"country": "IN",
				"date": {
					"local": "2025-03-09T04:30:00.000+00:00",
					"utc": "2025-03-08T23:00:00.000Z"
				},
				"location": "aqicn|12464",
				"isMobile": false,
				"parameter": "no2",
				"sourceName": "aqicn",
				"entity": "other",
				"value": 3.1,
				"unit": "ppb"
			},
			{
				"attribution": [
					{
						"url": "http://cpcb.nic.in/",
						"name": "CPCB - India Central Pollution Control Board",
						"logo": "India-CPCB.png"
					},
					{
						"url": "https://waqi.info/",
						"name": "World Air Quality Index Project"
					}
				],
				"averagingPeriod": {
					"unit": "day",
					"value": 1
				},
				"city": "Sion, Mumbai, India",
				"coordinates": {
					"latitude": 19.047,
					"longitude": 72.8746
				},
				"country": "IN",
				"date": {
					"local": "2025-03-09T04:30:00.000+00:00",
					"utc": "2025-03-08T23:00:00.000Z"
				},
				"location": "aqicn|12464",
				"isMobile": false,
				"parameter": "o3",
				"sourceName": "aqicn",
				"entity": "other",
				"value": 2.1,
				"unit": "ppb"
			},
			{
				"attribution": [
					{
						"url": "http://cpcb.nic.in/",
						"name": "CPCB - India Central Pollution Control Board",
						"logo": "India-CPCB.png"
					},
					{
						"url": "https://waqi.info/",
						"name": "World Air Quality Index Project"
					}
				],
				"averagingPeriod": {
					"unit": "day",
					"value": 1
				},
				"city": "Sion, Mumbai, India",
				"coordinates": {
					"latitude": 19.047,
					"longitude": 72.8746
				},
				"country": "IN",
				"date": {
					"local": "2025-03-09T04:30:00.000+00:00",
					"utc": "2025-03-08T23:00:00.000Z"
				},
				"location": "aqicn|12464",
				"isMobile": false,
				"parameter": "pm10",
				"sourceName": "aqicn",
				"entity": "other",
				"value": 75.2,
				"unit": "µg/m³"
			},
			{
				"attribution": [
					{
						"url": "http://cpcb.nic.in/",
						"name": "CPCB - India Central Pollution Control Board",
						"logo": "India-CPCB.png"
					},
					{
						"url": "https://waqi.info/",
						"name": "World Air Quality Index Project"
					}
				],
				"averagingPeriod": {
					"unit": "day",
					"value": 1
				},
				"city": "Sion, Mumbai, India",
				"coordinates": {
					"latitude": 19.047,
					"longitude": 72.8746
				},
				"country": "IN",
				"date": {
					"local": "2025-03-09T04:30:00.000+00:00",
					"utc": "2025-03-08T23:00:00.000Z"
				},
				"location": "aqicn|12464",
				"isMobile": false,
				"parameter": "pm25",
				"sourceName": "aqicn",
				"entity": "other",
				"value": 50.5,
				"unit": "µg/m³"
			},
			{
				"attribution": [
					{
						"url": "http://cpcb.nic.in/",
						"name": "CPCB - India Central Pollution Control Board",
						"logo": "India-CPCB.png"
					},
					{
						"url": "https://waqi.info/",
						"name": "World Air Quality Index Project"
					}
				],
				"averagingPeriod": {
					"unit": "day",
					"value": 1
				},
				"city": "Sion, Mumbai, India",
				"coordinates": {
					"latitude": 19.047,
					"longitude": 72.8746
				},
				"country": "IN",
				"date": {
					"local": "2025-03-09T04:30:00.000+00:00",
					"utc": "2025-03-08T23:00:00.000Z"
				},
				"location": "aqicn|12464",
				"isMobile": false,
				"parameter": "so2",
				"sourceName": "aqicn",
				"entity": "other",
				"value": 1.7,
				"unit": "ppb"
			}
		],
		"pm25": {
			"attribution": [
				{
					"url": "http://cpcb.nic.in/",
					"name": "CPCB - India Central Pollution Control Board",
					"logo": "India-CPCB.png"
				},
				{
					"url": "https://waqi.info/",
					"name": "World Air Quality Index Project"
				}
			],
			"averagingPeriod": {
				"unit": "day",
				"value": 1
			},
			"city": "Sion, Mumbai, India",
			"coordinates": {
				"latitude": 19.047,
				"longitude": 72.8746
			},
			"country": "IN",
			"date": {
				"local": "2025-03-09T04:30:00.000+00:00",
				"utc": "2025-03-08T23:00:00.000Z"
			},
			"location": "aqicn|12464",
			"isMobile": false,
			"parameter": "pm25",
			"sourceName": "aqicn",
			"entity": "other",
			"value": 50.5,
			"unit": "µg/m³"
		},
		"shootismoke": {
			"dailyCigarettes": 2.2954545454545454,
			"distanceToStation": 4,
			"isAccurate": true
		}
	}
}