{
	"country": "Philippines",
	"name": "Naga City",
	"gps": {
		"latitude": 13.6192,
		"longitude": 123.1814
	},
	"slug": "naga-city",
	"adminName": "Naga",
	"photoUrl": "https://live.staticflickr.com/65535/49255360898_ef3a01c3ee_m.jpg"
}