{
	"country": "Japan",
	"name": "Nagoya",
	"gps": {
		"latitude": 35.155,
		"longitude": 136.915
	},
	"slug": "nagoya",
	"adminName": "Aichi",
	"photoUrl": "https://live.staticflickr.com/1481/23869489774_51ed3fc83d_m.jpg"
}