{
	"adminName": "",
	"country": "Korea, North",
	"name": "Namp’o",
	"gps": {
		"latitude": 38.7669,
		"longitude": 125.4524
	},
	"photoUrl": "https://live.staticflickr.com/8217/8266851004_f01469d4af_m.jpg",
	"slug": "namp-o"
}