{
	"country": "China",
	"name": "Nanning",
	"gps": {
		"latitude": 22.82,
		"longitude": 108.32
	},
	"slug": "nanning",
	"adminName": "Guangxi",
	"photoUrl": "https://live.staticflickr.com/118/304735754_07d85cdf26_m.jpg",
	"api": {
		"results": [
			{
				"attribution": [
					{
						"url": "http://sthjt.gxzf.gov.cn/",
						"name": "Guangxi Zhuang Autonomous Region Environmental Protection Agency (广西壮族自治区环境保护厅)"
					},
					{
						"url": "https://waqi.info/",
						"name": "World Air Quality Index Project"
					}
				],
				"averagingPeriod": {
					"unit": "day",
					"value": 1
				},
				"city": "City Monitoring Station, Nanning (南宁市监测站)",
				"coordinates": {
					"latitude": 22.8225,
					"longitude": 108.321
				},
				"country": "CN",
				"date": {
					"local": "2025-03-09T09:00:00.000+00:00",
					"utc": "2025-03-09T01:00:00.000Z"
				},
				"location": "aqicn|1334",
				"isMobile": false,
				"parameter": "co",
				"sourceName": "aqicn",
				"entity": "other",
				"value": 0.7,
				"unit": "ppb"
			},
			{
				"attribution": [
					{
						"url": "http://sthjt.gxzf.gov.cn/",
						"name": "Guangxi Zhuang Autonomous Region Environmental Protection Agency (广西壮族自治区环境保护厅)"
					},
					{
						"url": "https://waqi.info/",
						"name": "World Air Quality Index Project"
					}
				],
				"averagingPeriod": {
					"unit": "day",
					"value": 1
				},
				"city": "City Monitoring Station, Nanning (南宁市监测站)",
				"coordinates": {
					"latitude": 22.8225,
					"longitude": 108.321
				},
				"country": "CN",
				"date": {
					"local": "2025-03-09T09:00:00.000+00:00",
					"utc": "2025-03-09T01:00:00.000Z"
				},
				"location": "aqicn|1334",
				"isMobile": false,
				"parameter": "no2",
				"sourceName": "aqicn",
				"entity": "other",
				"value": 8.3,
				"unit": "ppb"
			},
			{
				"attribution": [
					{
						"url": "http://sthjt.gxzf.gov.cn/",
						"name": "Guangxi Zhuang Autonomous Region Environmental Protection Agency (广西壮族自治区环境保护厅)"
					},
					{
						"url": "https://waqi.info/",
						"name": "World Air Quality Index Project"
					}
				],
				"averagingPeriod": {
					"unit": "day",
					"value": 1
				},
				"city": "City Monitoring Station, Nanning (南宁市监测站)",
				"coordinates": {
					"latitude": 22.8225,
					"longitude": 108.321
				},
				"country": "CN",
				"date": {
					"local": "2025-03-09T09:00:00.000+00:00",
					"utc": "2025-03-09T01:00:00.000Z"
				},
				"location": "aqicn|1334",
				"isMobile": false,
				"parameter": "pm10",
				"sourceName": "aqicn",
				"entity": "other",
				"value": 32.4,
				"unit": "µg/m³"
			},
			{
				"attribution": [
					{
						"url": "http://sthjt.gxzf.gov.cn/",
						"name": "Guangxi Zhuang Autonomous Region Environmental Protection Agency (广西壮族自治区环境保护厅)"
					},
					{
						"url": "https://waqi.info/",
						"name": "World Air Quality Index Project"
					}
				],
				"averagingPeriod": {
					"unit": "day",
					"value": 1
				},
				"city": "City Monitoring Station, Nanning (南宁市监测站)",
				"coordinates": {
					"latitude": 22.8225,
					"longitude": 108.321
				},
				"country": "CN",
				"date": {
					"local": "2025-03-09T09:00:00.000+00:00",
					"utc": "2025-03-09T01:00:00.000Z"
				},
				"location": "aqicn|1334",
				"isMobile": false,
				"parameter": "pm25",
				"sourceName": "aqicn",
				"entity": "other",
				"value": 33,
				"unit": "µg/m³"
			},
			{
				"attribution": [
					{
						"url": "http://sthjt.gxzf.gov.cn/",
						"name": "Guangxi Zhuang Autonomous Region Environmental Protection Agency (广西壮族自治区环境保护厅)"
					},
					{
						"url": "https://waqi.info/",
						"name": "World Air Quality Index Project"
					}
				],
				"averagingPeriod": {
					"unit": "day",
					"value": 1
				},
				"city": "City Monitoring Station, Nanning (南宁市监测站)",
				"coordinates": {
					"latitude": 22.8225,
					"longitude": 108.321
				},
				"country": "CN",
				"date": {
					"local": "2025-03-09T09:00:00.000+00:00",
					"utc": "2025-03-09T01:00:00.000Z"
				},
				"location": "aqicn|1334",
				"isMobile": false,
				"parameter": "so2",
				"sourceName": "aqicn",
				"entity": "other",
				"value": 1.8,
				"unit": "ppb"
			}
		],
		"pm25": {
			"attribution": [
				{
					"url": "http://sthjt.gxzf.gov.cn/",
					"name": "Guangxi Zhuang Autonomous Region Environmental Protection Agency (广西壮族自治区环境保护厅)"
				},
				{
					"url": "https://waqi.info/",
					"name": "World Air Quality Index Project"
				}
			],
			"averagingPeriod": {
				"unit": "day",
				"value": 1
			},
			"city": "City Monitoring Station, Nanning (南宁市监测站)",
			"coordinates": {
				"latitude": 22.8225,
				"longitude": 108.321
			},
			"country": "CN",
			"date": {
				"local": "2025-03-09T09:00:00.000+00:00",
				"utc": "2025-03-09T01:00:00.000Z"
			},
			"location": "aqicn|1334",
			"isMobile": false,
			"parameter": "pm25",
			"sourceName": "aqicn",
			"entity": "other",
			"value": 33,
			"unit": "µg/m³"
		},
		"shootismoke": {
			"dailyCigarettes": 1.5,
			"distanceToStation": 0,
			"isAccurate": true
		}
	}
}