{
	"country": "China",
	"name": "Nantong",
	"gps": {
		"latitude": 32.0304,
		"longitude": 120.825
	},
	"slug": "nantong",
	"adminName": "Jiangsu",
	"photoUrl": "https://live.staticflickr.com/65535/48982250746_4e6a24691d_m.jpg",
	"api": {
		"results": [
			{
				"attribution": [
					{
						"url": "http://hbt.jiangsu.gov.cn/",
						"name": "Jiangsu Environmental Protection public network (江苏省城市空气PM2.5等试运行监测数据平台)"
					},
					{
						"url": "https://waqi.info/",
						"name": "World Air Quality Index Project"
					}
				],
				"averagingPeriod": {
					"unit": "day",
					"value": 1
				},
				"city": "Zilang school, Nantong (南通紫琅学院)",
				"coordinates": {
					"latitude": 32.0425,
					"longitude": 120.810833
				},
				"country": "CN",
				"date": {
					"local": "2025-03-09T09:00:00.000+00:00",
					"utc": "2025-03-09T01:00:00.000Z"
				},
				"location": "aqicn|846",
				"isMobile": false,
				"parameter": "co",
				"sourceName": "aqicn",
				"entity": "other",
				"value": 0.5,
				"unit": "ppb"
			},
			{
				"attribution": [
					{
						"url": "http://hbt.jiangsu.gov.cn/",
						"name": "Jiangsu Environmental Protection public network (江苏省城市空气PM2.5等试运行监测数据平台)"
					},
					{
						"url": "https://waqi.info/",
						"name": "World Air Quality Index Project"
					}
				],
				"averagingPeriod": {
					"unit": "day",
					"value": 1
				},
				"city": "Zilang school, Nantong (南通紫琅学院)",
				"coordinates": {
					"latitude": 32.0425,
					"longitude": 120.810833
				},
				"country": "CN",
				"date": {
					"local": "2025-03-09T09:00:00.000+00:00",
					"utc": "2025-03-09T01:00:00.000Z"
				},
				"location": "aqicn|846",
				"isMobile": false,
				"parameter": "no2",
				"sourceName": "aqicn",
				"entity": "other",
				"value": 7.3,
				"unit": "ppb"
			},
			{
				"attribution": [
					{
						"url": "http://hbt.jiangsu.gov.cn/",
						"name": "Jiangsu Environmental Protection public network (江苏省城市空气PM2.5等试运行监测数据平台)"
					},
					{
						"url": "https://waqi.info/",
						"name": "World Air Quality Index Project"
					}
				],
				"averagingPeriod": {
					"unit": "day",
					"value": 1
				},
				"city": "Zilang school, Nantong (南通紫琅学院)",
				"coordinates": {
					"latitude": 32.0425,
					"longitude": 120.810833
				},
				"country": "CN",
				"date": {
					"local": "2025-03-09T09:00:00.000+00:00",
					"utc": "2025-03-09T01:00:00.000Z"
				},
				"location": "aqicn|846",
				"isMobile": false,
				"parameter": "o3",
				"sourceName": "aqicn",
				"entity": "other",
				"value": 46.5,
				"unit": "ppb"
			},
			{
				"attribution": [
					{
						"url": "http://hbt.jiangsu.gov.cn/",
						"name": "Jiangsu Environmental Protection public network (江苏省城市空气PM2.5等试运行监测数据平台)"
					},
					{
						"url": "https://waqi.info/",
						"name": "World Air Quality Index Project"
					}
				],
				"averagingPeriod": {
					"unit": "day",
					"value": 1
				},
				"city": "Zilang school, Nantong (南通紫琅学院)",
				"coordinates": {
					"latitude": 32.0425,
					"longitude": 120.810833
				},
				"country": "CN",
				"date": {
					"local": "2025-03-09T09:00:00.000+00:00",
					"utc": "2025-03-09T01:00:00.000Z"
				},
				"location": "aqicn|846",
				"isMobile": false,
				"parameter": "pm10",
				"sourceName": "aqicn",
				"entity": "other",
				"value": 48.6,
				"unit": "µg/m³"
			},
			{
				"attribution": [
					{
						"url": "http://hbt.jiangsu.gov.cn/",
						"name": "Jiangsu Environmental Protection public network (江苏省城市空气PM2.5等试运行监测数据平台)"
					},
					{
						"url": "https://waqi.info/",
						"name": "World Air Quality Index Project"
					}
				],
				"averagingPeriod": {
					"unit": "day",
					"value": 1
				},
				"city": "Zilang school, Nantong (南通紫琅学院)",
				"coordinates": {
					"latitude": 32.0425,
					"longitude": 120.810833
				},
				"country": "CN",
				"date": {
					"local": "2025-03-09T09:00:00.000+00:00",
					"utc": "2025-03-09T01:00:00.000Z"
				},
				"location": "aqicn|846",
				"isMobile": false,
				"parameter": "pm25",
				"sourceName": "aqicn",
				"entity": "other",
				"value": 34.9,
				"unit": "µg/m³"
			},
			{
				"attribution": [
					{
						"url": "http://hbt.jiangsu.gov.cn/",
						"name": "Jiangsu Environmental Protection public network (江苏省城市空气PM2.5等试运行监测数据平台)"
					},
					{
						"url": "https://waqi.info/",
						"name": "World Air Quality Index Project"
					}
				],
				"averagingPeriod": {
					"unit": "day",
					"value": 1
				},
				"city": "Zilang school, Nantong (南通紫琅学院)",
				"coordinates": {
					"latitude": 32.0425,
					"longitude": 120.810833
				},
				"country": "CN",
				"date": {
					"local": "2025-03-09T09:00:00.000+00:00",
					"utc": "2025-03-09T01:00:00.000Z"
				},
				"location": "aqicn|846",
				"isMobile": false,
				"parameter": "so2",
				"sourceName": "aqicn",
				"entity": "other",
				"value": 1.1,
				"unit": "ppb"
			}
		],
		"pm25": {
			"attribution": [
				{
					"url": "http://hbt.jiangsu.gov.cn/",
					"name": "Jiangsu Environmental Protection public network (江苏省城市空气PM2.5等试运行监测数据平台)"
				},
				{
					"url": "https://waqi.info/",
					"name": "World Air Quality Index Project"
				}
			],
			"averagingPeriod": {
				"unit": "day",
				"value": 1
			},
			"city": "Zilang school, Nantong (南通紫琅学院)",
			"coordinates": {
				"latitude": 32.0425,
				"longitude": 120.810833
			},
			"country": "CN",
			"date": {
				"local": "2025-03-09T09:00:00.000+00:00",
				"utc": "2025-03-09T01:00:00.000Z"
			},
			"location": "aqicn|846",
			"isMobile": false,
			"parameter": "pm25",
			"sourceName": "aqicn",
			"entity": "other",
			"value": 34.9,
			"unit": "µg/m³"
		},
		"shootismoke": {
			"dailyCigarettes": 1.5863636363636362,
			"distanceToStation": 2,
			"isAccurate": true
		}
	}
}