{
	"country": "India",
	"name": "New Delhi",
	"gps": {
		"latitude": 28.6,
		"longitude": 77.2
	},
	"slug": "new-delhi",
	"adminName": "Delhi",
	"photoUrl": "https://live.staticflickr.com/5099/5533296744_09055fe23a_m.jpg",
	"api": {
		"results": [
			{
				"attribution": [
					{
						"url": "http://dpccairdata.com/",
						"name": "Delhi Pollution Control Commitee (Government of NCT of Delhi)",
						"logo": "India-DPCCC.png"
					},
					{
						"url": "http://cpcb.nic.in/",
						"name": "CPCB - India Central Pollution Control Board",
						"logo": "India-CPCB.png"
					},
					{
						"url": "https://waqi.info/",
						"name": "World Air Quality Index Project"
					}
				],
				"averagingPeriod": {
					"unit": "day",
					"value": 1
				},
				"city": "Mandir Marg, Delhi, Delhi, India",
				"coordinates": {
					"latitude": 28.6341,
					"longitude": 77.2005
				},
				"country": "IN",
				"date": {
					"local": "2025-03-09T04:30:00.000+00:00",
					"utc": "2025-03-08T23:00:00.000Z"
				},
				"location": "aqicn|2554",
				"isMobile": false,
				"parameter": "co",
				"sourceName": "aqicn",
				"entity": "other",
				"value": 1.5,
				"unit": "ppb"
			},
			{
				"attribution": [
					{
						"url": "http://dpccairdata.com/",
						"name": "Delhi Pollution Control Commitee (Government of NCT of Delhi)",
						"logo": "India-DPCCC.png"
					},
					{
						"url": "http://cpcb.nic.in/",
						"name": "CPCB - India Central Pollution Control Board",
						"logo": "India-CPCB.png"
					},
					{
						"url": "https://waqi.info/",
						"name": "World Air Quality Index Project"
					}
				],
				"averagingPeriod": {
					"unit": "day",
					"value": 1
				},
				"city": "Mandir Marg, Delhi, Delhi, India",
				"coordinates": {
					"latitude": 28.6341,
					"longitude": 77.2005
				},
				"country": "IN",
				"date": {
					"local": "2025-03-09T04:30:00.000+00:00",
					"utc": "2025-03-08T23:00:00.000Z"
				},
				"location": "aqicn|2554",
				"isMobile": false,
				"parameter": "no2",
				"sourceName": "aqicn",
				"entity": "other",
				"value": 36.1,
				"unit": "ppb"
			},
			{
				"attribution": [
					{
						"url": "http://dpccairdata.com/",
						"name": "Delhi Pollution Control Commitee (Government of NCT of Delhi)",
						"logo": "India-DPCCC.png"
					},
					{
						"url": "http://cpcb.nic.in/",
						"name": "CPCB - India Central Pollution Control Board",
						"logo": "India-CPCB.png"
					},
					{
						"url": "https://waqi.info/",
						"name": "World Air Quality Index Project"
					}
				],
				"averagingPeriod": {
					"unit": "day",
					"value": 1
				},
				"city": "Mandir Marg, Delhi, Delhi, India",
				"coordinates": {
					"latitude": 28.6341,
					"longitude": 77.2005
				},
				"country": "IN",
				"date": {
					"local": "2025-03-09T04:30:00.000+00:00",
					"utc": "2025-03-08T23:00:00.000Z"
				},
				"location": "aqicn|2554",
				"isMobile": false,
				"parameter": "o3",
				"sourceName": "aqicn",
				"entity": "other",
				"value": 3.7,
				"unit": "ppb"
			},
			{
				"attribution": [
					{
						"url": "http://dpccairdata.com/",
						"name": "Delhi Pollution Control Commitee (Government of NCT of Delhi)",
						"logo": "India-DPCCC.png"
					},
					{
						"url": "http://cpcb.nic.in/",
						"name": "CPCB - India Central Pollution Control Board",
						"logo": "India-CPCB.png"
					},
					{
						"url": "https://waqi.info/",
						"name": "World Air Quality Index Project"
					}
				],
				"averagingPeriod": {
					"unit": "day",
					"value": 1
				},
				"city": "Mandir Marg, Delhi, Delhi, India",
				"coordinates": {
					"latitude": 28.6341,
					"longitude": 77.2005
				},
				"country": "IN",
				"date": {
					"local": "2025-03-09T04:30:00.000+00:00",
					"utc": "2025-03-08T23:00:00.000Z"
				},
				"location": "aqicn|2554",
				"isMobile": false,
				"parameter": "pm10",
				"sourceName": "aqicn",
				"entity": "other",
				"value": 105.5,
				"unit": "µg/m³"
			},
			{
				"attribution": [
					{
						"url": "http://dpccairdata.com/",
						"name": "Delhi Pollution Control Commitee (Government of NCT of Delhi)",
						"logo": "India-DPCCC.png"
					},
					{
						"url": "http://cpcb.nic.in/",
						"name": "CPCB - India Central Pollution Control Board",
						"logo": "India-CPCB.png"
					},
					{
						"url": "https://waqi.info/",
						"name": "World Air Quality Index Project"
					}
				],
				"averagingPeriod": {
					"unit": "day",
					"value": 1
				},
				"city": "Mandir Marg, Delhi, Delhi, India",
				"coordinates": {
					"latitude": 28.6341,
					"longitude": 77.2005
				},
				"country": "IN",
				"date": {
					"local": "2025-03-09T04:30:00.000+00:00",
					"utc": "2025-03-08T23:00:00.000Z"
				},
				"location": "aqicn|2554",
				"isMobile": false,
				"parameter": "pm25",
				"sourceName": "aqicn",
				"entity": "other",
				"value": 48.9,
				"unit": "µg/m³"
			},
			{
				"attribution": [
					{
						"url": "http://dpccairdata.com/",
						"name": "Delhi Pollution Control Commitee (Government of NCT of Delhi)",
						"logo": "India-DPCCC.png"
					},
					{
						"url": "http://cpcb.nic.in/",
						"name": "CPCB - India Central Pollution Control Board",
						"logo": "India-CPCB.png"
					},
					{
						"url": "https://waqi.info/",
						"name": "World Air Quality Index Project"
					}
				],
				"averagingPeriod": {
					"unit": "day",
					"value": 1
				},
				"city": "Mandir Marg, Delhi, Delhi, India",
				"coordinates": {
					"latitude": 28.6341,
					"longitude": 77.2005
				},
				"country": "IN",
				"date": {
					"local": "2025-03-09T04:30:00.000+00:00",
					"utc": "2025-03-08T23:00:00.000Z"
				},
				"location": "aqicn|2554",
				"isMobile": false,
				"parameter": "so2",
				"sourceName": "aqicn",
				"entity": "other",
				"value": 1.1,
				"unit": "ppb"
			}
		],
		"pm25": {
			"attribution": [
				{
					"url": "http://dpccairdata.com/",
					"name": "Delhi Pollution Control Commitee (Government of NCT of Delhi)",
					"logo": "India-DPCCC.png"
				},
				{
					"url": "http://cpcb.nic.in/",
					"name": "CPCB - India Central Pollution Control Board",
					"logo": "India-CPCB.png"
				},
				{
					"url": "https://waqi.info/",
					"name": "World Air Quality Index Project"
				}
			],
			"averagingPeriod": {
				"unit": "day",
				"value": 1
			},
			"city": "Mandir Marg, Delhi, Delhi, India",
			"coordinates": {
				"latitude": 28.6341,
				"longitude": 77.2005
			},
			"country": "IN",
			"date": {
				"local": "2025-03-09T04:30:00.000+00:00",
				"utc": "2025-03-08T23:00:00.000Z"
			},
			"location": "aqicn|2554",
			"isMobile": false,
			"parameter": "pm25",
			"sourceName": "aqicn",
			"entity": "other",
			"value": 48.9,
			"unit": "µg/m³"
		},
		"shootismoke": {
			"dailyCigarettes": 2.2227272727272727,
			"distanceToStation": 4,
			"isAccurate": true
		}
	}
}