{
	"country": "France",
	"name": "Nice",
	"gps": {
		"latitude": 43.715,
		"longitude": 7.265
	},
	"slug": "nice",
	"adminName": "Provence-Alpes-Côte d’Azur",
	"photoUrl": "https://live.staticflickr.com/2893/13856100474_4d38afcd52_m.jpg",
	"api": {
		"results": [
			{
				"attribution": [
					{
						"url": "http://www.atmosud.org",
						"name": "L'observatoire de la qualité de l'air en Région Sud Provence-Alpes-Côte d'Azur",
						"logo": "Paca-Air-Paca.png"
					},
					{
						"url": "https://waqi.info/",
						"name": "World Air Quality Index Project"
					}
				],
				"averagingPeriod": {
					"unit": "day",
					"value": 1
				},
				"city": "Nice Arson, PACA, France",
				"coordinates": {
					"latitude": 43.702075,
					"longitude": 7.286256
				},
				"country": "FR",
				"date": {
					"local": "2025-03-08T19:00:00.000+00:00",
					"utc": "2025-03-08T18:00:00.000Z"
				},
				"location": "aqicn|6886",
				"isMobile": false,
				"parameter": "no2",
				"sourceName": "aqicn",
				"entity": "other",
				"value": 4.9,
				"unit": "ppb"
			},
			{
				"attribution": [
					{
						"url": "http://www.atmosud.org",
						"name": "L'observatoire de la qualité de l'air en Région Sud Provence-Alpes-Côte d'Azur",
						"logo": "Paca-Air-Paca.png"
					},
					{
						"url": "https://waqi.info/",
						"name": "World Air Quality Index Project"
					}
				],
				"averagingPeriod": {
					"unit": "day",
					"value": 1
				},
				"city": "Nice Arson, PACA, France",
				"coordinates": {
					"latitude": 43.702075,
					"longitude": 7.286256
				},
				"country": "FR",
				"date": {
					"local": "2025-03-08T19:00:00.000+00:00",
					"utc": "2025-03-08T18:00:00.000Z"
				},
				"location": "aqicn|6886",
				"isMobile": false,
				"parameter": "o3",
				"sourceName": "aqicn",
				"entity": "other",
				"value": 53.5,
				"unit": "ppb"
			},
			{
				"attribution": [
					{
						"url": "http://www.atmosud.org",
						"name": "L'observatoire de la qualité de l'air en Région Sud Provence-Alpes-Côte d'Azur",
						"logo": "Paca-Air-Paca.png"
					},
					{
						"url": "https://waqi.info/",
						"name": "World Air Quality Index Project"
					}
				],
				"averagingPeriod": {
					"unit": "day",
					"value": 1
				},
				"city": "Nice Arson, PACA, France",
				"coordinates": {
					"latitude": 43.702075,
					"longitude": 7.286256
				},
				"country": "FR",
				"date": {
					"local": "2025-03-08T19:00:00.000+00:00",
					"utc": "2025-03-08T18:00:00.000Z"
				},
				"location": "aqicn|6886",
				"isMobile": false,
				"parameter": "pm10",
				"sourceName": "aqicn",
				"entity": "other",
				"value": 25.9,
				"unit": "µg/m³"
			},
			{
				"attribution": [
					{
						"url": "http://www.atmosud.org",
						"name": "L'observatoire de la qualité de l'air en Région Sud Provence-Alpes-Côte d'Azur",
						"logo": "Paca-Air-Paca.png"
					},
					{
						"url": "https://waqi.info/",
						"name": "World Air Quality Index Project"
					}
				],
				"averagingPeriod": {
					"unit": "day",
					"value": 1
				},
				"city": "Nice Arson, PACA, France",
				"coordinates": {
					"latitude": 43.702075,
					"longitude": 7.286256
				},
				"country": "FR",
				"date": {
					"local": "2025-03-08T19:00:00.000+00:00",
					"utc": "2025-03-08T18:00:00.000Z"
				},
				"location": "aqicn|6886",
				"isMobile": false,
				"parameter": "pm25",
				"sourceName": "aqicn",
				"entity": "other",
				"value": 18.3,
				"unit": "µg/m³"
			},
			{
				"attribution": [
					{
						"url": "http://www.atmosud.org",
						"name": "L'observatoire de la qualité de l'air en Région Sud Provence-Alpes-Côte d'Azur",
						"logo": "Paca-Air-Paca.png"
					},
					{
						"url": "https://waqi.info/",
						"name": "World Air Quality Index Project"
					}
				],
				"averagingPeriod": {
					"unit": "day",
					"value": 1
				},
				"city": "Nice Arson, PACA, France",
				"coordinates": {
					"latitude": 43.702075,
					"longitude": 7.286256
				},
				"country": "FR",
				"date": {
					"local": "2025-03-08T19:00:00.000+00:00",
					"utc": "2025-03-08T18:00:00.000Z"
				},
				"location": "aqicn|6886",
				"isMobile": false,
				"parameter": "so2",
				"sourceName": "aqicn",
				"entity": "other",
				"value": 0.8,
				"unit": "ppb"
			}
		],
		"pm25": {
			"attribution": [
				{
					"url": "http://www.atmosud.org",
					"name": "L'observatoire de la qualité de l'air en Région Sud Provence-Alpes-Côte d'Azur",
					"logo": "Paca-Air-Paca.png"
				},
				{
					"url": "https://waqi.info/",
					"name": "World Air Quality Index Project"
				}
			],
			"averagingPeriod": {
				"unit": "day",
				"value": 1
			},
			"city": "Nice Arson, PACA, France",
			"coordinates": {
				"latitude": 43.702075,
				"longitude": 7.286256
			},
			"country": "FR",
			"date": {
				"local": "2025-03-08T19:00:00.000+00:00",
				"utc": "2025-03-08T18:00:00.000Z"
			},
			"location": "aqicn|6886",
			"isMobile": false,
			"parameter": "pm25",
			"sourceName": "aqicn",
			"entity": "other",
			"value": 18.3,
			"unit": "µg/m³"
		},
		"shootismoke": {
			"dailyCigarettes": 0.8318181818181819,
			"distanceToStation": 2,
			"isAccurate": true
		}
	}
}