{
	"country": "Kazakhstan",
	"name": "Nur-Sultan",
	"gps": {
		"latitude": 51.1811,
		"longitude": 71.4278
	},
	"slug": "nur-sultan",
	"adminName": "Astana",
	"photoUrl": "https://live.staticflickr.com/8194/8376793097_297e2450aa_m.jpg",
	"api": {
		"results": [
			{
				"attribution": [
					{
						"url": "https://kz.usembassy.gov/",
						"name": "Astana Air Quality Monitor - US Embassy",
						"logo": "US-StateDepartment.png"
					},
					{
						"url": "https://www.kazhydromet.kz/en/",
						"name": "Қазгидромет - Kazhydromet",
						"logo": "Kazakhstan.hydromet.png"
					},
					{
						"url": "https://waqi.info/",
						"name": "World Air Quality Index Project"
					}
				],
				"averagingPeriod": {
					"unit": "day",
					"value": 1
				},
				"city": "Astana, US Embassy, Kazakhstan (Нұр-Сұлтан, АҚШ елшілігі)",
				"coordinates": {
					"latitude": 51.125286,
					"longitude": 71.46722
				},
				"country": "KZ",
				"date": {
					"local": "2025-03-09T05:00:00.000+00:00",
					"utc": "2025-03-08T23:00:00.000Z"
				},
				"location": "aqicn|10497",
				"isMobile": false,
				"parameter": "co",
				"sourceName": "aqicn",
				"entity": "other",
				"value": 0.4,
				"unit": "ppb"
			},
			{
				"attribution": [
					{
						"url": "https://kz.usembassy.gov/",
						"name": "Astana Air Quality Monitor - US Embassy",
						"logo": "US-StateDepartment.png"
					},
					{
						"url": "https://www.kazhydromet.kz/en/",
						"name": "Қазгидромет - Kazhydromet",
						"logo": "Kazakhstan.hydromet.png"
					},
					{
						"url": "https://waqi.info/",
						"name": "World Air Quality Index Project"
					}
				],
				"averagingPeriod": {
					"unit": "day",
					"value": 1
				},
				"city": "Astana, US Embassy, Kazakhstan (Нұр-Сұлтан, АҚШ елшілігі)",
				"coordinates": {
					"latitude": 51.125286,
					"longitude": 71.46722
				},
				"country": "KZ",
				"date": {
					"local": "2025-03-09T05:00:00.000+00:00",
					"utc": "2025-03-08T23:00:00.000Z"
				},
				"location": "aqicn|10497",
				"isMobile": false,
				"parameter": "no2",
				"sourceName": "aqicn",
				"entity": "other",
				"value": 8.4,
				"unit": "ppb"
			},
			{
				"attribution": [
					{
						"url": "https://kz.usembassy.gov/",
						"name": "Astana Air Quality Monitor - US Embassy",
						"logo": "US-StateDepartment.png"
					},
					{
						"url": "https://www.kazhydromet.kz/en/",
						"name": "Қазгидромет - Kazhydromet",
						"logo": "Kazakhstan.hydromet.png"
					},
					{
						"url": "https://waqi.info/",
						"name": "World Air Quality Index Project"
					}
				],
				"averagingPeriod": {
					"unit": "day",
					"value": 1
				},
				"city": "Astana, US Embassy, Kazakhstan (Нұр-Сұлтан, АҚШ елшілігі)",
				"coordinates": {
					"latitude": 51.125286,
					"longitude": 71.46722
				},
				"country": "KZ",
				"date": {
					"local": "2025-03-09T05:00:00.000+00:00",
					"utc": "2025-03-08T23:00:00.000Z"
				},
				"location": "aqicn|10497",
				"isMobile": false,
				"parameter": "pm10",
				"sourceName": "aqicn",
				"entity": "other",
				"value": 11.9,
				"unit": "µg/m³"
			},
			{
				"attribution": [
					{
						"url": "https://kz.usembassy.gov/",
						"name": "Astana Air Quality Monitor - US Embassy",
						"logo": "US-StateDepartment.png"
					},
					{
						"url": "https://www.kazhydromet.kz/en/",
						"name": "Қазгидромет - Kazhydromet",
						"logo": "Kazakhstan.hydromet.png"
					},
					{
						"url": "https://waqi.info/",
						"name": "World Air Quality Index Project"
					}
				],
				"averagingPeriod": {
					"unit": "day",
					"value": 1
				},
				"city": "Astana, US Embassy, Kazakhstan (Нұр-Сұлтан, АҚШ елшілігі)",
				"coordinates": {
					"latitude": 51.125286,
					"longitude": 71.46722
				},
				"country": "KZ",
				"date": {
					"local": "2025-03-09T05:00:00.000+00:00",
					"utc": "2025-03-08T23:00:00.000Z"
				},
				"location": "aqicn|10497",
				"isMobile": false,
				"parameter": "pm25",
				"sourceName": "aqicn",
				"entity": "other",
				"value": 20.2,
				"unit": "µg/m³"
			},
			{
				"attribution": [
					{
						"url": "https://kz.usembassy.gov/",
						"name": "Astana Air Quality Monitor - US Embassy",
						"logo": "US-StateDepartment.png"
					},
					{
						"url": "https://www.kazhydromet.kz/en/",
						"name": "Қазгидромет - Kazhydromet",
						"logo": "Kazakhstan.hydromet.png"
					},
					{
						"url": "https://waqi.info/",
						"name": "World Air Quality Index Project"
					}
				],
				"averagingPeriod": {
					"unit": "day",
					"value": 1
				},
				"city": "Astana, US Embassy, Kazakhstan (Нұр-Сұлтан, АҚШ елшілігі)",
				"coordinates": {
					"latitude": 51.125286,
					"longitude": 71.46722
				},
				"country": "KZ",
				"date": {
					"local": "2025-03-09T05:00:00.000+00:00",
					"utc": "2025-03-08T23:00:00.000Z"
				},
				"location": "aqicn|10497",
				"isMobile": false,
				"parameter": "so2",
				"sourceName": "aqicn",
				"entity": "other",
				"value": 7.3,
				"unit": "ppb"
			}
		],
		"pm25": {
			"attribution": [
				{
					"url": "https://kz.usembassy.gov/",
					"name": "Astana Air Quality Monitor - US Embassy",
					"logo": "US-StateDepartment.png"
				},
				{
					"url": "https://www.kazhydromet.kz/en/",
					"name": "Қазгидромет - Kazhydromet",
					"logo": "Kazakhstan.hydromet.png"
				},
				{
					"url": "https://waqi.info/",
					"name": "World Air Quality Index Project"
				}
			],
			"averagingPeriod": {
				"unit": "day",
				"value": 1
			},
			"city": "Astana, US Embassy, Kazakhstan (Нұр-Сұлтан, АҚШ елшілігі)",
			"coordinates": {
				"latitude": 51.125286,
				"longitude": 71.46722
			},
			"country": "KZ",
			"date": {
				"local": "2025-03-09T05:00:00.000+00:00",
				"utc": "2025-03-08T23:00:00.000Z"
			},
			"location": "aqicn|10497",
			"isMobile": false,
			"parameter": "pm25",
			"sourceName": "aqicn",
			"entity": "other",
			"value": 20.2,
			"unit": "µg/m³"
		},
		"shootismoke": {
			"dailyCigarettes": 0.9181818181818181,
			"distanceToStation": 7,
			"isAccurate": true
		}
	}
}