{
	"country": "United States",
	"name": "Omaha",
	"gps": {
		"latitude": 41.2628,
		"longitude": -96.0498
	},
	"slug": "omaha",
	"adminName": "Nebraska",
	"photoUrl": "https://live.staticflickr.com/8285/7537876510_f9c093b8bf_m.jpg"
}