{
	"country": "Russia",
	"name": "Orenburg",
	"gps": {
		"latitude": 51.78,
		"longitude": 55.11
	},
	"slug": "orenburg",
	"adminName": "Orenburgskaya Oblast’",
	"photoUrl": "https://live.staticflickr.com/1513/26276421376_80b715f57e_m.jpg"
}