{
	"country": "United States",
	"name": "Orlando",
	"gps": {
		"latitude": 28.4772,
		"longitude": -81.3369
	},
	"slug": "orlando",
	"adminName": "Florida",
	"photoUrl": "https://live.staticflickr.com/685/31571027354_b3b7cc8ee0_m.jpg"
}