{
	"country": "Indonesia",
	"name": "Palembang",
	"gps": {
		"latitude": -2.98,
		"longitude": 104.75
	},
	"slug": "palembang",
	"adminName": "Sumatera Selatan",
	"photoUrl": "https://live.staticflickr.com/3326/3444661945_abc3e38507_m.jpg",
	"api": {
		"results": [
			{
				"attribution": [
					{
						"url": "http://www.bmkg.go.id/",
						"name": "BMKG | Badan Meteorologi, Klimatologi dan Geofisika",
						"logo": "Indonesia-Badan-Meteorologi-Klimatologi-dan-Geofisika.png"
					},
					{
						"url": "https://waqi.info/",
						"name": "World Air Quality Index Project"
					}
				],
				"averagingPeriod": {
					"unit": "day",
					"value": 1
				},
				"city": "Musi 2 Palembang, Indonesia",
				"coordinates": {
					"latitude": -3.031,
					"longitude": 104.72
				},
				"country": "ID",
				"date": {
					"local": "2025-03-09T06:00:00.000+00:00",
					"utc": "2025-03-08T23:00:00.000Z"
				},
				"location": "aqicn|14904",
				"isMobile": false,
				"parameter": "pm25",
				"sourceName": "aqicn",
				"entity": "other",
				"value": 10.6,
				"unit": "µg/m³"
			}
		],
		"pm25": {
			"attribution": [
				{
					"url": "http://www.bmkg.go.id/",
					"name": "BMKG | Badan Meteorologi, Klimatologi dan Geofisika",
					"logo": "Indonesia-Badan-Meteorologi-Klimatologi-dan-Geofisika.png"
				},
				{
					"url": "https://waqi.info/",
					"name": "World Air Quality Index Project"
				}
			],
			"averagingPeriod": {
				"unit": "day",
				"value": 1
			},
			"city": "Musi 2 Palembang, Indonesia",
			"coordinates": {
				"latitude": -3.031,
				"longitude": 104.72
			},
			"country": "ID",
			"date": {
				"local": "2025-03-09T06:00:00.000+00:00",
				"utc": "2025-03-08T23:00:00.000Z"
			},
			"location": "aqicn|14904",
			"isMobile": false,
			"parameter": "pm25",
			"sourceName": "aqicn",
			"entity": "other",
			"value": 10.6,
			"unit": "µg/m³"
		},
		"shootismoke": {
			"dailyCigarettes": 0.4818181818181818,
			"distanceToStation": 7,
			"isAccurate": true
		}
	}
}