{
	"country": "Russia",
	"name": "Perm’",
	"gps": {
		"latitude": 58,
		"longitude": 56.25
	},
	"slug": "perm",
	"adminName": "Permskiy Kray",
	"photoUrl": "https://live.staticflickr.com/7065/6937426851_6eb168cc0e_m.jpg"
}