{
	"country": "South Africa",
	"name": "Pietermaritzburg",
	"gps": {
		"latitude": -29.61,
		"longitude": 30.39
	},
	"slug": "pietermaritzburg",
	"adminName": "KwaZulu-Natal",
	"photoUrl": "https://live.staticflickr.com/2166/2508683818_de072cd5ee_m.jpg"
}