{
	"country": "United States",
	"name": "Pittsburgh",
	"gps": {
		"latitude": 40.4396,
		"longitude": -79.9763
	},
	"slug": "pittsburgh",
	"adminName": "Pennsylvania",
	"photoUrl": "https://live.staticflickr.com/7257/27564993015_2aacd9b72b_m.jpg"
}