{
	"country": "Brazil",
	"name": "Porto Alegre",
	"gps": {
		"latitude": -30.05,
		"longitude": -51.2
	},
	"slug": "porto-alegre",
	"adminName": "Rio Grande do Sul",
	"photoUrl": "https://live.staticflickr.com/1497/24379109736_37af4ddcd7_m.jpg"
}