{
	"country": "Egypt",
	"name": "Port Said",
	"gps": {
		"latitude": 31.26,
		"longitude": 32.29
	},
	"slug": "port-said",
	"adminName": "Būr Sa‘īd",
	"photoUrl": "https://live.staticflickr.com/5483/30420616804_dbb02c7838_m.jpg"
}