{
	"country": "United States",
	"name": "Portland",
	"gps": {
		"latitude": 45.5371,
		"longitude": -122.65
	},
	"slug": "portland",
	"adminName": "Oregon",
	"photoUrl": "https://live.staticflickr.com/4410/36601396510_9cedf67c00_m.jpg"
}