{
	"country": "Cabo Verde",
	"name": "Praia",
	"gps": {
		"latitude": 14.9167,
		"longitude": -23.5167
	},
	"slug": "praia",
	"adminName": "Praia",
	"photoUrl": "https://live.staticflickr.com/3678/10993555475_361bdf8c4c_m.jpg"
}