{
	"country": "India",
	"name": "Pune",
	"gps": {
		"latitude": 18.53,
		"longitude": 73.85
	},
	"slug": "pune",
	"adminName": "Mahārāshtra",
	"photoUrl": "https://live.staticflickr.com/5481/10420369773_e902bd95d5_m.jpg"
}