{
	"country": "Korea, North",
	"name": "Pyongyang",
	"gps": {
		"latitude": 39.0194,
		"longitude": 125.7547
	},
	"slug": "pyongyang",
	"adminName": "P’yŏngyang",
	"photoUrl": "https://live.staticflickr.com/814/26396614267_fb91c0c856_m.jpg"
}