{
	"country": "China",
	"name": "Qingyuan",
	"gps": {
		"latitude": 23.7004,
		"longitude": 113.0301
	},
	"slug": "qingyuan",
	"adminName": "Guangdong",
	"photoUrl": "https://live.staticflickr.com/5257/5501370251_7b7f2b79d4_m.jpg",
	"api": {
		"results": [
			{
				"attribution": [
					{
						"url": "https://waqi.info/",
						"name": "World Air Quality Index Project"
					}
				],
				"averagingPeriod": {
					"unit": "day",
					"value": 1
				},
				"city": "Fengcheng Subdistrict, Qingyuan (清远凤城街办)",
				"coordinates": {
					"latitude": 23.7106,
					"longitude": 113.0208
				},
				"country": "CN",
				"date": {
					"local": "2025-03-09T09:00:00.000+00:00",
					"utc": "2025-03-09T01:00:00.000Z"
				},
				"location": "aqicn|3508",
				"isMobile": false,
				"parameter": "co",
				"sourceName": "aqicn",
				"entity": "other",
				"value": 0.7,
				"unit": "ppb"
			},
			{
				"attribution": [
					{
						"url": "https://waqi.info/",
						"name": "World Air Quality Index Project"
					}
				],
				"averagingPeriod": {
					"unit": "day",
					"value": 1
				},
				"city": "Fengcheng Subdistrict, Qingyuan (清远凤城街办)",
				"coordinates": {
					"latitude": 23.7106,
					"longitude": 113.0208
				},
				"country": "CN",
				"date": {
					"local": "2025-03-09T09:00:00.000+00:00",
					"utc": "2025-03-09T01:00:00.000Z"
				},
				"location": "aqicn|3508",
				"isMobile": false,
				"parameter": "no2",
				"sourceName": "aqicn",
				"entity": "other",
				"value": 23.7,
				"unit": "ppb"
			},
			{
				"attribution": [
					{
						"url": "https://waqi.info/",
						"name": "World Air Quality Index Project"
					}
				],
				"averagingPeriod": {
					"unit": "day",
					"value": 1
				},
				"city": "Fengcheng Subdistrict, Qingyuan (清远凤城街办)",
				"coordinates": {
					"latitude": 23.7106,
					"longitude": 113.0208
				},
				"country": "CN",
				"date": {
					"local": "2025-03-09T09:00:00.000+00:00",
					"utc": "2025-03-09T01:00:00.000Z"
				},
				"location": "aqicn|3508",
				"isMobile": false,
				"parameter": "pm10",
				"sourceName": "aqicn",
				"entity": "other",
				"value": 65.1,
				"unit": "µg/m³"
			},
			{
				"attribution": [
					{
						"url": "https://waqi.info/",
						"name": "World Air Quality Index Project"
					}
				],
				"averagingPeriod": {
					"unit": "day",
					"value": 1
				},
				"city": "Fengcheng Subdistrict, Qingyuan (清远凤城街办)",
				"coordinates": {
					"latitude": 23.7106,
					"longitude": 113.0208
				},
				"country": "CN",
				"date": {
					"local": "2025-03-09T09:00:00.000+00:00",
					"utc": "2025-03-09T01:00:00.000Z"
				},
				"location": "aqicn|3508",
				"isMobile": false,
				"parameter": "pm25",
				"sourceName": "aqicn",
				"entity": "other",
				"value": 36.7,
				"unit": "µg/m³"
			},
			{
				"attribution": [
					{
						"url": "https://waqi.info/",
						"name": "World Air Quality Index Project"
					}
				],
				"averagingPeriod": {
					"unit": "day",
					"value": 1
				},
				"city": "Fengcheng Subdistrict, Qingyuan (清远凤城街办)",
				"coordinates": {
					"latitude": 23.7106,
					"longitude": 113.0208
				},
				"country": "CN",
				"date": {
					"local": "2025-03-09T09:00:00.000+00:00",
					"utc": "2025-03-09T01:00:00.000Z"
				},
				"location": "aqicn|3508",
				"isMobile": false,
				"parameter": "so2",
				"sourceName": "aqicn",
				"entity": "other",
				"value": 7.5,
				"unit": "ppb"
			}
		],
		"pm25": {
			"attribution": [
				{
					"url": "https://waqi.info/",
					"name": "World Air Quality Index Project"
				}
			],
			"averagingPeriod": {
				"unit": "day",
				"value": 1
			},
			"city": "Fengcheng Subdistrict, Qingyuan (清远凤城街办)",
			"coordinates": {
				"latitude": 23.7106,
				"longitude": 113.0208
			},
			"country": "CN",
			"date": {
				"local": "2025-03-09T09:00:00.000+00:00",
				"utc": "2025-03-09T01:00:00.000Z"
			},
			"location": "aqicn|3508",
			"isMobile": false,
			"parameter": "pm25",
			"sourceName": "aqicn",
			"entity": "other",
			"value": 36.7,
			"unit": "µg/m³"
		},
		"shootismoke": {
			"dailyCigarettes": 1.6681818181818182,
			"distanceToStation": 1,
			"isAccurate": true
		}
	}
}