{
	"country": "China",
	"name": "Qiqihar",
	"gps": {
		"latitude": 47.345,
		"longitude": 123.99
	},
	"slug": "qiqihar",
	"adminName": "Heilongjiang",
	"photoUrl": "https://live.staticflickr.com/5499/9338348957_411dedf738_m.jpg",
	"api": {
		"results": [
			{
				"attribution": [
					{
						"url": "http://www.hljdep.gov.cn/",
						"name": "Helongjiang Environmental Protection Agency (黑龙江省空气质量实时发布平台)"
					},
					{
						"url": "https://waqi.info/",
						"name": "World Air Quality Index Project"
					}
				],
				"averagingPeriod": {
					"unit": "day",
					"value": 1
				},
				"city": "Farming Vehicule Factory, Qiqihaer (齐齐哈尔农牧车辆厂)",
				"coordinates": {
					"latitude": 47.3227,
					"longitude": 123.9483
				},
				"country": "CN",
				"date": {
					"local": "2025-03-09T09:00:00.000+00:00",
					"utc": "2025-03-09T01:00:00.000Z"
				},
				"location": "aqicn|3633",
				"isMobile": false,
				"parameter": "co",
				"sourceName": "aqicn",
				"entity": "other",
				"value": 0.2,
				"unit": "ppb"
			},
			{
				"attribution": [
					{
						"url": "http://www.hljdep.gov.cn/",
						"name": "Helongjiang Environmental Protection Agency (黑龙江省空气质量实时发布平台)"
					},
					{
						"url": "https://waqi.info/",
						"name": "World Air Quality Index Project"
					}
				],
				"averagingPeriod": {
					"unit": "day",
					"value": 1
				},
				"city": "Farming Vehicule Factory, Qiqihaer (齐齐哈尔农牧车辆厂)",
				"coordinates": {
					"latitude": 47.3227,
					"longitude": 123.9483
				},
				"country": "CN",
				"date": {
					"local": "2025-03-09T09:00:00.000+00:00",
					"utc": "2025-03-09T01:00:00.000Z"
				},
				"location": "aqicn|3633",
				"isMobile": false,
				"parameter": "no2",
				"sourceName": "aqicn",
				"entity": "other",
				"value": 9.2,
				"unit": "ppb"
			},
			{
				"attribution": [
					{
						"url": "http://www.hljdep.gov.cn/",
						"name": "Helongjiang Environmental Protection Agency (黑龙江省空气质量实时发布平台)"
					},
					{
						"url": "https://waqi.info/",
						"name": "World Air Quality Index Project"
					}
				],
				"averagingPeriod": {
					"unit": "day",
					"value": 1
				},
				"city": "Farming Vehicule Factory, Qiqihaer (齐齐哈尔农牧车辆厂)",
				"coordinates": {
					"latitude": 47.3227,
					"longitude": 123.9483
				},
				"country": "CN",
				"date": {
					"local": "2025-03-09T09:00:00.000+00:00",
					"utc": "2025-03-09T01:00:00.000Z"
				},
				"location": "aqicn|3633",
				"isMobile": false,
				"parameter": "pm10",
				"sourceName": "aqicn",
				"entity": "other",
				"value": 41,
				"unit": "µg/m³"
			},
			{
				"attribution": [
					{
						"url": "http://www.hljdep.gov.cn/",
						"name": "Helongjiang Environmental Protection Agency (黑龙江省空气质量实时发布平台)"
					},
					{
						"url": "https://waqi.info/",
						"name": "World Air Quality Index Project"
					}
				],
				"averagingPeriod": {
					"unit": "day",
					"value": 1
				},
				"city": "Farming Vehicule Factory, Qiqihaer (齐齐哈尔农牧车辆厂)",
				"coordinates": {
					"latitude": 47.3227,
					"longitude": 123.9483
				},
				"country": "CN",
				"date": {
					"local": "2025-03-09T09:00:00.000+00:00",
					"utc": "2025-03-09T01:00:00.000Z"
				},
				"location": "aqicn|3633",
				"isMobile": false,
				"parameter": "pm25",
				"sourceName": "aqicn",
				"entity": "other",
				"value": 34,
				"unit": "µg/m³"
			},
			{
				"attribution": [
					{
						"url": "http://www.hljdep.gov.cn/",
						"name": "Helongjiang Environmental Protection Agency (黑龙江省空气质量实时发布平台)"
					},
					{
						"url": "https://waqi.info/",
						"name": "World Air Quality Index Project"
					}
				],
				"averagingPeriod": {
					"unit": "day",
					"value": 1
				},
				"city": "Farming Vehicule Factory, Qiqihaer (齐齐哈尔农牧车辆厂)",
				"coordinates": {
					"latitude": 47.3227,
					"longitude": 123.9483
				},
				"country": "CN",
				"date": {
					"local": "2025-03-09T09:00:00.000+00:00",
					"utc": "2025-03-09T01:00:00.000Z"
				},
				"location": "aqicn|3633",
				"isMobile": false,
				"parameter": "so2",
				"sourceName": "aqicn",
				"entity": "other",
				"value": 4.3,
				"unit": "ppb"
			}
		],
		"pm25": {
			"attribution": [
				{
					"url": "http://www.hljdep.gov.cn/",
					"name": "Helongjiang Environmental Protection Agency (黑龙江省空气质量实时发布平台)"
				},
				{
					"url": "https://waqi.info/",
					"name": "World Air Quality Index Project"
				}
			],
			"averagingPeriod": {
				"unit": "day",
				"value": 1
			},
			"city": "Farming Vehicule Factory, Qiqihaer (齐齐哈尔农牧车辆厂)",
			"coordinates": {
				"latitude": 47.3227,
				"longitude": 123.9483
			},
			"country": "CN",
			"date": {
				"local": "2025-03-09T09:00:00.000+00:00",
				"utc": "2025-03-09T01:00:00.000Z"
			},
			"location": "aqicn|3633",
			"isMobile": false,
			"parameter": "pm25",
			"sourceName": "aqicn",
			"entity": "other",
			"value": 34,
			"unit": "µg/m³"
		},
		"shootismoke": {
			"dailyCigarettes": 1.5454545454545454,
			"distanceToStation": 4,
			"isAccurate": true
		}
	}
}