{
	"country": "China",
	"name": "Quanzhou",
	"gps": {
		"latitude": 24.9,
		"longitude": 118.58
	},
	"slug": "quanzhou",
	"adminName": "Fujian",
	"photoUrl": "https://live.staticflickr.com/5623/22489237189_e97548528c_m.jpg",
	"api": {
		"results": [
			{
				"attribution": [
					{
						"url": "http://sthjt.fujian.gov.cn/",
						"name": "Department of Ecology and Environment of Fujian Province (福建省生态环境厅)"
					},
					{
						"url": "http://113.108.142.147:20035/emcpublish/",
						"name": "China National Urban air quality real-time publishing platform (全国城市空气质量实时发布平台)"
					},
					{
						"url": "https://waqi.info/",
						"name": "World Air Quality Index Project"
					}
				],
				"averagingPeriod": {
					"unit": "day",
					"value": 1
				},
				"city": "Tushan Street, Quanzhou (泉州涂山街)",
				"coordinates": {
					"latitude": 24.9117,
					"longitude": 118.5819
				},
				"country": "CN",
				"date": {
					"local": "2025-03-09T09:00:00.000+00:00",
					"utc": "2025-03-09T01:00:00.000Z"
				},
				"location": "aqicn|3422",
				"isMobile": false,
				"parameter": "co",
				"sourceName": "aqicn",
				"entity": "other",
				"value": 0.2,
				"unit": "ppb"
			},
			{
				"attribution": [
					{
						"url": "http://sthjt.fujian.gov.cn/",
						"name": "Department of Ecology and Environment of Fujian Province (福建省生态环境厅)"
					},
					{
						"url": "http://113.108.142.147:20035/emcpublish/",
						"name": "China National Urban air quality real-time publishing platform (全国城市空气质量实时发布平台)"
					},
					{
						"url": "https://waqi.info/",
						"name": "World Air Quality Index Project"
					}
				],
				"averagingPeriod": {
					"unit": "day",
					"value": 1
				},
				"city": "Tushan Street, Quanzhou (泉州涂山街)",
				"coordinates": {
					"latitude": 24.9117,
					"longitude": 118.5819
				},
				"country": "CN",
				"date": {
					"local": "2025-03-09T09:00:00.000+00:00",
					"utc": "2025-03-09T01:00:00.000Z"
				},
				"location": "aqicn|3422",
				"isMobile": false,
				"parameter": "no2",
				"sourceName": "aqicn",
				"entity": "other",
				"value": 3.9,
				"unit": "ppb"
			},
			{
				"attribution": [
					{
						"url": "http://sthjt.fujian.gov.cn/",
						"name": "Department of Ecology and Environment of Fujian Province (福建省生态环境厅)"
					},
					{
						"url": "http://113.108.142.147:20035/emcpublish/",
						"name": "China National Urban air quality real-time publishing platform (全国城市空气质量实时发布平台)"
					},
					{
						"url": "https://waqi.info/",
						"name": "World Air Quality Index Project"
					}
				],
				"averagingPeriod": {
					"unit": "day",
					"value": 1
				},
				"city": "Tushan Street, Quanzhou (泉州涂山街)",
				"coordinates": {
					"latitude": 24.9117,
					"longitude": 118.5819
				},
				"country": "CN",
				"date": {
					"local": "2025-03-09T09:00:00.000+00:00",
					"utc": "2025-03-09T01:00:00.000Z"
				},
				"location": "aqicn|3422",
				"isMobile": false,
				"parameter": "pm10",
				"sourceName": "aqicn",
				"entity": "other",
				"value": 21.6,
				"unit": "µg/m³"
			},
			{
				"attribution": [
					{
						"url": "http://sthjt.fujian.gov.cn/",
						"name": "Department of Ecology and Environment of Fujian Province (福建省生态环境厅)"
					},
					{
						"url": "http://113.108.142.147:20035/emcpublish/",
						"name": "China National Urban air quality real-time publishing platform (全国城市空气质量实时发布平台)"
					},
					{
						"url": "https://waqi.info/",
						"name": "World Air Quality Index Project"
					}
				],
				"averagingPeriod": {
					"unit": "day",
					"value": 1
				},
				"city": "Tushan Street, Quanzhou (泉州涂山街)",
				"coordinates": {
					"latitude": 24.9117,
					"longitude": 118.5819
				},
				"country": "CN",
				"date": {
					"local": "2025-03-09T09:00:00.000+00:00",
					"utc": "2025-03-09T01:00:00.000Z"
				},
				"location": "aqicn|3422",
				"isMobile": false,
				"parameter": "pm25",
				"sourceName": "aqicn",
				"entity": "other",
				"value": 11,
				"unit": "µg/m³"
			},
			{
				"attribution": [
					{
						"url": "http://sthjt.fujian.gov.cn/",
						"name": "Department of Ecology and Environment of Fujian Province (福建省生态环境厅)"
					},
					{
						"url": "http://113.108.142.147:20035/emcpublish/",
						"name": "China National Urban air quality real-time publishing platform (全国城市空气质量实时发布平台)"
					},
					{
						"url": "https://waqi.info/",
						"name": "World Air Quality Index Project"
					}
				],
				"averagingPeriod": {
					"unit": "day",
					"value": 1
				},
				"city": "Tushan Street, Quanzhou (泉州涂山街)",
				"coordinates": {
					"latitude": 24.9117,
					"longitude": 118.5819
				},
				"country": "CN",
				"date": {
					"local": "2025-03-09T09:00:00.000+00:00",
					"utc": "2025-03-09T01:00:00.000Z"
				},
				"location": "aqicn|3422",
				"isMobile": false,
				"parameter": "so2",
				"sourceName": "aqicn",
				"entity": "other",
				"value": 0.8,
				"unit": "ppb"
			}
		],
		"pm25": {
			"attribution": [
				{
					"url": "http://sthjt.fujian.gov.cn/",
					"name": "Department of Ecology and Environment of Fujian Province (福建省生态环境厅)"
				},
				{
					"url": "http://113.108.142.147:20035/emcpublish/",
					"name": "China National Urban air quality real-time publishing platform (全国城市空气质量实时发布平台)"
				},
				{
					"url": "https://waqi.info/",
					"name": "World Air Quality Index Project"
				}
			],
			"averagingPeriod": {
				"unit": "day",
				"value": 1
			},
			"city": "Tushan Street, Quanzhou (泉州涂山街)",
			"coordinates": {
				"latitude": 24.9117,
				"longitude": 118.5819
			},
			"country": "CN",
			"date": {
				"local": "2025-03-09T09:00:00.000+00:00",
				"utc": "2025-03-09T01:00:00.000Z"
			},
			"location": "aqicn|3422",
			"isMobile": false,
			"parameter": "pm25",
			"sourceName": "aqicn",
			"entity": "other",
			"value": 11,
			"unit": "µg/m³"
		},
		"shootismoke": {
			"dailyCigarettes": 0.5,
			"distanceToStation": 1,
			"isAccurate": true
		}
	}
}