{
	"country": "Canada",
	"name": "Québec",
	"gps": {
		"latitude": 46.84,
		"longitude": -71.2456
	},
	"slug": "quebec",
	"adminName": "Québec",
	"photoUrl": "https://live.staticflickr.com/4637/39190520832_0b30b991d2_m.jpg",
	"api": {
		"results": [
			{
				"attribution": [
					{
						"url": "http://www.mddep.gouv.qc.ca/air/iqa/",
						"name": "Environnement au Québec",
						"logo": "Canada-Quebec.png"
					},
					{
						"url": "https://waqi.info/",
						"name": "World Air Quality Index Project"
					}
				],
				"averagingPeriod": {
					"unit": "day",
					"value": 1
				},
				"city": "Québec, Quebec, Canada",
				"coordinates": {
					"latitude": 46.8032826,
					"longitude": -71.242796
				},
				"country": "CA",
				"date": {
					"local": "2025-03-08T07:00:00.000+00:00",
					"utc": "2025-03-08T12:00:00.000Z"
				},
				"location": "aqicn|5445",
				"isMobile": false,
				"parameter": "no2",
				"sourceName": "aqicn",
				"entity": "other",
				"value": 0.1,
				"unit": "ppb"
			},
			{
				"attribution": [
					{
						"url": "http://www.mddep.gouv.qc.ca/air/iqa/",
						"name": "Environnement au Québec",
						"logo": "Canada-Quebec.png"
					},
					{
						"url": "https://waqi.info/",
						"name": "World Air Quality Index Project"
					}
				],
				"averagingPeriod": {
					"unit": "day",
					"value": 1
				},
				"city": "Québec, Quebec, Canada",
				"coordinates": {
					"latitude": 46.8032826,
					"longitude": -71.242796
				},
				"country": "CA",
				"date": {
					"local": "2025-03-08T07:00:00.000+00:00",
					"utc": "2025-03-08T12:00:00.000Z"
				},
				"location": "aqicn|5445",
				"isMobile": false,
				"parameter": "o3",
				"sourceName": "aqicn",
				"entity": "other",
				"value": 24.5,
				"unit": "ppb"
			},
			{
				"attribution": [
					{
						"url": "http://www.mddep.gouv.qc.ca/air/iqa/",
						"name": "Environnement au Québec",
						"logo": "Canada-Quebec.png"
					},
					{
						"url": "https://waqi.info/",
						"name": "World Air Quality Index Project"
					}
				],
				"averagingPeriod": {
					"unit": "day",
					"value": 1
				},
				"city": "Québec, Quebec, Canada",
				"coordinates": {
					"latitude": 46.8032826,
					"longitude": -71.242796
				},
				"country": "CA",
				"date": {
					"local": "2025-03-08T07:00:00.000+00:00",
					"utc": "2025-03-08T12:00:00.000Z"
				},
				"location": "aqicn|5445",
				"isMobile": false,
				"parameter": "pm25",
				"sourceName": "aqicn",
				"entity": "other",
				"value": 3.1,
				"unit": "µg/m³"
			}
		],
		"pm25": {
			"attribution": [
				{
					"url": "http://www.mddep.gouv.qc.ca/air/iqa/",
					"name": "Environnement au Québec",
					"logo": "Canada-Quebec.png"
				},
				{
					"url": "https://waqi.info/",
					"name": "World Air Quality Index Project"
				}
			],
			"averagingPeriod": {
				"unit": "day",
				"value": 1
			},
			"city": "Québec, Quebec, Canada",
			"coordinates": {
				"latitude": 46.8032826,
				"longitude": -71.242796
			},
			"country": "CA",
			"date": {
				"local": "2025-03-08T07:00:00.000+00:00",
				"utc": "2025-03-08T12:00:00.000Z"
			},
			"location": "aqicn|5445",
			"isMobile": false,
			"parameter": "pm25",
			"sourceName": "aqicn",
			"entity": "other",
			"value": 3.1,
			"unit": "µg/m³"
		},
		"shootismoke": {
			"dailyCigarettes": 0.1409090909090909,
			"distanceToStation": 4,
			"isAccurate": true
		}
	}
}