{
	"country": "Mexico",
	"name": "Querétaro",
	"gps": {
		"latitude": 20.63,
		"longitude": -100.38
	},
	"slug": "queretaro",
	"adminName": "Querétaro",
	"photoUrl": "https://live.staticflickr.com/824/42155029002_73f02bc10f_m.jpg"
}