{
	"country": "Ecuador",
	"name": "Quito",
	"gps": {
		"latitude": -0.215,
		"longitude": -78.5001
	},
	"slug": "quito",
	"adminName": "Pichincha",
	"photoUrl": "https://live.staticflickr.com/704/31290991713_994a0d8670_m.jpg"
}