{
	"country": "India",
	"name": "Rājkot",
	"gps": {
		"latitude": 22.31,
		"longitude": 70.8
	},
	"slug": "rajkot",
	"adminName": "Gujarāt",
	"photoUrl": "https://live.staticflickr.com/8605/28013114963_da33eb3931_m.jpg"
}