{
	"country": "United States",
	"name": "Richmond",
	"gps": {
		"latitude": 37.5295,
		"longitude": -77.4756
	},
	"slug": "richmond",
	"adminName": "Virginia",
	"photoUrl": "https://live.staticflickr.com/4624/40178491372_d14a1979bd_m.jpg"
}