{
	"country": "United States",
	"name": "Riverside",
	"gps": {
		"latitude": 33.9381,
		"longitude": -117.3948
	},
	"slug": "riverside",
	"adminName": "California",
	"photoUrl": "https://live.staticflickr.com/2357/32087308084_22e567ca07_m.jpg"
}