{
	"country": "Dominica",
	"name": "Roseau",
	"gps": {
		"latitude": 15.301,
		"longitude": -61.387
	},
	"slug": "roseau",
	"adminName": "Saint George",
	"photoUrl": "https://live.staticflickr.com/4734/38481416894_c8c069c008_m.jpg"
}