{
	"country": "Russia",
	"name": "Saint Petersburg",
	"gps": {
		"latitude": 59.939,
		"longitude": 30.316
	},
	"slug": "saint-petersburg",
	"adminName": "Sankt-Peterburg",
	"photoUrl": "https://live.staticflickr.com/8613/28844241986_c4f0436750_m.jpg"
}