{
	"country": "Turkey",
	"name": "Samsun",
	"gps": {
		"latitude": 41.28,
		"longitude": 36.3437
	},
	"slug": "samsun",
	"adminName": "Samsun",
	"photoUrl": "https://live.staticflickr.com/2039/2300987974_028a96c184_m.jpg",
	"api": {
		"results": [
			{
				"attribution": [
					{
						"url": "https://sim.csb.gov.tr/Services/AirQuality",
						"name": "Turkey National Air Quality Monitoring Network (Ulusal Hava Kalitesi İzleme Ağı)",
						"logo": "Turkey-TC-cevre-ve-sehircilik-bakanligi.png"
					},
					{
						"url": "https://waqi.info/",
						"name": "World Air Quality Index Project"
					}
				],
				"averagingPeriod": {
					"unit": "day",
					"value": 1
				},
				"city": "Ilkadim Hastane, Turkey",
				"coordinates": {
					"latitude": 41.2778870291031,
					"longitude": 36.3380980102845
				},
				"country": "TR",
				"date": {
					"local": "2025-03-08T21:00:00.000+00:00",
					"utc": "2025-03-08T18:00:00.000Z"
				},
				"location": "aqicn|8744",
				"isMobile": false,
				"parameter": "co",
				"sourceName": "aqicn",
				"entity": "other",
				"value": 0.6,
				"unit": "ppb"
			},
			{
				"attribution": [
					{
						"url": "https://sim.csb.gov.tr/Services/AirQuality",
						"name": "Turkey National Air Quality Monitoring Network (Ulusal Hava Kalitesi İzleme Ağı)",
						"logo": "Turkey-TC-cevre-ve-sehircilik-bakanligi.png"
					},
					{
						"url": "https://waqi.info/",
						"name": "World Air Quality Index Project"
					}
				],
				"averagingPeriod": {
					"unit": "day",
					"value": 1
				},
				"city": "Ilkadim Hastane, Turkey",
				"coordinates": {
					"latitude": 41.2778870291031,
					"longitude": 36.3380980102845
				},
				"country": "TR",
				"date": {
					"local": "2025-03-08T21:00:00.000+00:00",
					"utc": "2025-03-08T18:00:00.000Z"
				},
				"location": "aqicn|8744",
				"isMobile": false,
				"parameter": "no2",
				"sourceName": "aqicn",
				"entity": "other",
				"value": 81,
				"unit": "ppb"
			},
			{
				"attribution": [
					{
						"url": "https://sim.csb.gov.tr/Services/AirQuality",
						"name": "Turkey National Air Quality Monitoring Network (Ulusal Hava Kalitesi İzleme Ağı)",
						"logo": "Turkey-TC-cevre-ve-sehircilik-bakanligi.png"
					},
					{
						"url": "https://waqi.info/",
						"name": "World Air Quality Index Project"
					}
				],
				"averagingPeriod": {
					"unit": "day",
					"value": 1
				},
				"city": "Ilkadim Hastane, Turkey",
				"coordinates": {
					"latitude": 41.2778870291031,
					"longitude": 36.3380980102845
				},
				"country": "TR",
				"date": {
					"local": "2025-03-08T21:00:00.000+00:00",
					"utc": "2025-03-08T18:00:00.000Z"
				},
				"location": "aqicn|8744",
				"isMobile": false,
				"parameter": "o3",
				"sourceName": "aqicn",
				"entity": "other",
				"value": 9,
				"unit": "ppb"
			},
			{
				"attribution": [
					{
						"url": "https://sim.csb.gov.tr/Services/AirQuality",
						"name": "Turkey National Air Quality Monitoring Network (Ulusal Hava Kalitesi İzleme Ağı)",
						"logo": "Turkey-TC-cevre-ve-sehircilik-bakanligi.png"
					},
					{
						"url": "https://waqi.info/",
						"name": "World Air Quality Index Project"
					}
				],
				"averagingPeriod": {
					"unit": "day",
					"value": 1
				},
				"city": "Ilkadim Hastane, Turkey",
				"coordinates": {
					"latitude": 41.2778870291031,
					"longitude": 36.3380980102845
				},
				"country": "TR",
				"date": {
					"local": "2025-03-08T21:00:00.000+00:00",
					"utc": "2025-03-08T18:00:00.000Z"
				},
				"location": "aqicn|8744",
				"isMobile": false,
				"parameter": "pm10",
				"sourceName": "aqicn",
				"entity": "other",
				"value": 81.3,
				"unit": "µg/m³"
			},
			{
				"attribution": [
					{
						"url": "https://sim.csb.gov.tr/Services/AirQuality",
						"name": "Turkey National Air Quality Monitoring Network (Ulusal Hava Kalitesi İzleme Ağı)",
						"logo": "Turkey-TC-cevre-ve-sehircilik-bakanligi.png"
					},
					{
						"url": "https://waqi.info/",
						"name": "World Air Quality Index Project"
					}
				],
				"averagingPeriod": {
					"unit": "day",
					"value": 1
				},
				"city": "Ilkadim Hastane, Turkey",
				"coordinates": {
					"latitude": 41.2778870291031,
					"longitude": 36.3380980102845
				},
				"country": "TR",
				"date": {
					"local": "2025-03-08T21:00:00.000+00:00",
					"utc": "2025-03-08T18:00:00.000Z"
				},
				"location": "aqicn|8744",
				"isMobile": false,
				"parameter": "pm25",
				"sourceName": "aqicn",
				"entity": "other",
				"value": 30.6,
				"unit": "µg/m³"
			},
			{
				"attribution": [
					{
						"url": "https://sim.csb.gov.tr/Services/AirQuality",
						"name": "Turkey National Air Quality Monitoring Network (Ulusal Hava Kalitesi İzleme Ağı)",
						"logo": "Turkey-TC-cevre-ve-sehircilik-bakanligi.png"
					},
					{
						"url": "https://waqi.info/",
						"name": "World Air Quality Index Project"
					}
				],
				"averagingPeriod": {
					"unit": "day",
					"value": 1
				},
				"city": "Ilkadim Hastane, Turkey",
				"coordinates": {
					"latitude": 41.2778870291031,
					"longitude": 36.3380980102845
				},
				"country": "TR",
				"date": {
					"local": "2025-03-08T21:00:00.000+00:00",
					"utc": "2025-03-08T18:00:00.000Z"
				},
				"location": "aqicn|8744",
				"isMobile": false,
				"parameter": "so2",
				"sourceName": "aqicn",
				"entity": "other",
				"value": 2.4,
				"unit": "ppb"
			}
		],
		"pm25": {
			"attribution": [
				{
					"url": "https://sim.csb.gov.tr/Services/AirQuality",
					"name": "Turkey National Air Quality Monitoring Network (Ulusal Hava Kalitesi İzleme Ağı)",
					"logo": "Turkey-TC-cevre-ve-sehircilik-bakanligi.png"
				},
				{
					"url": "https://waqi.info/",
					"name": "World Air Quality Index Project"
				}
			],
			"averagingPeriod": {
				"unit": "day",
				"value": 1
			},
			"city": "Ilkadim Hastane, Turkey",
			"coordinates": {
				"latitude": 41.2778870291031,
				"longitude": 36.3380980102845
			},
			"country": "TR",
			"date": {
				"local": "2025-03-08T21:00:00.000+00:00",
				"utc": "2025-03-08T18:00:00.000Z"
			},
			"location": "aqicn|8744",
			"isMobile": false,
			"parameter": "pm25",
			"sourceName": "aqicn",
			"entity": "other",
			"value": 30.6,
			"unit": "µg/m³"
		},
		"shootismoke": {
			"dailyCigarettes": 1.3909090909090909,
			"distanceToStation": 1,
			"isAccurate": true
		}
	}
}