{
	"country": "Yemen",
	"name": "Sanaa",
	"gps": {
		"latitude": 15.3547,
		"longitude": 44.2066
	},
	"slug": "sanaa",
	"adminName": "Amānat al ‘Āşimah",
	"photoUrl": "https://live.staticflickr.com/5515/12151790503_d80c661aa4_m.jpg"
}