{
	"country": "Sao Tome And Principe",
	"name": "São Tomé",
	"gps": {
		"latitude": 0.3334,
		"longitude": 6.7333
	},
	"slug": "sao-tome",
	"adminName": "São Tomé",
	"photoUrl": "https://live.staticflickr.com/7777/18169033512_986600ffb6_m.jpg"
}