{
	"country": "Indonesia",
	"name": "Semarang",
	"gps": {
		"latitude": -6.9666,
		"longitude": 110.42
	},
	"slug": "semarang",
	"adminName": "Jawa Tengah",
	"photoUrl": "https://live.staticflickr.com/4425/36879169151_f651223162_m.jpg",
	"api": {
		"results": [
			{
				"attribution": [
					{
						"url": "http://www.bmkg.go.id/",
						"name": "BMKG | Badan Meteorologi, Klimatologi dan Geofisika",
						"logo": "Indonesia-Badan-Meteorologi-Klimatologi-dan-Geofisika.png"
					},
					{
						"url": "https://waqi.info/",
						"name": "World Air Quality Index Project"
					}
				],
				"averagingPeriod": {
					"unit": "day",
					"value": 1
				},
				"city": "Semarang, Indonesia",
				"coordinates": {
					"latitude": -6.985,
					"longitude": 110.381
				},
				"country": "ID",
				"date": {
					"local": "2025-03-09T06:00:00.000+00:00",
					"utc": "2025-03-08T23:00:00.000Z"
				},
				"location": "aqicn|13651",
				"isMobile": false,
				"parameter": "pm25",
				"sourceName": "aqicn",
				"entity": "other",
				"value": 9.1,
				"unit": "µg/m³"
			}
		],
		"pm25": {
			"attribution": [
				{
					"url": "http://www.bmkg.go.id/",
					"name": "BMKG | Badan Meteorologi, Klimatologi dan Geofisika",
					"logo": "Indonesia-Badan-Meteorologi-Klimatologi-dan-Geofisika.png"
				},
				{
					"url": "https://waqi.info/",
					"name": "World Air Quality Index Project"
				}
			],
			"averagingPeriod": {
				"unit": "day",
				"value": 1
			},
			"city": "Semarang, Indonesia",
			"coordinates": {
				"latitude": -6.985,
				"longitude": 110.381
			},
			"country": "ID",
			"date": {
				"local": "2025-03-09T06:00:00.000+00:00",
				"utc": "2025-03-08T23:00:00.000Z"
			},
			"location": "aqicn|13651",
			"isMobile": false,
			"parameter": "pm25",
			"sourceName": "aqicn",
			"entity": "other",
			"value": 9.1,
			"unit": "µg/m³"
		},
		"shootismoke": {
			"dailyCigarettes": 0.41363636363636364,
			"distanceToStation": 5,
			"isAccurate": true
		}
	}
}