{
	"country": "United Arab Emirates",
	"name": "Sharjah",
	"gps": {
		"latitude": 25.3714,
		"longitude": 55.4065
	},
	"slug": "sharjah",
	"adminName": "Ash Shāriqah",
	"photoUrl": "https://live.staticflickr.com/1657/26319068001_882d3e375b_m.jpg"
}