{
	"country": "China",
	"name": "Shenzhen",
	"gps": {
		"latitude": 22.5524,
		"longitude": 114.1221
	},
	"slug": "shenzhen",
	"adminName": "Guangdong",
	"photoUrl": "https://live.staticflickr.com/1807/42852454124_ae1fc4ac9c_m.jpg",
	"api": {
		"results": [
			{
				"attribution": [
					{
						"url": "http://meeb.sz.gov.cn/",
						"name": "Shenzhen Environment Network (深圳人居环境网)"
					},
					{
						"url": "http://gdee.gd.gov.cn/",
						"name": "Guangdong Environmental Protection public network (广东环境保护公众网)"
					},
					{
						"url": "https://waqi.info/",
						"name": "World Air Quality Index Project"
					}
				],
				"averagingPeriod": {
					"unit": "day",
					"value": 1
				},
				"city": "Honghu, Shenzhen (罗湖区 笋岗街道)",
				"coordinates": {
					"latitude": 22.562334,
					"longitude": 114.116872
				},
				"country": "CN",
				"date": {
					"local": "2025-03-09T09:00:00.000+00:00",
					"utc": "2025-03-09T01:00:00.000Z"
				},
				"location": "aqicn|928",
				"isMobile": false,
				"parameter": "co",
				"sourceName": "aqicn",
				"entity": "other",
				"value": 0.6,
				"unit": "ppb"
			},
			{
				"attribution": [
					{
						"url": "http://meeb.sz.gov.cn/",
						"name": "Shenzhen Environment Network (深圳人居环境网)"
					},
					{
						"url": "http://gdee.gd.gov.cn/",
						"name": "Guangdong Environmental Protection public network (广东环境保护公众网)"
					},
					{
						"url": "https://waqi.info/",
						"name": "World Air Quality Index Project"
					}
				],
				"averagingPeriod": {
					"unit": "day",
					"value": 1
				},
				"city": "Honghu, Shenzhen (罗湖区 笋岗街道)",
				"coordinates": {
					"latitude": 22.562334,
					"longitude": 114.116872
				},
				"country": "CN",
				"date": {
					"local": "2025-03-09T09:00:00.000+00:00",
					"utc": "2025-03-09T01:00:00.000Z"
				},
				"location": "aqicn|928",
				"isMobile": false,
				"parameter": "no2",
				"sourceName": "aqicn",
				"entity": "other",
				"value": 8.3,
				"unit": "ppb"
			},
			{
				"attribution": [
					{
						"url": "http://meeb.sz.gov.cn/",
						"name": "Shenzhen Environment Network (深圳人居环境网)"
					},
					{
						"url": "http://gdee.gd.gov.cn/",
						"name": "Guangdong Environmental Protection public network (广东环境保护公众网)"
					},
					{
						"url": "https://waqi.info/",
						"name": "World Air Quality Index Project"
					}
				],
				"averagingPeriod": {
					"unit": "day",
					"value": 1
				},
				"city": "Honghu, Shenzhen (罗湖区 笋岗街道)",
				"coordinates": {
					"latitude": 22.562334,
					"longitude": 114.116872
				},
				"country": "CN",
				"date": {
					"local": "2025-03-09T09:00:00.000+00:00",
					"utc": "2025-03-09T01:00:00.000Z"
				},
				"location": "aqicn|928",
				"isMobile": false,
				"parameter": "o3",
				"sourceName": "aqicn",
				"entity": "other",
				"value": 34.2,
				"unit": "ppb"
			},
			{
				"attribution": [
					{
						"url": "http://meeb.sz.gov.cn/",
						"name": "Shenzhen Environment Network (深圳人居环境网)"
					},
					{
						"url": "http://gdee.gd.gov.cn/",
						"name": "Guangdong Environmental Protection public network (广东环境保护公众网)"
					},
					{
						"url": "https://waqi.info/",
						"name": "World Air Quality Index Project"
					}
				],
				"averagingPeriod": {
					"unit": "day",
					"value": 1
				},
				"city": "Honghu, Shenzhen (罗湖区 笋岗街道)",
				"coordinates": {
					"latitude": 22.562334,
					"longitude": 114.116872
				},
				"country": "CN",
				"date": {
					"local": "2025-03-09T09:00:00.000+00:00",
					"utc": "2025-03-09T01:00:00.000Z"
				},
				"location": "aqicn|928",
				"isMobile": false,
				"parameter": "pm10",
				"sourceName": "aqicn",
				"entity": "other",
				"value": 33.5,
				"unit": "µg/m³"
			},
			{
				"attribution": [
					{
						"url": "http://meeb.sz.gov.cn/",
						"name": "Shenzhen Environment Network (深圳人居环境网)"
					},
					{
						"url": "http://gdee.gd.gov.cn/",
						"name": "Guangdong Environmental Protection public network (广东环境保护公众网)"
					},
					{
						"url": "https://waqi.info/",
						"name": "World Air Quality Index Project"
					}
				],
				"averagingPeriod": {
					"unit": "day",
					"value": 1
				},
				"city": "Honghu, Shenzhen (罗湖区 笋岗街道)",
				"coordinates": {
					"latitude": 22.562334,
					"longitude": 114.116872
				},
				"country": "CN",
				"date": {
					"local": "2025-03-09T09:00:00.000+00:00",
					"utc": "2025-03-09T01:00:00.000Z"
				},
				"location": "aqicn|928",
				"isMobile": false,
				"parameter": "pm25",
				"sourceName": "aqicn",
				"entity": "other",
				"value": 22.1,
				"unit": "µg/m³"
			},
			{
				"attribution": [
					{
						"url": "http://meeb.sz.gov.cn/",
						"name": "Shenzhen Environment Network (深圳人居环境网)"
					},
					{
						"url": "http://gdee.gd.gov.cn/",
						"name": "Guangdong Environmental Protection public network (广东环境保护公众网)"
					},
					{
						"url": "https://waqi.info/",
						"name": "World Air Quality Index Project"
					}
				],
				"averagingPeriod": {
					"unit": "day",
					"value": 1
				},
				"city": "Honghu, Shenzhen (罗湖区 笋岗街道)",
				"coordinates": {
					"latitude": 22.562334,
					"longitude": 114.116872
				},
				"country": "CN",
				"date": {
					"local": "2025-03-09T09:00:00.000+00:00",
					"utc": "2025-03-09T01:00:00.000Z"
				},
				"location": "aqicn|928",
				"isMobile": false,
				"parameter": "so2",
				"sourceName": "aqicn",
				"entity": "other",
				"value": 2.5,
				"unit": "ppb"
			}
		],
		"pm25": {
			"attribution": [
				{
					"url": "http://meeb.sz.gov.cn/",
					"name": "Shenzhen Environment Network (深圳人居环境网)"
				},
				{
					"url": "http://gdee.gd.gov.cn/",
					"name": "Guangdong Environmental Protection public network (广东环境保护公众网)"
				},
				{
					"url": "https://waqi.info/",
					"name": "World Air Quality Index Project"
				}
			],
			"averagingPeriod": {
				"unit": "day",
				"value": 1
			},
			"city": "Honghu, Shenzhen (罗湖区 笋岗街道)",
			"coordinates": {
				"latitude": 22.562334,
				"longitude": 114.116872
			},
			"country": "CN",
			"date": {
				"local": "2025-03-09T09:00:00.000+00:00",
				"utc": "2025-03-09T01:00:00.000Z"
			},
			"location": "aqicn|928",
			"isMobile": false,
			"parameter": "pm25",
			"sourceName": "aqicn",
			"entity": "other",
			"value": 22.1,
			"unit": "µg/m³"
		},
		"shootismoke": {
			"dailyCigarettes": 1.0045454545454546,
			"distanceToStation": 1,
			"isAccurate": true
		}
	}
}