{
	"country": "China",
	"name": "Shijiazhuang",
	"gps": {
		"latitude": 38.05,
		"longitude": 114.48
	},
	"slug": "shijiazhuang",
	"adminName": "Hebei",
	"photoUrl": "https://live.staticflickr.com/250/535912127_6b60612289_m.jpg",
	"api": {
		"results": [
			{
				"attribution": [
					{
						"url": "http://www.hebei.gov.cn/",
						"name": "Hebei Province Environment Protection Agency (河北省空气质量自动发布系统)"
					},
					{
						"url": "https://waqi.info/",
						"name": "World Air Quality Index Project"
					}
				],
				"averagingPeriod": {
					"unit": "day",
					"value": 1
				},
				"city": "Worker hospital, Shijiazhuang (石家庄市职工医院)",
				"coordinates": {
					"latitude": 38.051,
					"longitude": 114.455
				},
				"country": "CN",
				"date": {
					"local": "2025-03-09T09:00:00.000+00:00",
					"utc": "2025-03-09T01:00:00.000Z"
				},
				"location": "aqicn|644",
				"isMobile": false,
				"parameter": "co",
				"sourceName": "aqicn",
				"entity": "other",
				"value": 0.6,
				"unit": "ppb"
			},
			{
				"attribution": [
					{
						"url": "http://www.hebei.gov.cn/",
						"name": "Hebei Province Environment Protection Agency (河北省空气质量自动发布系统)"
					},
					{
						"url": "https://waqi.info/",
						"name": "World Air Quality Index Project"
					}
				],
				"averagingPeriod": {
					"unit": "day",
					"value": 1
				},
				"city": "Worker hospital, Shijiazhuang (石家庄市职工医院)",
				"coordinates": {
					"latitude": 38.051,
					"longitude": 114.455
				},
				"country": "CN",
				"date": {
					"local": "2025-03-09T09:00:00.000+00:00",
					"utc": "2025-03-09T01:00:00.000Z"
				},
				"location": "aqicn|644",
				"isMobile": false,
				"parameter": "no2",
				"sourceName": "aqicn",
				"entity": "other",
				"value": 9.2,
				"unit": "ppb"
			},
			{
				"attribution": [
					{
						"url": "http://www.hebei.gov.cn/",
						"name": "Hebei Province Environment Protection Agency (河北省空气质量自动发布系统)"
					},
					{
						"url": "https://waqi.info/",
						"name": "World Air Quality Index Project"
					}
				],
				"averagingPeriod": {
					"unit": "day",
					"value": 1
				},
				"city": "Worker hospital, Shijiazhuang (石家庄市职工医院)",
				"coordinates": {
					"latitude": 38.051,
					"longitude": 114.455
				},
				"country": "CN",
				"date": {
					"local": "2025-03-09T09:00:00.000+00:00",
					"utc": "2025-03-09T01:00:00.000Z"
				},
				"location": "aqicn|644",
				"isMobile": false,
				"parameter": "o3",
				"sourceName": "aqicn",
				"entity": "other",
				"value": 25.5,
				"unit": "ppb"
			},
			{
				"attribution": [
					{
						"url": "http://www.hebei.gov.cn/",
						"name": "Hebei Province Environment Protection Agency (河北省空气质量自动发布系统)"
					},
					{
						"url": "https://waqi.info/",
						"name": "World Air Quality Index Project"
					}
				],
				"averagingPeriod": {
					"unit": "day",
					"value": 1
				},
				"city": "Worker hospital, Shijiazhuang (石家庄市职工医院)",
				"coordinates": {
					"latitude": 38.051,
					"longitude": 114.455
				},
				"country": "CN",
				"date": {
					"local": "2025-03-09T09:00:00.000+00:00",
					"utc": "2025-03-09T01:00:00.000Z"
				},
				"location": "aqicn|644",
				"isMobile": false,
				"parameter": "pm10",
				"sourceName": "aqicn",
				"entity": "other",
				"value": 85.3,
				"unit": "µg/m³"
			},
			{
				"attribution": [
					{
						"url": "http://www.hebei.gov.cn/",
						"name": "Hebei Province Environment Protection Agency (河北省空气质量自动发布系统)"
					},
					{
						"url": "https://waqi.info/",
						"name": "World Air Quality Index Project"
					}
				],
				"averagingPeriod": {
					"unit": "day",
					"value": 1
				},
				"city": "Worker hospital, Shijiazhuang (石家庄市职工医院)",
				"coordinates": {
					"latitude": 38.051,
					"longitude": 114.455
				},
				"country": "CN",
				"date": {
					"local": "2025-03-09T09:00:00.000+00:00",
					"utc": "2025-03-09T01:00:00.000Z"
				},
				"location": "aqicn|644",
				"isMobile": false,
				"parameter": "pm25",
				"sourceName": "aqicn",
				"entity": "other",
				"value": 67.1,
				"unit": "µg/m³"
			},
			{
				"attribution": [
					{
						"url": "http://www.hebei.gov.cn/",
						"name": "Hebei Province Environment Protection Agency (河北省空气质量自动发布系统)"
					},
					{
						"url": "https://waqi.info/",
						"name": "World Air Quality Index Project"
					}
				],
				"averagingPeriod": {
					"unit": "day",
					"value": 1
				},
				"city": "Worker hospital, Shijiazhuang (石家庄市职工医院)",
				"coordinates": {
					"latitude": 38.051,
					"longitude": 114.455
				},
				"country": "CN",
				"date": {
					"local": "2025-03-09T09:00:00.000+00:00",
					"utc": "2025-03-09T01:00:00.000Z"
				},
				"location": "aqicn|644",
				"isMobile": false,
				"parameter": "so2",
				"sourceName": "aqicn",
				"entity": "other",
				"value": 2.5,
				"unit": "ppb"
			}
		],
		"pm25": {
			"attribution": [
				{
					"url": "http://www.hebei.gov.cn/",
					"name": "Hebei Province Environment Protection Agency (河北省空气质量自动发布系统)"
				},
				{
					"url": "https://waqi.info/",
					"name": "World Air Quality Index Project"
				}
			],
			"averagingPeriod": {
				"unit": "day",
				"value": 1
			},
			"city": "Worker hospital, Shijiazhuang (石家庄市职工医院)",
			"coordinates": {
				"latitude": 38.051,
				"longitude": 114.455
			},
			"country": "CN",
			"date": {
				"local": "2025-03-09T09:00:00.000+00:00",
				"utc": "2025-03-09T01:00:00.000Z"
			},
			"location": "aqicn|644",
			"isMobile": false,
			"parameter": "pm25",
			"sourceName": "aqicn",
			"entity": "other",
			"value": 67.1,
			"unit": "µg/m³"
		},
		"shootismoke": {
			"dailyCigarettes": 3.05,
			"distanceToStation": 2,
			"isAccurate": true
		}
	}
}