{
	"country": "India",
	"name": "Shimoga",
	"gps": {
		"latitude": 13.9304,
		"longitude": 75.56
	},
	"slug": "shimoga",
	"adminName": "Karnātaka",
	"photoUrl": "https://live.staticflickr.com/6083/6160997553_b7e637ee8d_m.jpg",
	"api": {
		"results": [
			{
				"attribution": [
					{
						"url": "http://cpcb.nic.in/",
						"name": "CPCB - India Central Pollution Control Board",
						"logo": "India-CPCB.png"
					},
					{
						"url": "https://waqi.info/",
						"name": "World Air Quality Index Project"
					}
				],
				"averagingPeriod": {
					"unit": "day",
					"value": 1
				},
				"city": "Vinoba Nagara, Shivamogga, India",
				"coordinates": {
					"latitude": 13.94,
					"longitude": 75.555917
				},
				"country": "IN",
				"date": {
					"local": "2025-03-09T04:30:00.000+00:00",
					"utc": "2025-03-08T23:00:00.000Z"
				},
				"location": "aqicn|13695",
				"isMobile": false,
				"parameter": "co",
				"sourceName": "aqicn",
				"entity": "other",
				"value": 0.4,
				"unit": "ppb"
			},
			{
				"attribution": [
					{
						"url": "http://cpcb.nic.in/",
						"name": "CPCB - India Central Pollution Control Board",
						"logo": "India-CPCB.png"
					},
					{
						"url": "https://waqi.info/",
						"name": "World Air Quality Index Project"
					}
				],
				"averagingPeriod": {
					"unit": "day",
					"value": 1
				},
				"city": "Vinoba Nagara, Shivamogga, India",
				"coordinates": {
					"latitude": 13.94,
					"longitude": 75.555917
				},
				"country": "IN",
				"date": {
					"local": "2025-03-09T04:30:00.000+00:00",
					"utc": "2025-03-08T23:00:00.000Z"
				},
				"location": "aqicn|13695",
				"isMobile": false,
				"parameter": "no2",
				"sourceName": "aqicn",
				"entity": "other",
				"value": 11.4,
				"unit": "ppb"
			},
			{
				"attribution": [
					{
						"url": "http://cpcb.nic.in/",
						"name": "CPCB - India Central Pollution Control Board",
						"logo": "India-CPCB.png"
					},
					{
						"url": "https://waqi.info/",
						"name": "World Air Quality Index Project"
					}
				],
				"averagingPeriod": {
					"unit": "day",
					"value": 1
				},
				"city": "Vinoba Nagara, Shivamogga, India",
				"coordinates": {
					"latitude": 13.94,
					"longitude": 75.555917
				},
				"country": "IN",
				"date": {
					"local": "2025-03-09T04:30:00.000+00:00",
					"utc": "2025-03-08T23:00:00.000Z"
				},
				"location": "aqicn|13695",
				"isMobile": false,
				"parameter": "o3",
				"sourceName": "aqicn",
				"entity": "other",
				"value": 15.6,
				"unit": "ppb"
			},
			{
				"attribution": [
					{
						"url": "http://cpcb.nic.in/",
						"name": "CPCB - India Central Pollution Control Board",
						"logo": "India-CPCB.png"
					},
					{
						"url": "https://waqi.info/",
						"name": "World Air Quality Index Project"
					}
				],
				"averagingPeriod": {
					"unit": "day",
					"value": 1
				},
				"city": "Vinoba Nagara, Shivamogga, India",
				"coordinates": {
					"latitude": 13.94,
					"longitude": 75.555917
				},
				"country": "IN",
				"date": {
					"local": "2025-03-09T04:30:00.000+00:00",
					"utc": "2025-03-08T23:00:00.000Z"
				},
				"location": "aqicn|13695",
				"isMobile": false,
				"parameter": "pm10",
				"sourceName": "aqicn",
				"entity": "other",
				"value": 57,
				"unit": "µg/m³"
			},
			{
				"attribution": [
					{
						"url": "http://cpcb.nic.in/",
						"name": "CPCB - India Central Pollution Control Board",
						"logo": "India-CPCB.png"
					},
					{
						"url": "https://waqi.info/",
						"name": "World Air Quality Index Project"
					}
				],
				"averagingPeriod": {
					"unit": "day",
					"value": 1
				},
				"city": "Vinoba Nagara, Shivamogga, India",
				"coordinates": {
					"latitude": 13.94,
					"longitude": 75.555917
				},
				"country": "IN",
				"date": {
					"local": "2025-03-09T04:30:00.000+00:00",
					"utc": "2025-03-08T23:00:00.000Z"
				},
				"location": "aqicn|13695",
				"isMobile": false,
				"parameter": "pm25",
				"sourceName": "aqicn",
				"entity": "other",
				"value": 23.5,
				"unit": "µg/m³"
			},
			{
				"attribution": [
					{
						"url": "http://cpcb.nic.in/",
						"name": "CPCB - India Central Pollution Control Board",
						"logo": "India-CPCB.png"
					},
					{
						"url": "https://waqi.info/",
						"name": "World Air Quality Index Project"
					}
				],
				"averagingPeriod": {
					"unit": "day",
					"value": 1
				},
				"city": "Vinoba Nagara, Shivamogga, India",
				"coordinates": {
					"latitude": 13.94,
					"longitude": 75.555917
				},
				"country": "IN",
				"date": {
					"local": "2025-03-09T04:30:00.000+00:00",
					"utc": "2025-03-08T23:00:00.000Z"
				},
				"location": "aqicn|13695",
				"isMobile": false,
				"parameter": "so2",
				"sourceName": "aqicn",
				"entity": "other",
				"value": 1.1,
				"unit": "ppb"
			}
		],
		"pm25": {
			"attribution": [
				{
					"url": "http://cpcb.nic.in/",
					"name": "CPCB - India Central Pollution Control Board",
					"logo": "India-CPCB.png"
				},
				{
					"url": "https://waqi.info/",
					"name": "World Air Quality Index Project"
				}
			],
			"averagingPeriod": {
				"unit": "day",
				"value": 1
			},
			"city": "Vinoba Nagara, Shivamogga, India",
			"coordinates": {
				"latitude": 13.94,
				"longitude": 75.555917
			},
			"country": "IN",
			"date": {
				"local": "2025-03-09T04:30:00.000+00:00",
				"utc": "2025-03-08T23:00:00.000Z"
			},
			"location": "aqicn|13695",
			"isMobile": false,
			"parameter": "pm25",
			"sourceName": "aqicn",
			"entity": "other",
			"value": 23.5,
			"unit": "µg/m³"
		},
		"shootismoke": {
			"dailyCigarettes": 1.0681818181818181,
			"distanceToStation": 1,
			"isAccurate": true
		}
	}
}