{
	"country": "China",
	"name": "Siping",
	"gps": {
		"latitude": 43.17,
		"longitude": 124.33
	},
	"slug": "siping",
	"adminName": "Jilin",
	"photoUrl": "https://live.staticflickr.com/2806/34015360896_f62c9eea98_m.jpg"
}