{
	"country": "Taiwan",
	"name": "Taipei",
	"gps": {
		"latitude": 25.0358,
		"longitude": 121.5683
	},
	"slug": "taipei",
	"adminName": "Taipei",
	"photoUrl": "https://live.staticflickr.com/1527/24149355269_6acca9bcf0_m.jpg",
	"api": {
		"results": [
			{
				"attribution": [
					{
						"url": "http://www.epa.gov.tw/",
						"name": "TAQM - Taiwan Environmental Protection Agency (行政院環保署－空氣品質監測網)",
						"logo": "Taiwan-EPA.png"
					},
					{
						"url": "https://waqi.info/",
						"name": "World Air Quality Index Project"
					}
				],
				"averagingPeriod": {
					"unit": "day",
					"value": 1
				},
				"city": "Songshan, Taiwan (松山)",
				"coordinates": {
					"latitude": 25.05,
					"longitude": 121.578611
				},
				"country": "CN",
				"date": {
					"local": "2025-03-09T09:00:00.000+00:00",
					"utc": "2025-03-09T01:00:00.000Z"
				},
				"location": "aqicn|1600",
				"isMobile": false,
				"parameter": "co",
				"sourceName": "aqicn",
				"entity": "other",
				"value": 0.3,
				"unit": "ppb"
			},
			{
				"attribution": [
					{
						"url": "http://www.epa.gov.tw/",
						"name": "TAQM - Taiwan Environmental Protection Agency (行政院環保署－空氣品質監測網)",
						"logo": "Taiwan-EPA.png"
					},
					{
						"url": "https://waqi.info/",
						"name": "World Air Quality Index Project"
					}
				],
				"averagingPeriod": {
					"unit": "day",
					"value": 1
				},
				"city": "Songshan, Taiwan (松山)",
				"coordinates": {
					"latitude": 25.05,
					"longitude": 121.578611
				},
				"country": "CN",
				"date": {
					"local": "2025-03-09T09:00:00.000+00:00",
					"utc": "2025-03-09T01:00:00.000Z"
				},
				"location": "aqicn|1600",
				"isMobile": false,
				"parameter": "no2",
				"sourceName": "aqicn",
				"entity": "other",
				"value": 11.3,
				"unit": "ppb"
			},
			{
				"attribution": [
					{
						"url": "http://www.epa.gov.tw/",
						"name": "TAQM - Taiwan Environmental Protection Agency (行政院環保署－空氣品質監測網)",
						"logo": "Taiwan-EPA.png"
					},
					{
						"url": "https://waqi.info/",
						"name": "World Air Quality Index Project"
					}
				],
				"averagingPeriod": {
					"unit": "day",
					"value": 1
				},
				"city": "Songshan, Taiwan (松山)",
				"coordinates": {
					"latitude": 25.05,
					"longitude": 121.578611
				},
				"country": "CN",
				"date": {
					"local": "2025-03-09T09:00:00.000+00:00",
					"utc": "2025-03-09T01:00:00.000Z"
				},
				"location": "aqicn|1600",
				"isMobile": false,
				"parameter": "o3",
				"sourceName": "aqicn",
				"entity": "other",
				"value": 32.7,
				"unit": "ppb"
			},
			{
				"attribution": [
					{
						"url": "http://www.epa.gov.tw/",
						"name": "TAQM - Taiwan Environmental Protection Agency (行政院環保署－空氣品質監測網)",
						"logo": "Taiwan-EPA.png"
					},
					{
						"url": "https://waqi.info/",
						"name": "World Air Quality Index Project"
					}
				],
				"averagingPeriod": {
					"unit": "day",
					"value": 1
				},
				"city": "Songshan, Taiwan (松山)",
				"coordinates": {
					"latitude": 25.05,
					"longitude": 121.578611
				},
				"country": "CN",
				"date": {
					"local": "2025-03-09T09:00:00.000+00:00",
					"utc": "2025-03-09T01:00:00.000Z"
				},
				"location": "aqicn|1600",
				"isMobile": false,
				"parameter": "pm10",
				"sourceName": "aqicn",
				"entity": "other",
				"value": 21.6,
				"unit": "µg/m³"
			},
			{
				"attribution": [
					{
						"url": "http://www.epa.gov.tw/",
						"name": "TAQM - Taiwan Environmental Protection Agency (行政院環保署－空氣品質監測網)",
						"logo": "Taiwan-EPA.png"
					},
					{
						"url": "https://waqi.info/",
						"name": "World Air Quality Index Project"
					}
				],
				"averagingPeriod": {
					"unit": "day",
					"value": 1
				},
				"city": "Songshan, Taiwan (松山)",
				"coordinates": {
					"latitude": 25.05,
					"longitude": 121.578611
				},
				"country": "CN",
				"date": {
					"local": "2025-03-09T09:00:00.000+00:00",
					"utc": "2025-03-09T01:00:00.000Z"
				},
				"location": "aqicn|1600",
				"isMobile": false,
				"parameter": "pm25",
				"sourceName": "aqicn",
				"entity": "other",
				"value": 7.2,
				"unit": "µg/m³"
			},
			{
				"attribution": [
					{
						"url": "http://www.epa.gov.tw/",
						"name": "TAQM - Taiwan Environmental Protection Agency (行政院環保署－空氣品質監測網)",
						"logo": "Taiwan-EPA.png"
					},
					{
						"url": "https://waqi.info/",
						"name": "World Air Quality Index Project"
					}
				],
				"averagingPeriod": {
					"unit": "day",
					"value": 1
				},
				"city": "Songshan, Taiwan (松山)",
				"coordinates": {
					"latitude": 25.05,
					"longitude": 121.578611
				},
				"country": "CN",
				"date": {
					"local": "2025-03-09T09:00:00.000+00:00",
					"utc": "2025-03-09T01:00:00.000Z"
				},
				"location": "aqicn|1600",
				"isMobile": false,
				"parameter": "so2",
				"sourceName": "aqicn",
				"entity": "other",
				"value": 1.8,
				"unit": "ppb"
			}
		],
		"pm25": {
			"attribution": [
				{
					"url": "http://www.epa.gov.tw/",
					"name": "TAQM - Taiwan Environmental Protection Agency (行政院環保署－空氣品質監測網)",
					"logo": "Taiwan-EPA.png"
				},
				{
					"url": "https://waqi.info/",
					"name": "World Air Quality Index Project"
				}
			],
			"averagingPeriod": {
				"unit": "day",
				"value": 1
			},
			"city": "Songshan, Taiwan (松山)",
			"coordinates": {
				"latitude": 25.05,
				"longitude": 121.578611
			},
			"country": "CN",
			"date": {
				"local": "2025-03-09T09:00:00.000+00:00",
				"utc": "2025-03-09T01:00:00.000Z"
			},
			"location": "aqicn|1600",
			"isMobile": false,
			"parameter": "pm25",
			"sourceName": "aqicn",
			"entity": "other",
			"value": 7.2,
			"unit": "µg/m³"
		},
		"shootismoke": {
			"dailyCigarettes": 0.32727272727272727,
			"distanceToStation": 2,
			"isAccurate": true
		}
	}
}