{
	"country": "Estonia",
	"name": "Tallinn",
	"gps": {
		"latitude": 59.4339,
		"longitude": 24.728
	},
	"slug": "tallinn",
	"adminName": "Harjumaa",
	"photoUrl": "https://live.staticflickr.com/1953/45178930522_cf3491994d_m.jpg",
	"api": {
		"results": [
			{
				"attribution": [
					{
						"url": "http://airviro.klab.ee/",
						"name": "Eesti välisõhu kvaliteet - Estonian ambient air quality",
						"logo": "Estonia-EKUK.png"
					},
					{
						"url": "https://waqi.info/",
						"name": "World Air Quality Index Project"
					}
				],
				"averagingPeriod": {
					"unit": "day",
					"value": 1
				},
				"city": "Rahu, Estonia",
				"coordinates": {
					"latitude": 59.447293,
					"longitude": 24.715126
				},
				"country": "EE",
				"date": {
					"local": "2025-03-08T21:00:00.000+00:00",
					"utc": "2025-03-08T19:00:00.000Z"
				},
				"location": "aqicn|9461",
				"isMobile": false,
				"parameter": "no2",
				"sourceName": "aqicn",
				"entity": "other",
				"value": 4.3,
				"unit": "ppb"
			},
			{
				"attribution": [
					{
						"url": "http://airviro.klab.ee/",
						"name": "Eesti välisõhu kvaliteet - Estonian ambient air quality",
						"logo": "Estonia-EKUK.png"
					},
					{
						"url": "https://waqi.info/",
						"name": "World Air Quality Index Project"
					}
				],
				"averagingPeriod": {
					"unit": "day",
					"value": 1
				},
				"city": "Rahu, Estonia",
				"coordinates": {
					"latitude": 59.447293,
					"longitude": 24.715126
				},
				"country": "EE",
				"date": {
					"local": "2025-03-08T21:00:00.000+00:00",
					"utc": "2025-03-08T19:00:00.000Z"
				},
				"location": "aqicn|9461",
				"isMobile": false,
				"parameter": "o3",
				"sourceName": "aqicn",
				"entity": "other",
				"value": 35,
				"unit": "ppb"
			},
			{
				"attribution": [
					{
						"url": "http://airviro.klab.ee/",
						"name": "Eesti välisõhu kvaliteet - Estonian ambient air quality",
						"logo": "Estonia-EKUK.png"
					},
					{
						"url": "https://waqi.info/",
						"name": "World Air Quality Index Project"
					}
				],
				"averagingPeriod": {
					"unit": "day",
					"value": 1
				},
				"city": "Rahu, Estonia",
				"coordinates": {
					"latitude": 59.447293,
					"longitude": 24.715126
				},
				"country": "EE",
				"date": {
					"local": "2025-03-08T21:00:00.000+00:00",
					"utc": "2025-03-08T19:00:00.000Z"
				},
				"location": "aqicn|9461",
				"isMobile": false,
				"parameter": "pm10",
				"sourceName": "aqicn",
				"entity": "other",
				"value": 22.7,
				"unit": "µg/m³"
			},
			{
				"attribution": [
					{
						"url": "http://airviro.klab.ee/",
						"name": "Eesti välisõhu kvaliteet - Estonian ambient air quality",
						"logo": "Estonia-EKUK.png"
					},
					{
						"url": "https://waqi.info/",
						"name": "World Air Quality Index Project"
					}
				],
				"averagingPeriod": {
					"unit": "day",
					"value": 1
				},
				"city": "Rahu, Estonia",
				"coordinates": {
					"latitude": 59.447293,
					"longitude": 24.715126
				},
				"country": "EE",
				"date": {
					"local": "2025-03-08T21:00:00.000+00:00",
					"utc": "2025-03-08T19:00:00.000Z"
				},
				"location": "aqicn|9461",
				"isMobile": false,
				"parameter": "pm25",
				"sourceName": "aqicn",
				"entity": "other",
				"value": 12,
				"unit": "µg/m³"
			},
			{
				"attribution": [
					{
						"url": "http://airviro.klab.ee/",
						"name": "Eesti välisõhu kvaliteet - Estonian ambient air quality",
						"logo": "Estonia-EKUK.png"
					},
					{
						"url": "https://waqi.info/",
						"name": "World Air Quality Index Project"
					}
				],
				"averagingPeriod": {
					"unit": "day",
					"value": 1
				},
				"city": "Rahu, Estonia",
				"coordinates": {
					"latitude": 59.447293,
					"longitude": 24.715126
				},
				"country": "EE",
				"date": {
					"local": "2025-03-08T21:00:00.000+00:00",
					"utc": "2025-03-08T19:00:00.000Z"
				},
				"location": "aqicn|9461",
				"isMobile": false,
				"parameter": "so2",
				"sourceName": "aqicn",
				"entity": "other",
				"value": 0.1,
				"unit": "ppb"
			}
		],
		"pm25": {
			"attribution": [
				{
					"url": "http://airviro.klab.ee/",
					"name": "Eesti välisõhu kvaliteet - Estonian ambient air quality",
					"logo": "Estonia-EKUK.png"
				},
				{
					"url": "https://waqi.info/",
					"name": "World Air Quality Index Project"
				}
			],
			"averagingPeriod": {
				"unit": "day",
				"value": 1
			},
			"city": "Rahu, Estonia",
			"coordinates": {
				"latitude": 59.447293,
				"longitude": 24.715126
			},
			"country": "EE",
			"date": {
				"local": "2025-03-08T21:00:00.000+00:00",
				"utc": "2025-03-08T19:00:00.000Z"
			},
			"location": "aqicn|9461",
			"isMobile": false,
			"parameter": "pm25",
			"sourceName": "aqicn",
			"entity": "other",
			"value": 12,
			"unit": "µg/m³"
		},
		"shootismoke": {
			"dailyCigarettes": 0.5454545454545454,
			"distanceToStation": 2,
			"isAccurate": true
		}
	}
}