{
	"country": "Morocco",
	"name": "Tangier",
	"gps": {
		"latitude": 35.7473,
		"longitude": -5.8327
	},
	"slug": "tangier",
	"adminName": "Tanger-Tétouan-Al Hoceïma",
	"photoUrl": "https://live.staticflickr.com/5562/14774205689_30f46a0295_m.jpg"
}