{
	"country": "China",
	"name": "Tangshan",
	"gps": {
		"latitude": 39.6243,
		"longitude": 118.1944
	},
	"slug": "tangshan",
	"adminName": "Hebei",
	"photoUrl": "https://live.staticflickr.com/8512/28440861693_ab6680f096_m.jpg"
}