{
	"country": "Bhutan",
	"name": "Thimphu",
	"gps": {
		"latitude": 27.473,
		"longitude": 89.639
	},
	"slug": "thimphu",
	"adminName": "Thimphu",
	"photoUrl": "https://live.staticflickr.com/7170/6774662621_ddcdb33ab9_m.jpg"
}