{
	"country": "Mexico",
	"name": "Tijuana",
	"gps": {
		"latitude": 32.5,
		"longitude": -117.08
	},
	"slug": "tijuana",
	"adminName": "Baja California",
	"photoUrl": "https://live.staticflickr.com/168/416285330_16872a14c6_m.jpg"
}