{
	"country": "India",
	"name": "Tiruppūr",
	"gps": {
		"latitude": 11.0804,
		"longitude": 77.33
	},
	"slug": "tiruppur",
	"adminName": "Tamil Nādu ",
	"photoUrl": "https://live.staticflickr.com/8193/8124180061_cea0287f1d_m.jpg",
	"api": {
		"results": [
			{
				"attribution": [
					{
						"url": "http://cpcb.nic.in/",
						"name": "CPCB - India Central Pollution Control Board",
						"logo": "India-CPCB.png"
					},
					{
						"url": "https://waqi.info/",
						"name": "World Air Quality Index Project"
					}
				],
				"averagingPeriod": {
					"unit": "day",
					"value": 1
				},
				"city": "Kumaran College, Tirupur, India",
				"coordinates": {
					"latitude": 11.0973603,
					"longitude": 77.3228673
				},
				"country": "IN",
				"date": {
					"local": "2025-03-09T04:30:00.000+00:00",
					"utc": "2025-03-08T23:00:00.000Z"
				},
				"location": "aqicn|14142",
				"isMobile": false,
				"parameter": "co",
				"sourceName": "aqicn",
				"entity": "other",
				"value": 1.4,
				"unit": "ppb"
			},
			{
				"attribution": [
					{
						"url": "http://cpcb.nic.in/",
						"name": "CPCB - India Central Pollution Control Board",
						"logo": "India-CPCB.png"
					},
					{
						"url": "https://waqi.info/",
						"name": "World Air Quality Index Project"
					}
				],
				"averagingPeriod": {
					"unit": "day",
					"value": 1
				},
				"city": "Kumaran College, Tirupur, India",
				"coordinates": {
					"latitude": 11.0973603,
					"longitude": 77.3228673
				},
				"country": "IN",
				"date": {
					"local": "2025-03-09T04:30:00.000+00:00",
					"utc": "2025-03-08T23:00:00.000Z"
				},
				"location": "aqicn|14142",
				"isMobile": false,
				"parameter": "no2",
				"sourceName": "aqicn",
				"entity": "other",
				"value": 5.9,
				"unit": "ppb"
			},
			{
				"attribution": [
					{
						"url": "http://cpcb.nic.in/",
						"name": "CPCB - India Central Pollution Control Board",
						"logo": "India-CPCB.png"
					},
					{
						"url": "https://waqi.info/",
						"name": "World Air Quality Index Project"
					}
				],
				"averagingPeriod": {
					"unit": "day",
					"value": 1
				},
				"city": "Kumaran College, Tirupur, India",
				"coordinates": {
					"latitude": 11.0973603,
					"longitude": 77.3228673
				},
				"country": "IN",
				"date": {
					"local": "2025-03-09T04:30:00.000+00:00",
					"utc": "2025-03-08T23:00:00.000Z"
				},
				"location": "aqicn|14142",
				"isMobile": false,
				"parameter": "o3",
				"sourceName": "aqicn",
				"entity": "other",
				"value": 0.1,
				"unit": "ppb"
			},
			{
				"attribution": [
					{
						"url": "http://cpcb.nic.in/",
						"name": "CPCB - India Central Pollution Control Board",
						"logo": "India-CPCB.png"
					},
					{
						"url": "https://waqi.info/",
						"name": "World Air Quality Index Project"
					}
				],
				"averagingPeriod": {
					"unit": "day",
					"value": 1
				},
				"city": "Kumaran College, Tirupur, India",
				"coordinates": {
					"latitude": 11.0973603,
					"longitude": 77.3228673
				},
				"country": "IN",
				"date": {
					"local": "2025-03-09T04:30:00.000+00:00",
					"utc": "2025-03-08T23:00:00.000Z"
				},
				"location": "aqicn|14142",
				"isMobile": false,
				"parameter": "pm10",
				"sourceName": "aqicn",
				"entity": "other",
				"value": 157,
				"unit": "µg/m³"
			},
			{
				"attribution": [
					{
						"url": "http://cpcb.nic.in/",
						"name": "CPCB - India Central Pollution Control Board",
						"logo": "India-CPCB.png"
					},
					{
						"url": "https://waqi.info/",
						"name": "World Air Quality Index Project"
					}
				],
				"averagingPeriod": {
					"unit": "day",
					"value": 1
				},
				"city": "Kumaran College, Tirupur, India",
				"coordinates": {
					"latitude": 11.0973603,
					"longitude": 77.3228673
				},
				"country": "IN",
				"date": {
					"local": "2025-03-09T04:30:00.000+00:00",
					"utc": "2025-03-08T23:00:00.000Z"
				},
				"location": "aqicn|14142",
				"isMobile": false,
				"parameter": "pm25",
				"sourceName": "aqicn",
				"entity": "other",
				"value": 9.4,
				"unit": "µg/m³"
			},
			{
				"attribution": [
					{
						"url": "http://cpcb.nic.in/",
						"name": "CPCB - India Central Pollution Control Board",
						"logo": "India-CPCB.png"
					},
					{
						"url": "https://waqi.info/",
						"name": "World Air Quality Index Project"
					}
				],
				"averagingPeriod": {
					"unit": "day",
					"value": 1
				},
				"city": "Kumaran College, Tirupur, India",
				"coordinates": {
					"latitude": 11.0973603,
					"longitude": 77.3228673
				},
				"country": "IN",
				"date": {
					"local": "2025-03-09T04:30:00.000+00:00",
					"utc": "2025-03-08T23:00:00.000Z"
				},
				"location": "aqicn|14142",
				"isMobile": false,
				"parameter": "so2",
				"sourceName": "aqicn",
				"entity": "other",
				"value": 1.8,
				"unit": "ppb"
			}
		],
		"pm25": {
			"attribution": [
				{
					"url": "http://cpcb.nic.in/",
					"name": "CPCB - India Central Pollution Control Board",
					"logo": "India-CPCB.png"
				},
				{
					"url": "https://waqi.info/",
					"name": "World Air Quality Index Project"
				}
			],
			"averagingPeriod": {
				"unit": "day",
				"value": 1
			},
			"city": "Kumaran College, Tirupur, India",
			"coordinates": {
				"latitude": 11.0973603,
				"longitude": 77.3228673
			},
			"country": "IN",
			"date": {
				"local": "2025-03-09T04:30:00.000+00:00",
				"utc": "2025-03-08T23:00:00.000Z"
			},
			"location": "aqicn|14142",
			"isMobile": false,
			"parameter": "pm25",
			"sourceName": "aqicn",
			"entity": "other",
			"value": 9.4,
			"unit": "µg/m³"
		},
		"shootismoke": {
			"dailyCigarettes": 0.4272727272727273,
			"distanceToStation": 2,
			"isAccurate": true
		}
	}
}