{
	"adminName": "Samarskaya Oblast’",
	"country": "Russia",
	"name": "Tol’yatti",
	"gps": {
		"latitude": 53.4804,
		"longitude": 49.53
	},
	"photoUrl": "https://live.staticflickr.com/3955/15523519469_a1b1e39761_m.jpg",
	"slug": "tol-yatti"
}