{
	"country": "United States",
	"name": "Tucson",
	"gps": {
		"latitude": 32.1545,
		"longitude": -110.8782
	},
	"slug": "tucson",
	"adminName": "Arizona",
	"photoUrl": "https://live.staticflickr.com/7318/11298876553_d4187e6e59_m.jpg"
}