{
	"country": "Korea, South",
	"name": "Ulsan",
	"gps": {
		"latitude": 35.5467,
		"longitude": 129.317
	},
	"slug": "ulsan",
	"adminName": "Ulsan",
	"photoUrl": "https://live.staticflickr.com/6167/6168833927_3e2cf503e9_m.jpg"
}