{
	"country": "Japan",
	"name": "Utsunomiya",
	"gps": {
		"latitude": 36.55,
		"longitude": 139.87
	},
	"slug": "utsunomiya",
	"adminName": "Tochigi",
	"photoUrl": "https://live.staticflickr.com/2190/2292724418_0c159746d3_m.jpg"
}