{
	"country": "Nigeria",
	"name": "Uyo",
	"gps": {
		"latitude": 5.008,
		"longitude": 7.85
	},
	"slug": "uyo",
	"adminName": "Akwa Ibom",
	"photoUrl": "https://live.staticflickr.com/4081/5487873086_89e917706c_m.jpg"
}