{
	"country": "Malta",
	"name": "Valletta",
	"gps": {
		"latitude": 35.8997,
		"longitude": 14.5147
	},
	"slug": "valletta",
	"adminName": "Valletta",
	"photoUrl": "https://live.staticflickr.com/7093/27135149033_aa4e11e74c_m.jpg",
	"api": {
		"results": [
			{
				"attribution": [
					{
						"url": "https://era.org.mt/",
						"name": "ERA - Malta Environment & Resources Authority",
						"logo": "Malta-Era.png"
					},
					{
						"url": "http://www.eea.europa.eu/themes/air/",
						"name": "European Environment Agency",
						"logo": "Europe-EEA.png"
					},
					{
						"url": "https://waqi.info/",
						"name": "World Air Quality Index Project"
					}
				],
				"averagingPeriod": {
					"unit": "day",
					"value": 1
				},
				"city": "Msida, Malta",
				"coordinates": {
					"latitude": 35.897778,
					"longitude": 14.489444
				},
				"country": "MT",
				"date": {
					"local": "2025-03-08T17:00:00.000+00:00",
					"utc": "2025-03-08T16:00:00.000Z"
				},
				"location": "aqicn|6432",
				"isMobile": false,
				"parameter": "co",
				"sourceName": "aqicn",
				"entity": "other",
				"value": 0,
				"unit": "ppb"
			},
			{
				"attribution": [
					{
						"url": "https://era.org.mt/",
						"name": "ERA - Malta Environment & Resources Authority",
						"logo": "Malta-Era.png"
					},
					{
						"url": "http://www.eea.europa.eu/themes/air/",
						"name": "European Environment Agency",
						"logo": "Europe-EEA.png"
					},
					{
						"url": "https://waqi.info/",
						"name": "World Air Quality Index Project"
					}
				],
				"averagingPeriod": {
					"unit": "day",
					"value": 1
				},
				"city": "Msida, Malta",
				"coordinates": {
					"latitude": 35.897778,
					"longitude": 14.489444
				},
				"country": "MT",
				"date": {
					"local": "2025-03-08T17:00:00.000+00:00",
					"utc": "2025-03-08T16:00:00.000Z"
				},
				"location": "aqicn|6432",
				"isMobile": false,
				"parameter": "no2",
				"sourceName": "aqicn",
				"entity": "other",
				"value": 6,
				"unit": "ppb"
			},
			{
				"attribution": [
					{
						"url": "https://era.org.mt/",
						"name": "ERA - Malta Environment & Resources Authority",
						"logo": "Malta-Era.png"
					},
					{
						"url": "http://www.eea.europa.eu/themes/air/",
						"name": "European Environment Agency",
						"logo": "Europe-EEA.png"
					},
					{
						"url": "https://waqi.info/",
						"name": "World Air Quality Index Project"
					}
				],
				"averagingPeriod": {
					"unit": "day",
					"value": 1
				},
				"city": "Msida, Malta",
				"coordinates": {
					"latitude": 35.897778,
					"longitude": 14.489444
				},
				"country": "MT",
				"date": {
					"local": "2025-03-08T17:00:00.000+00:00",
					"utc": "2025-03-08T16:00:00.000Z"
				},
				"location": "aqicn|6432",
				"isMobile": false,
				"parameter": "pm10",
				"sourceName": "aqicn",
				"entity": "other",
				"value": 19.4,
				"unit": "µg/m³"
			},
			{
				"attribution": [
					{
						"url": "https://era.org.mt/",
						"name": "ERA - Malta Environment & Resources Authority",
						"logo": "Malta-Era.png"
					},
					{
						"url": "http://www.eea.europa.eu/themes/air/",
						"name": "European Environment Agency",
						"logo": "Europe-EEA.png"
					},
					{
						"url": "https://waqi.info/",
						"name": "World Air Quality Index Project"
					}
				],
				"averagingPeriod": {
					"unit": "day",
					"value": 1
				},
				"city": "Msida, Malta",
				"coordinates": {
					"latitude": 35.897778,
					"longitude": 14.489444
				},
				"country": "MT",
				"date": {
					"local": "2025-03-08T17:00:00.000+00:00",
					"utc": "2025-03-08T16:00:00.000Z"
				},
				"location": "aqicn|6432",
				"isMobile": false,
				"parameter": "pm25",
				"sourceName": "aqicn",
				"entity": "other",
				"value": 6.7,
				"unit": "µg/m³"
			},
			{
				"attribution": [
					{
						"url": "https://era.org.mt/",
						"name": "ERA - Malta Environment & Resources Authority",
						"logo": "Malta-Era.png"
					},
					{
						"url": "http://www.eea.europa.eu/themes/air/",
						"name": "European Environment Agency",
						"logo": "Europe-EEA.png"
					},
					{
						"url": "https://waqi.info/",
						"name": "World Air Quality Index Project"
					}
				],
				"averagingPeriod": {
					"unit": "day",
					"value": 1
				},
				"city": "Msida, Malta",
				"coordinates": {
					"latitude": 35.897778,
					"longitude": 14.489444
				},
				"country": "MT",
				"date": {
					"local": "2025-03-08T17:00:00.000+00:00",
					"utc": "2025-03-08T16:00:00.000Z"
				},
				"location": "aqicn|6432",
				"isMobile": false,
				"parameter": "so2",
				"sourceName": "aqicn",
				"entity": "other",
				"value": 0.1,
				"unit": "ppb"
			}
		],
		"pm25": {
			"attribution": [
				{
					"url": "https://era.org.mt/",
					"name": "ERA - Malta Environment & Resources Authority",
					"logo": "Malta-Era.png"
				},
				{
					"url": "http://www.eea.europa.eu/themes/air/",
					"name": "European Environment Agency",
					"logo": "Europe-EEA.png"
				},
				{
					"url": "https://waqi.info/",
					"name": "World Air Quality Index Project"
				}
			],
			"averagingPeriod": {
				"unit": "day",
				"value": 1
			},
			"city": "Msida, Malta",
			"coordinates": {
				"latitude": 35.897778,
				"longitude": 14.489444
			},
			"country": "MT",
			"date": {
				"local": "2025-03-08T17:00:00.000+00:00",
				"utc": "2025-03-08T16:00:00.000Z"
			},
			"location": "aqicn|6432",
			"isMobile": false,
			"parameter": "pm25",
			"sourceName": "aqicn",
			"entity": "other",
			"value": 6.7,
			"unit": "µg/m³"
		},
		"shootismoke": {
			"dailyCigarettes": 0.30454545454545456,
			"distanceToStation": 2,
			"isAccurate": true
		}
	}
}