{
	"country": "India",
	"name": "Vārānasi",
	"gps": {
		"latitude": 25.33,
		"longitude": 83
	},
	"slug": "varanasi",
	"adminName": "Uttar Pradesh",
	"photoUrl": "https://live.staticflickr.com/5012/5418823006_dec7e0fa6b_m.jpg",
	"api": {
		"results": [
			{
				"attribution": [
					{
						"url": "http://cpcb.nic.in/",
						"name": "CPCB - India Central Pollution Control Board",
						"logo": "India-CPCB.png"
					},
					{
						"url": "https://waqi.info/",
						"name": "World Air Quality Index Project"
					}
				],
				"averagingPeriod": {
					"unit": "day",
					"value": 1
				},
				"city": "Maldahiya, Varanasi, India",
				"coordinates": {
					"latitude": 25.32393,
					"longitude": 82.99687
				},
				"country": "IN",
				"date": {
					"local": "2025-03-09T04:30:00.000+00:00",
					"utc": "2025-03-08T23:00:00.000Z"
				},
				"location": "aqicn|13690",
				"isMobile": false,
				"parameter": "co",
				"sourceName": "aqicn",
				"entity": "other",
				"value": 2.1,
				"unit": "ppb"
			},
			{
				"attribution": [
					{
						"url": "http://cpcb.nic.in/",
						"name": "CPCB - India Central Pollution Control Board",
						"logo": "India-CPCB.png"
					},
					{
						"url": "https://waqi.info/",
						"name": "World Air Quality Index Project"
					}
				],
				"averagingPeriod": {
					"unit": "day",
					"value": 1
				},
				"city": "Maldahiya, Varanasi, India",
				"coordinates": {
					"latitude": 25.32393,
					"longitude": 82.99687
				},
				"country": "IN",
				"date": {
					"local": "2025-03-09T04:30:00.000+00:00",
					"utc": "2025-03-08T23:00:00.000Z"
				},
				"location": "aqicn|13690",
				"isMobile": false,
				"parameter": "no2",
				"sourceName": "aqicn",
				"entity": "other",
				"value": 0.7,
				"unit": "ppb"
			},
			{
				"attribution": [
					{
						"url": "http://cpcb.nic.in/",
						"name": "CPCB - India Central Pollution Control Board",
						"logo": "India-CPCB.png"
					},
					{
						"url": "https://waqi.info/",
						"name": "World Air Quality Index Project"
					}
				],
				"averagingPeriod": {
					"unit": "day",
					"value": 1
				},
				"city": "Maldahiya, Varanasi, India",
				"coordinates": {
					"latitude": 25.32393,
					"longitude": 82.99687
				},
				"country": "IN",
				"date": {
					"local": "2025-03-09T04:30:00.000+00:00",
					"utc": "2025-03-08T23:00:00.000Z"
				},
				"location": "aqicn|13690",
				"isMobile": false,
				"parameter": "o3",
				"sourceName": "aqicn",
				"entity": "other",
				"value": 0.3,
				"unit": "ppb"
			},
			{
				"attribution": [
					{
						"url": "http://cpcb.nic.in/",
						"name": "CPCB - India Central Pollution Control Board",
						"logo": "India-CPCB.png"
					},
					{
						"url": "https://waqi.info/",
						"name": "World Air Quality Index Project"
					}
				],
				"averagingPeriod": {
					"unit": "day",
					"value": 1
				},
				"city": "Maldahiya, Varanasi, India",
				"coordinates": {
					"latitude": 25.32393,
					"longitude": 82.99687
				},
				"country": "IN",
				"date": {
					"local": "2025-03-09T04:30:00.000+00:00",
					"utc": "2025-03-08T23:00:00.000Z"
				},
				"location": "aqicn|13690",
				"isMobile": false,
				"parameter": "pm10",
				"sourceName": "aqicn",
				"entity": "other",
				"value": 141.9,
				"unit": "µg/m³"
			},
			{
				"attribution": [
					{
						"url": "http://cpcb.nic.in/",
						"name": "CPCB - India Central Pollution Control Board",
						"logo": "India-CPCB.png"
					},
					{
						"url": "https://waqi.info/",
						"name": "World Air Quality Index Project"
					}
				],
				"averagingPeriod": {
					"unit": "day",
					"value": 1
				},
				"city": "Maldahiya, Varanasi, India",
				"coordinates": {
					"latitude": 25.32393,
					"longitude": 82.99687
				},
				"country": "IN",
				"date": {
					"local": "2025-03-09T04:30:00.000+00:00",
					"utc": "2025-03-08T23:00:00.000Z"
				},
				"location": "aqicn|13690",
				"isMobile": false,
				"parameter": "pm25",
				"sourceName": "aqicn",
				"entity": "other",
				"value": 21.6,
				"unit": "µg/m³"
			},
			{
				"attribution": [
					{
						"url": "http://cpcb.nic.in/",
						"name": "CPCB - India Central Pollution Control Board",
						"logo": "India-CPCB.png"
					},
					{
						"url": "https://waqi.info/",
						"name": "World Air Quality Index Project"
					}
				],
				"averagingPeriod": {
					"unit": "day",
					"value": 1
				},
				"city": "Maldahiya, Varanasi, India",
				"coordinates": {
					"latitude": 25.32393,
					"longitude": 82.99687
				},
				"country": "IN",
				"date": {
					"local": "2025-03-09T04:30:00.000+00:00",
					"utc": "2025-03-08T23:00:00.000Z"
				},
				"location": "aqicn|13690",
				"isMobile": false,
				"parameter": "so2",
				"sourceName": "aqicn",
				"entity": "other",
				"value": 8,
				"unit": "ppb"
			}
		],
		"pm25": {
			"attribution": [
				{
					"url": "http://cpcb.nic.in/",
					"name": "CPCB - India Central Pollution Control Board",
					"logo": "India-CPCB.png"
				},
				{
					"url": "https://waqi.info/",
					"name": "World Air Quality Index Project"
				}
			],
			"averagingPeriod": {
				"unit": "day",
				"value": 1
			},
			"city": "Maldahiya, Varanasi, India",
			"coordinates": {
				"latitude": 25.32393,
				"longitude": 82.99687
			},
			"country": "IN",
			"date": {
				"local": "2025-03-09T04:30:00.000+00:00",
				"utc": "2025-03-08T23:00:00.000Z"
			},
			"location": "aqicn|13690",
			"isMobile": false,
			"parameter": "pm25",
			"sourceName": "aqicn",
			"entity": "other",
			"value": 21.6,
			"unit": "µg/m³"
		},
		"shootismoke": {
			"dailyCigarettes": 0.9818181818181819,
			"distanceToStation": 1,
			"isAccurate": true
		}
	}
}