{
	"country": "Mexico",
	"name": "Veracruz",
	"gps": {
		"latitude": 19.1773,
		"longitude": -96.16
	},
	"slug": "veracruz",
	"adminName": "Veracruz",
	"photoUrl": "https://live.staticflickr.com/5219/5403283470_523c046c17_m.jpg"
}