{
	"country": "United States",
	"name": "Washington",
	"gps": {
		"latitude": 38.9047,
		"longitude": -77.0163
	},
	"slug": "washington",
	"adminName": "District of Columbia",
	"photoUrl": "https://live.staticflickr.com/4568/38891697401_1695f612b0_m.jpg"
}