{
	"country": "New Zealand",
	"name": "Wellington",
	"gps": {
		"latitude": -41.3,
		"longitude": 174.7833
	},
	"slug": "wellington",
	"adminName": "Wellington",
	"photoUrl": "https://live.staticflickr.com/8320/7999206896_4ebba214d1_m.jpg"
}