{
	"country": "China",
	"name": "Xiantao",
	"gps": {
		"latitude": 30.3704,
		"longitude": 113.44
	},
	"slug": "xiantao",
	"adminName": "Hubei",
	"photoUrl": "https://live.staticflickr.com/208/491189643_e7b884c035_m.jpg"
}