{
	"country": "China",
	"name": "Xingyi",
	"gps": {
		"latitude": 25.0904,
		"longitude": 104.89
	},
	"slug": "xingyi",
	"adminName": "Guizhou",
	"photoUrl": "https://live.staticflickr.com/2795/4323386999_6acdfa8514_m.jpg"
}