{
	"country": "China",
	"name": "Xinyu",
	"gps": {
		"latitude": 27.8,
		"longitude": 114.93
	},
	"slug": "xinyu",
	"adminName": "Jiangxi",
	"photoUrl": "https://live.staticflickr.com/3786/19694528194_6e9a0c2da9_m.jpg",
	"api": {
		"results": [
			{
				"attribution": [
					{
						"url": "http://www.jxepb.gov.cn/",
						"name": "Jiangxi Province Environmental Protection Agency (江西省环境保护厅)"
					},
					{
						"url": "https://waqi.info/",
						"name": "World Air Quality Index Project"
					}
				],
				"averagingPeriod": {
					"unit": "day",
					"value": 1
				},
				"city": "Bureau of Meteorology, Xinyu (新余市气象局)",
				"coordinates": {
					"latitude": 27.8036,
					"longitude": 114.9314
				},
				"country": "CN",
				"date": {
					"local": "2025-03-09T09:00:00.000+00:00",
					"utc": "2025-03-09T01:00:00.000Z"
				},
				"location": "aqicn|5876",
				"isMobile": false,
				"parameter": "co",
				"sourceName": "aqicn",
				"entity": "other",
				"value": 0.5,
				"unit": "ppb"
			},
			{
				"attribution": [
					{
						"url": "http://www.jxepb.gov.cn/",
						"name": "Jiangxi Province Environmental Protection Agency (江西省环境保护厅)"
					},
					{
						"url": "https://waqi.info/",
						"name": "World Air Quality Index Project"
					}
				],
				"averagingPeriod": {
					"unit": "day",
					"value": 1
				},
				"city": "Bureau of Meteorology, Xinyu (新余市气象局)",
				"coordinates": {
					"latitude": 27.8036,
					"longitude": 114.9314
				},
				"country": "CN",
				"date": {
					"local": "2025-03-09T09:00:00.000+00:00",
					"utc": "2025-03-09T01:00:00.000Z"
				},
				"location": "aqicn|5876",
				"isMobile": false,
				"parameter": "no2",
				"sourceName": "aqicn",
				"entity": "other",
				"value": 15.1,
				"unit": "ppb"
			},
			{
				"attribution": [
					{
						"url": "http://www.jxepb.gov.cn/",
						"name": "Jiangxi Province Environmental Protection Agency (江西省环境保护厅)"
					},
					{
						"url": "https://waqi.info/",
						"name": "World Air Quality Index Project"
					}
				],
				"averagingPeriod": {
					"unit": "day",
					"value": 1
				},
				"city": "Bureau of Meteorology, Xinyu (新余市气象局)",
				"coordinates": {
					"latitude": 27.8036,
					"longitude": 114.9314
				},
				"country": "CN",
				"date": {
					"local": "2025-03-09T09:00:00.000+00:00",
					"utc": "2025-03-09T01:00:00.000Z"
				},
				"location": "aqicn|5876",
				"isMobile": false,
				"parameter": "o3",
				"sourceName": "aqicn",
				"entity": "other",
				"value": 20.6,
				"unit": "ppb"
			},
			{
				"attribution": [
					{
						"url": "http://www.jxepb.gov.cn/",
						"name": "Jiangxi Province Environmental Protection Agency (江西省环境保护厅)"
					},
					{
						"url": "https://waqi.info/",
						"name": "World Air Quality Index Project"
					}
				],
				"averagingPeriod": {
					"unit": "day",
					"value": 1
				},
				"city": "Bureau of Meteorology, Xinyu (新余市气象局)",
				"coordinates": {
					"latitude": 27.8036,
					"longitude": 114.9314
				},
				"country": "CN",
				"date": {
					"local": "2025-03-09T09:00:00.000+00:00",
					"utc": "2025-03-09T01:00:00.000Z"
				},
				"location": "aqicn|5876",
				"isMobile": false,
				"parameter": "pm10",
				"sourceName": "aqicn",
				"entity": "other",
				"value": 43.2,
				"unit": "µg/m³"
			},
			{
				"attribution": [
					{
						"url": "http://www.jxepb.gov.cn/",
						"name": "Jiangxi Province Environmental Protection Agency (江西省环境保护厅)"
					},
					{
						"url": "https://waqi.info/",
						"name": "World Air Quality Index Project"
					}
				],
				"averagingPeriod": {
					"unit": "day",
					"value": 1
				},
				"city": "Bureau of Meteorology, Xinyu (新余市气象局)",
				"coordinates": {
					"latitude": 27.8036,
					"longitude": 114.9314
				},
				"country": "CN",
				"date": {
					"local": "2025-03-09T09:00:00.000+00:00",
					"utc": "2025-03-09T01:00:00.000Z"
				},
				"location": "aqicn|5876",
				"isMobile": false,
				"parameter": "pm25",
				"sourceName": "aqicn",
				"entity": "other",
				"value": 31.1,
				"unit": "µg/m³"
			},
			{
				"attribution": [
					{
						"url": "http://www.jxepb.gov.cn/",
						"name": "Jiangxi Province Environmental Protection Agency (江西省环境保护厅)"
					},
					{
						"url": "https://waqi.info/",
						"name": "World Air Quality Index Project"
					}
				],
				"averagingPeriod": {
					"unit": "day",
					"value": 1
				},
				"city": "Bureau of Meteorology, Xinyu (新余市气象局)",
				"coordinates": {
					"latitude": 27.8036,
					"longitude": 114.9314
				},
				"country": "CN",
				"date": {
					"local": "2025-03-09T09:00:00.000+00:00",
					"utc": "2025-03-09T01:00:00.000Z"
				},
				"location": "aqicn|5876",
				"isMobile": false,
				"parameter": "so2",
				"sourceName": "aqicn",
				"entity": "other",
				"value": 2.5,
				"unit": "ppb"
			}
		],
		"pm25": {
			"attribution": [
				{
					"url": "http://www.jxepb.gov.cn/",
					"name": "Jiangxi Province Environmental Protection Agency (江西省环境保护厅)"
				},
				{
					"url": "https://waqi.info/",
					"name": "World Air Quality Index Project"
				}
			],
			"averagingPeriod": {
				"unit": "day",
				"value": 1
			},
			"city": "Bureau of Meteorology, Xinyu (新余市气象局)",
			"coordinates": {
				"latitude": 27.8036,
				"longitude": 114.9314
			},
			"country": "CN",
			"date": {
				"local": "2025-03-09T09:00:00.000+00:00",
				"utc": "2025-03-09T01:00:00.000Z"
			},
			"location": "aqicn|5876",
			"isMobile": false,
			"parameter": "pm25",
			"sourceName": "aqicn",
			"entity": "other",
			"value": 31.1,
			"unit": "µg/m³"
		},
		"shootismoke": {
			"dailyCigarettes": 1.4136363636363638,
			"distanceToStation": 0,
			"isAccurate": true
		}
	}
}