{
	"country": "China",
	"name": "Xinyang",
	"gps": {
		"latitude": 32.1304,
		"longitude": 114.07
	},
	"slug": "xinyang",
	"adminName": "Henan",
	"photoUrl": "https://live.staticflickr.com/65535/48729779293_0eacbcc6f8_m.jpg"
}