{
	"country": "Côte D’Ivoire",
	"name": "Yamoussoukro",
	"gps": {
		"latitude": 6.8184,
		"longitude": -5.2755
	},
	"slug": "yamoussoukro",
	"adminName": "Yamoussoukro",
	"photoUrl": "https://live.staticflickr.com/1201/1041476943_d80039df04_m.jpg"
}