{
	"country": "Russia",
	"name": "Yekaterinburg",
	"gps": {
		"latitude": 56.85,
		"longitude": 60.6
	},
	"slug": "yekaterinburg",
	"adminName": "Sverdlovskaya Oblast’",
	"photoUrl": "https://live.staticflickr.com/4337/35942869873_f83958bee0_m.jpg"
}