{
	"country": "China",
	"name": "Yibin",
	"gps": {
		"latitude": 28.77,
		"longitude": 104.57
	},
	"slug": "yibin",
	"adminName": "Sichuan",
	"photoUrl": "https://live.staticflickr.com/4005/4651636697_f3d42e703d_m.jpg",
	"api": {
		"results": [
			{
				"attribution": [
					{
						"url": "https://sthjt.sc.gov.cn/",
						"name": "Sichuan Province Environmental Protection Agency (四川省环保重点城市环境空气质量实时监测结果)"
					},
					{
						"url": "https://waqi.info/",
						"name": "World Air Quality Index Project"
					}
				],
				"averagingPeriod": {
					"unit": "day",
					"value": 1
				},
				"city": "No. 4 middle school, Yibin (宜宾宜宾四中)",
				"coordinates": {
					"latitude": 28.7867,
					"longitude": 104.6061
				},
				"country": "CN",
				"date": {
					"local": "2025-03-09T09:00:00.000+00:00",
					"utc": "2025-03-09T01:00:00.000Z"
				},
				"location": "aqicn|3613",
				"isMobile": false,
				"parameter": "co",
				"sourceName": "aqicn",
				"entity": "other",
				"value": 0.6,
				"unit": "ppb"
			},
			{
				"attribution": [
					{
						"url": "https://sthjt.sc.gov.cn/",
						"name": "Sichuan Province Environmental Protection Agency (四川省环保重点城市环境空气质量实时监测结果)"
					},
					{
						"url": "https://waqi.info/",
						"name": "World Air Quality Index Project"
					}
				],
				"averagingPeriod": {
					"unit": "day",
					"value": 1
				},
				"city": "No. 4 middle school, Yibin (宜宾宜宾四中)",
				"coordinates": {
					"latitude": 28.7867,
					"longitude": 104.6061
				},
				"country": "CN",
				"date": {
					"local": "2025-03-09T09:00:00.000+00:00",
					"utc": "2025-03-09T01:00:00.000Z"
				},
				"location": "aqicn|3613",
				"isMobile": false,
				"parameter": "no2",
				"sourceName": "aqicn",
				"entity": "other",
				"value": 12.6,
				"unit": "ppb"
			},
			{
				"attribution": [
					{
						"url": "https://sthjt.sc.gov.cn/",
						"name": "Sichuan Province Environmental Protection Agency (四川省环保重点城市环境空气质量实时监测结果)"
					},
					{
						"url": "https://waqi.info/",
						"name": "World Air Quality Index Project"
					}
				],
				"averagingPeriod": {
					"unit": "day",
					"value": 1
				},
				"city": "No. 4 middle school, Yibin (宜宾宜宾四中)",
				"coordinates": {
					"latitude": 28.7867,
					"longitude": 104.6061
				},
				"country": "CN",
				"date": {
					"local": "2025-03-09T09:00:00.000+00:00",
					"utc": "2025-03-09T01:00:00.000Z"
				},
				"location": "aqicn|3613",
				"isMobile": false,
				"parameter": "pm10",
				"sourceName": "aqicn",
				"entity": "other",
				"value": 48.6,
				"unit": "µg/m³"
			},
			{
				"attribution": [
					{
						"url": "https://sthjt.sc.gov.cn/",
						"name": "Sichuan Province Environmental Protection Agency (四川省环保重点城市环境空气质量实时监测结果)"
					},
					{
						"url": "https://waqi.info/",
						"name": "World Air Quality Index Project"
					}
				],
				"averagingPeriod": {
					"unit": "day",
					"value": 1
				},
				"city": "No. 4 middle school, Yibin (宜宾宜宾四中)",
				"coordinates": {
					"latitude": 28.7867,
					"longitude": 104.6061
				},
				"country": "CN",
				"date": {
					"local": "2025-03-09T09:00:00.000+00:00",
					"utc": "2025-03-09T01:00:00.000Z"
				},
				"location": "aqicn|3613",
				"isMobile": false,
				"parameter": "pm25",
				"sourceName": "aqicn",
				"entity": "other",
				"value": 36.7,
				"unit": "µg/m³"
			},
			{
				"attribution": [
					{
						"url": "https://sthjt.sc.gov.cn/",
						"name": "Sichuan Province Environmental Protection Agency (四川省环保重点城市环境空气质量实时监测结果)"
					},
					{
						"url": "https://waqi.info/",
						"name": "World Air Quality Index Project"
					}
				],
				"averagingPeriod": {
					"unit": "day",
					"value": 1
				},
				"city": "No. 4 middle school, Yibin (宜宾宜宾四中)",
				"coordinates": {
					"latitude": 28.7867,
					"longitude": 104.6061
				},
				"country": "CN",
				"date": {
					"local": "2025-03-09T09:00:00.000+00:00",
					"utc": "2025-03-09T01:00:00.000Z"
				},
				"location": "aqicn|3613",
				"isMobile": false,
				"parameter": "so2",
				"sourceName": "aqicn",
				"entity": "other",
				"value": 2.9,
				"unit": "ppb"
			}
		],
		"pm25": {
			"attribution": [
				{
					"url": "https://sthjt.sc.gov.cn/",
					"name": "Sichuan Province Environmental Protection Agency (四川省环保重点城市环境空气质量实时监测结果)"
				},
				{
					"url": "https://waqi.info/",
					"name": "World Air Quality Index Project"
				}
			],
			"averagingPeriod": {
				"unit": "day",
				"value": 1
			},
			"city": "No. 4 middle school, Yibin (宜宾宜宾四中)",
			"coordinates": {
				"latitude": 28.7867,
				"longitude": 104.6061
			},
			"country": "CN",
			"date": {
				"local": "2025-03-09T09:00:00.000+00:00",
				"utc": "2025-03-09T01:00:00.000Z"
			},
			"location": "aqicn|3613",
			"isMobile": false,
			"parameter": "pm25",
			"sourceName": "aqicn",
			"entity": "other",
			"value": 36.7,
			"unit": "µg/m³"
		},
		"shootismoke": {
			"dailyCigarettes": 1.6681818181818182,
			"distanceToStation": 4,
			"isAccurate": true
		}
	}
}