{
	"country": "Iran",
	"name": "Zāhedān",
	"gps": {
		"latitude": 29.5,
		"longitude": 60.83
	},
	"slug": "zahedan",
	"adminName": "Sīstān va Balūchestān",
	"photoUrl": "https://live.staticflickr.com/6157/6186306435_9b28a7c55f_m.jpg"
}