{
	"country": "China",
	"name": "Zaozhuang",
	"gps": {
		"latitude": 34.88,
		"longitude": 117.57
	},
	"slug": "zaozhuang",
	"adminName": "Shandong",
	"photoUrl": "https://live.staticflickr.com/5135/5453035878_73224e2f03_m.jpg",
	"api": {
		"results": [
			{
				"attribution": [
					{
						"url": "http://sthj.shandong.gov.cn/",
						"name": "Environmental Protection Department of Shandong Province (山东省环境保护厅)"
					},
					{
						"url": "https://waqi.info/",
						"name": "World Air Quality Index Project"
					}
				],
				"averagingPeriod": {
					"unit": "day",
					"value": 1
				},
				"city": "Shizhong District Government, Zaozhuang (枣庄市中区政府)",
				"coordinates": {
					"latitude": 34.85138889,
					"longitude": 117.5638889
				},
				"country": "CN",
				"date": {
					"local": "2025-03-09T09:00:00.000+00:00",
					"utc": "2025-03-09T01:00:00.000Z"
				},
				"location": "aqicn|538",
				"isMobile": false,
				"parameter": "co",
				"sourceName": "aqicn",
				"entity": "other",
				"value": 0,
				"unit": "ppb"
			},
			{
				"attribution": [
					{
						"url": "http://sthj.shandong.gov.cn/",
						"name": "Environmental Protection Department of Shandong Province (山东省环境保护厅)"
					},
					{
						"url": "https://waqi.info/",
						"name": "World Air Quality Index Project"
					}
				],
				"averagingPeriod": {
					"unit": "day",
					"value": 1
				},
				"city": "Shizhong District Government, Zaozhuang (枣庄市中区政府)",
				"coordinates": {
					"latitude": 34.85138889,
					"longitude": 117.5638889
				},
				"country": "CN",
				"date": {
					"local": "2025-03-09T09:00:00.000+00:00",
					"utc": "2025-03-09T01:00:00.000Z"
				},
				"location": "aqicn|538",
				"isMobile": false,
				"parameter": "no2",
				"sourceName": "aqicn",
				"entity": "other",
				"value": 10.7,
				"unit": "ppb"
			},
			{
				"attribution": [
					{
						"url": "http://sthj.shandong.gov.cn/",
						"name": "Environmental Protection Department of Shandong Province (山东省环境保护厅)"
					},
					{
						"url": "https://waqi.info/",
						"name": "World Air Quality Index Project"
					}
				],
				"averagingPeriod": {
					"unit": "day",
					"value": 1
				},
				"city": "Shizhong District Government, Zaozhuang (枣庄市中区政府)",
				"coordinates": {
					"latitude": 34.85138889,
					"longitude": 117.5638889
				},
				"country": "CN",
				"date": {
					"local": "2025-03-09T09:00:00.000+00:00",
					"utc": "2025-03-09T01:00:00.000Z"
				},
				"location": "aqicn|538",
				"isMobile": false,
				"parameter": "o3",
				"sourceName": "aqicn",
				"entity": "other",
				"value": 48.3,
				"unit": "ppb"
			},
			{
				"attribution": [
					{
						"url": "http://sthj.shandong.gov.cn/",
						"name": "Environmental Protection Department of Shandong Province (山东省环境保护厅)"
					},
					{
						"url": "https://waqi.info/",
						"name": "World Air Quality Index Project"
					}
				],
				"averagingPeriod": {
					"unit": "day",
					"value": 1
				},
				"city": "Shizhong District Government, Zaozhuang (枣庄市中区政府)",
				"coordinates": {
					"latitude": 34.85138889,
					"longitude": 117.5638889
				},
				"country": "CN",
				"date": {
					"local": "2025-03-09T09:00:00.000+00:00",
					"utc": "2025-03-09T01:00:00.000Z"
				},
				"location": "aqicn|538",
				"isMobile": false,
				"parameter": "pm10",
				"sourceName": "aqicn",
				"entity": "other",
				"value": 89.3,
				"unit": "µg/m³"
			},
			{
				"attribution": [
					{
						"url": "http://sthj.shandong.gov.cn/",
						"name": "Environmental Protection Department of Shandong Province (山东省环境保护厅)"
					},
					{
						"url": "https://waqi.info/",
						"name": "World Air Quality Index Project"
					}
				],
				"averagingPeriod": {
					"unit": "day",
					"value": 1
				},
				"city": "Shizhong District Government, Zaozhuang (枣庄市中区政府)",
				"coordinates": {
					"latitude": 34.85138889,
					"longitude": 117.5638889
				},
				"country": "CN",
				"date": {
					"local": "2025-03-09T09:00:00.000+00:00",
					"utc": "2025-03-09T01:00:00.000Z"
				},
				"location": "aqicn|538",
				"isMobile": false,
				"parameter": "pm25",
				"sourceName": "aqicn",
				"entity": "other",
				"value": 65.2,
				"unit": "µg/m³"
			},
			{
				"attribution": [
					{
						"url": "http://sthj.shandong.gov.cn/",
						"name": "Environmental Protection Department of Shandong Province (山东省环境保护厅)"
					},
					{
						"url": "https://waqi.info/",
						"name": "World Air Quality Index Project"
					}
				],
				"averagingPeriod": {
					"unit": "day",
					"value": 1
				},
				"city": "Shizhong District Government, Zaozhuang (枣庄市中区政府)",
				"coordinates": {
					"latitude": 34.85138889,
					"longitude": 117.5638889
				},
				"country": "CN",
				"date": {
					"local": "2025-03-09T09:00:00.000+00:00",
					"utc": "2025-03-09T01:00:00.000Z"
				},
				"location": "aqicn|538",
				"isMobile": false,
				"parameter": "so2",
				"sourceName": "aqicn",
				"entity": "other",
				"value": 2.5,
				"unit": "ppb"
			}
		],
		"pm25": {
			"attribution": [
				{
					"url": "http://sthj.shandong.gov.cn/",
					"name": "Environmental Protection Department of Shandong Province (山东省环境保护厅)"
				},
				{
					"url": "https://waqi.info/",
					"name": "World Air Quality Index Project"
				}
			],
			"averagingPeriod": {
				"unit": "day",
				"value": 1
			},
			"city": "Shizhong District Government, Zaozhuang (枣庄市中区政府)",
			"coordinates": {
				"latitude": 34.85138889,
				"longitude": 117.5638889
			},
			"country": "CN",
			"date": {
				"local": "2025-03-09T09:00:00.000+00:00",
				"utc": "2025-03-09T01:00:00.000Z"
			},
			"location": "aqicn|538",
			"isMobile": false,
			"parameter": "pm25",
			"sourceName": "aqicn",
			"entity": "other",
			"value": 65.2,
			"unit": "µg/m³"
		},
		"shootismoke": {
			"dailyCigarettes": 2.963636363636364,
			"distanceToStation": 3,
			"isAccurate": true
		}
	}
}