{
	"country": "China",
	"name": "Zhengzhou",
	"gps": {
		"latitude": 34.755,
		"longitude": 113.6651
	},
	"slug": "zhengzhou",
	"adminName": "Henan",
	"photoUrl": "https://live.staticflickr.com/718/21764615041_92a9aff5ca_m.jpg",
	"api": {
		"results": [
			{
				"attribution": [
					{
						"url": "https://waqi.info/",
						"name": "World Air Quality Index Project"
					}
				],
				"averagingPeriod": {
					"unit": "day",
					"value": 1
				},
				"city": "Tobacco factory, Zhengzhou (郑州烟厂)",
				"coordinates": {
					"latitude": 34.7545,
					"longitude": 113.681
				},
				"country": "CN",
				"date": {
					"local": "2025-03-09T09:00:00.000+00:00",
					"utc": "2025-03-09T01:00:00.000Z"
				},
				"location": "aqicn|1313",
				"isMobile": false,
				"parameter": "co",
				"sourceName": "aqicn",
				"entity": "other",
				"value": 0.3,
				"unit": "ppb"
			},
			{
				"attribution": [
					{
						"url": "https://waqi.info/",
						"name": "World Air Quality Index Project"
					}
				],
				"averagingPeriod": {
					"unit": "day",
					"value": 1
				},
				"city": "Tobacco factory, Zhengzhou (郑州烟厂)",
				"coordinates": {
					"latitude": 34.7545,
					"longitude": 113.681
				},
				"country": "CN",
				"date": {
					"local": "2025-03-09T09:00:00.000+00:00",
					"utc": "2025-03-09T01:00:00.000Z"
				},
				"location": "aqicn|1313",
				"isMobile": false,
				"parameter": "no2",
				"sourceName": "aqicn",
				"entity": "other",
				"value": 15.6,
				"unit": "ppb"
			},
			{
				"attribution": [
					{
						"url": "https://waqi.info/",
						"name": "World Air Quality Index Project"
					}
				],
				"averagingPeriod": {
					"unit": "day",
					"value": 1
				},
				"city": "Tobacco factory, Zhengzhou (郑州烟厂)",
				"coordinates": {
					"latitude": 34.7545,
					"longitude": 113.681
				},
				"country": "CN",
				"date": {
					"local": "2025-03-09T09:00:00.000+00:00",
					"utc": "2025-03-09T01:00:00.000Z"
				},
				"location": "aqicn|1313",
				"isMobile": false,
				"parameter": "pm10",
				"sourceName": "aqicn",
				"entity": "other",
				"value": 59,
				"unit": "µg/m³"
			},
			{
				"attribution": [
					{
						"url": "https://waqi.info/",
						"name": "World Air Quality Index Project"
					}
				],
				"averagingPeriod": {
					"unit": "day",
					"value": 1
				},
				"city": "Tobacco factory, Zhengzhou (郑州烟厂)",
				"coordinates": {
					"latitude": 34.7545,
					"longitude": 113.681
				},
				"country": "CN",
				"date": {
					"local": "2025-03-09T09:00:00.000+00:00",
					"utc": "2025-03-09T01:00:00.000Z"
				},
				"location": "aqicn|1313",
				"isMobile": false,
				"parameter": "pm25",
				"sourceName": "aqicn",
				"entity": "other",
				"value": 74.9,
				"unit": "µg/m³"
			},
			{
				"attribution": [
					{
						"url": "https://waqi.info/",
						"name": "World Air Quality Index Project"
					}
				],
				"averagingPeriod": {
					"unit": "day",
					"value": 1
				},
				"city": "Tobacco factory, Zhengzhou (郑州烟厂)",
				"coordinates": {
					"latitude": 34.7545,
					"longitude": 113.681
				},
				"country": "CN",
				"date": {
					"local": "2025-03-09T09:00:00.000+00:00",
					"utc": "2025-03-09T01:00:00.000Z"
				},
				"location": "aqicn|1313",
				"isMobile": false,
				"parameter": "so2",
				"sourceName": "aqicn",
				"entity": "other",
				"value": 1.5,
				"unit": "ppb"
			}
		],
		"pm25": {
			"attribution": [
				{
					"url": "https://waqi.info/",
					"name": "World Air Quality Index Project"
				}
			],
			"averagingPeriod": {
				"unit": "day",
				"value": 1
			},
			"city": "Tobacco factory, Zhengzhou (郑州烟厂)",
			"coordinates": {
				"latitude": 34.7545,
				"longitude": 113.681
			},
			"country": "CN",
			"date": {
				"local": "2025-03-09T09:00:00.000+00:00",
				"utc": "2025-03-09T01:00:00.000Z"
			},
			"location": "aqicn|1313",
			"isMobile": false,
			"parameter": "pm25",
			"sourceName": "aqicn",
			"entity": "other",
			"value": 74.9,
			"unit": "µg/m³"
		},
		"shootismoke": {
			"dailyCigarettes": 3.4045454545454548,
			"distanceToStation": 1,
			"isAccurate": true
		}
	}
}