{
	"country": "China",
	"name": "Zibo",
	"gps": {
		"latitude": 36.8,
		"longitude": 118.05
	},
	"slug": "zibo",
	"adminName": "Shandong",
	"photoUrl": "https://live.staticflickr.com/3026/2642478674_2fb488e6a5_m.jpg",
	"api": {
		"results": [
			{
				"attribution": [
					{
						"url": "http://sthj.shandong.gov.cn/",
						"name": "Environmental Protection Department of Shandong Province (山东省环境保护厅)"
					},
					{
						"url": "https://waqi.info/",
						"name": "World Air Quality Index Project"
					}
				],
				"averagingPeriod": {
					"unit": "day",
					"value": 1
				},
				"city": "People's Park, Zibo (淄博人民公园)",
				"coordinates": {
					"latitude": 36.80833333,
					"longitude": 118.0422222
				},
				"country": "CN",
				"date": {
					"local": "2025-03-09T09:00:00.000+00:00",
					"utc": "2025-03-09T01:00:00.000Z"
				},
				"location": "aqicn|527",
				"isMobile": false,
				"parameter": "co",
				"sourceName": "aqicn",
				"entity": "other",
				"value": 0,
				"unit": "ppb"
			},
			{
				"attribution": [
					{
						"url": "http://sthj.shandong.gov.cn/",
						"name": "Environmental Protection Department of Shandong Province (山东省环境保护厅)"
					},
					{
						"url": "https://waqi.info/",
						"name": "World Air Quality Index Project"
					}
				],
				"averagingPeriod": {
					"unit": "day",
					"value": 1
				},
				"city": "People's Park, Zibo (淄博人民公园)",
				"coordinates": {
					"latitude": 36.80833333,
					"longitude": 118.0422222
				},
				"country": "CN",
				"date": {
					"local": "2025-03-09T09:00:00.000+00:00",
					"utc": "2025-03-09T01:00:00.000Z"
				},
				"location": "aqicn|527",
				"isMobile": false,
				"parameter": "no2",
				"sourceName": "aqicn",
				"entity": "other",
				"value": 35.9,
				"unit": "ppb"
			},
			{
				"attribution": [
					{
						"url": "http://sthj.shandong.gov.cn/",
						"name": "Environmental Protection Department of Shandong Province (山东省环境保护厅)"
					},
					{
						"url": "https://waqi.info/",
						"name": "World Air Quality Index Project"
					}
				],
				"averagingPeriod": {
					"unit": "day",
					"value": 1
				},
				"city": "People's Park, Zibo (淄博人民公园)",
				"coordinates": {
					"latitude": 36.80833333,
					"longitude": 118.0422222
				},
				"country": "CN",
				"date": {
					"local": "2025-03-09T09:00:00.000+00:00",
					"utc": "2025-03-09T01:00:00.000Z"
				},
				"location": "aqicn|527",
				"isMobile": false,
				"parameter": "o3",
				"sourceName": "aqicn",
				"entity": "other",
				"value": 19.8,
				"unit": "ppb"
			},
			{
				"attribution": [
					{
						"url": "http://sthj.shandong.gov.cn/",
						"name": "Environmental Protection Department of Shandong Province (山东省环境保护厅)"
					},
					{
						"url": "https://waqi.info/",
						"name": "World Air Quality Index Project"
					}
				],
				"averagingPeriod": {
					"unit": "day",
					"value": 1
				},
				"city": "People's Park, Zibo (淄博人民公园)",
				"coordinates": {
					"latitude": 36.80833333,
					"longitude": 118.0422222
				},
				"country": "CN",
				"date": {
					"local": "2025-03-09T09:00:00.000+00:00",
					"utc": "2025-03-09T01:00:00.000Z"
				},
				"location": "aqicn|527",
				"isMobile": false,
				"parameter": "pm10",
				"sourceName": "aqicn",
				"entity": "other",
				"value": 133.8,
				"unit": "µg/m³"
			},
			{
				"attribution": [
					{
						"url": "http://sthj.shandong.gov.cn/",
						"name": "Environmental Protection Department of Shandong Province (山东省环境保护厅)"
					},
					{
						"url": "https://waqi.info/",
						"name": "World Air Quality Index Project"
					}
				],
				"averagingPeriod": {
					"unit": "day",
					"value": 1
				},
				"city": "People's Park, Zibo (淄博人民公园)",
				"coordinates": {
					"latitude": 36.80833333,
					"longitude": 118.0422222
				},
				"country": "CN",
				"date": {
					"local": "2025-03-09T09:00:00.000+00:00",
					"utc": "2025-03-09T01:00:00.000Z"
				},
				"location": "aqicn|527",
				"isMobile": false,
				"parameter": "pm25",
				"sourceName": "aqicn",
				"entity": "other",
				"value": 96.2,
				"unit": "µg/m³"
			},
			{
				"attribution": [
					{
						"url": "http://sthj.shandong.gov.cn/",
						"name": "Environmental Protection Department of Shandong Province (山东省环境保护厅)"
					},
					{
						"url": "https://waqi.info/",
						"name": "World Air Quality Index Project"
					}
				],
				"averagingPeriod": {
					"unit": "day",
					"value": 1
				},
				"city": "People's Park, Zibo (淄博人民公园)",
				"coordinates": {
					"latitude": 36.80833333,
					"longitude": 118.0422222
				},
				"country": "CN",
				"date": {
					"local": "2025-03-09T09:00:00.000+00:00",
					"utc": "2025-03-09T01:00:00.000Z"
				},
				"location": "aqicn|527",
				"isMobile": false,
				"parameter": "so2",
				"sourceName": "aqicn",
				"entity": "other",
				"value": 4.6,
				"unit": "ppb"
			}
		],
		"pm25": {
			"attribution": [
				{
					"url": "http://sthj.shandong.gov.cn/",
					"name": "Environmental Protection Department of Shandong Province (山东省环境保护厅)"
				},
				{
					"url": "https://waqi.info/",
					"name": "World Air Quality Index Project"
				}
			],
			"averagingPeriod": {
				"unit": "day",
				"value": 1
			},
			"city": "People's Park, Zibo (淄博人民公园)",
			"coordinates": {
				"latitude": 36.80833333,
				"longitude": 118.0422222
			},
			"country": "CN",
			"date": {
				"local": "2025-03-09T09:00:00.000+00:00",
				"utc": "2025-03-09T01:00:00.000Z"
			},
			"location": "aqicn|527",
			"isMobile": false,
			"parameter": "pm25",
			"sourceName": "aqicn",
			"entity": "other",
			"value": 96.2,
			"unit": "µg/m³"
		},
		"shootismoke": {
			"dailyCigarettes": 4.372727272727273,
			"distanceToStation": 1,
			"isAccurate": true
		}
	}
}